<?xml version="1.0" encoding="utf-8" standalone="no"?>
<!DOCTYPE svg PUBLIC "-//W3C//DTD SVG 1.1//EN"
  "http://www.w3.org/Graphics/SVG/1.1/DTD/svg11.dtd">
<!-- Created with matplotlib (http://matplotlib.org/) -->
<svg height="432pt" version="1.1" viewBox="0 0 576 432" width="576pt" xmlns="http://www.w3.org/2000/svg" xmlns:xlink="http://www.w3.org/1999/xlink">
 <defs>
  <style type="text/css">
*{stroke-linecap:butt;stroke-linejoin:round;}
  </style>
 </defs>
 <g id="figure_1">
  <g id="patch_1">
   <path d="
M0 432
L576 432
L576 0
L0 0
z
" style="fill:#ffffff;"/>
  </g>
  <g id="axes_1">
   <g id="patch_2">
    <path d="
M72 388.8
L518.4 388.8
L518.4 43.2
L72 43.2
z
" style="fill:#ffffff;"/>
   </g>
   <g id="line2d_1">
    <path clip-path="url(#p7ff5b81e1d)" d="
M72 55.816
L72.8932 64.5012
L74.0098 78.1361
L75.3497 98.004
L76.9129 124.928
L79.3693 171.963
L83.1656 244.651
L85.1754 278.509
L86.7386 301.425
L88.3018 321.059
L89.6416 335.264
L90.9815 347.157
L92.3214 356.917
L93.4379 363.587
L94.5545 369.079
L95.671 373.544
L96.7876 377.128
L97.9042 379.968
L99.0207 382.19
L100.137 383.907
L101.254 385.218
L102.37 386.206
L103.71 387.065
L105.05 387.657
L106.613 388.112
L108.623 388.453
L111.303 388.668
L115.992 388.779
L131.848 388.8
L518.4 388.8
L518.4 388.8" style="fill:none;stroke:#8000ff;stroke-linecap:square;"/>
   </g>
   <g id="line2d_2">
    <path clip-path="url(#p7ff5b81e1d)" d="
M101.009 388.8
L101.009 55.816" style="fill:none;stroke:#8000ff;stroke-linecap:square;"/>
   </g>
   <g id="line2d_3">
    <path clip-path="url(#p7ff5b81e1d)" d="
M72 356.679
L73.1166 348.642
L74.2331 339.145
L75.573 325.663
L76.9129 309.785
L78.476 288.184
L80.0392 263.416
L82.049 227.608
L85.1754 166.858
L87.8551 116.261
L89.4183 90.4491
L90.7582 71.8826
L91.8747 59.5462
L92.768 52.0147
L93.4379 47.835
L94.1079 44.97
L94.5545 43.8078
L95.0011 43.2514
L95.2244 43.2014
L95.4477 43.3038
L95.8943 43.9647
L96.341 45.2305
L96.7876 47.0948
L97.4575 50.9907
L98.1275 56.1644
L99.0207 64.9442
L100.137 78.6845
L101.477 98.6567
L103.04 125.668
L105.497 172.761
L109.293 245.376
L111.303 279.143
L112.866 301.976
L114.429 321.524
L115.769 335.657
L117.109 347.482
L118.449 357.182
L119.565 363.806
L120.682 369.259
L121.798 373.689
L122.915 377.243
L124.032 380.058
L125.148 382.26
L126.265 383.961
L127.381 385.259
L128.498 386.237
L129.838 387.086
L131.178 387.672
L132.741 388.121
L134.751 388.458
L137.43 388.67
L142.12 388.78
L158.198 388.8
L518.4 388.8
L518.4 388.8" style="fill:none;stroke:#6032fe;stroke-linecap:square;"/>
   </g>
   <g id="line2d_4">
    <path clip-path="url(#p7ff5b81e1d)" d="
M127.096 388.8
L127.096 43.2014" style="fill:none;stroke:#6032fe;stroke-linecap:square;"/>
   </g>
   <g id="line2d_5">
    <path clip-path="url(#p7ff5b81e1d)" d="
M72 388.792
L79.146 388.664
L82.049 388.415
L84.0588 388.04
L85.622 387.543
L86.9619 386.898
L88.0784 386.147
L89.195 385.139
L90.3116 383.803
L91.4281 382.054
L92.5447 379.793
L93.6612 376.907
L94.7778 373.267
L95.8943 368.736
L97.0109 363.167
L98.1275 356.412
L99.244 348.324
L100.361 338.771
L101.7 325.218
L103.04 309.266
L104.604 287.581
L106.167 262.734
L108.176 226.848
L111.303 166.062
L113.983 115.546
L115.546 89.834
L116.886 71.3817
L118.002 59.1577
L118.895 51.7252
L119.565 47.6238
L120.235 44.8396
L120.682 43.7322
L121.129 43.231
L121.352 43.2087
L121.575 43.3387
L122.022 44.0547
L122.468 45.3752
L123.138 48.4734
L123.808 52.8789
L124.702 60.6951
L125.595 70.5816
L126.711 85.5443
L128.051 106.707
L129.838 138.89
L136.984 272.698
L138.547 296.356
L140.11 316.765
L141.45 331.624
L142.79 344.132
L144.13 354.454
L145.246 361.54
L146.363 367.401
L147.479 372.187
L148.596 376.043
L149.712 379.112
L150.829 381.523
L151.946 383.394
L153.062 384.828
L154.179 385.913
L155.295 386.725
L156.635 387.424
L158.198 387.965
L159.985 388.34
L162.441 388.607
L166.238 388.754
L175.17 388.799
L444.261 388.8
L518.4 388.8
L518.4 388.8" style="fill:none;stroke:#4062fa;stroke-linecap:square;"/>
   </g>
   <g id="line2d_6">
    <path clip-path="url(#p7ff5b81e1d)" d="
M153.183 388.8
L153.183 43.2087" style="fill:none;stroke:#4062fa;stroke-linecap:square;"/>
   </g>
   <g id="line2d_7">
    <path clip-path="url(#p7ff5b81e1d)" d="
M72 388.8
L104.604 388.693
L107.73 388.466
L109.963 388.085
L111.526 387.614
L112.866 387.001
L113.983 386.286
L115.099 385.324
L116.216 384.047
L117.332 382.373
L118.449 380.203
L119.565 377.427
L120.682 373.92
L121.798 369.545
L122.915 364.156
L124.032 357.605
L125.148 349.745
L126.265 340.44
L127.605 327.206
L128.944 311.586
L130.284 293.528
L131.848 269.475
L133.634 238.491
L136.09 191.636
L139.887 118.785
L141.45 92.631
L142.79 73.67
L143.906 60.9432
L144.8 53.0669
L145.47 48.6138
L146.139 45.4664
L146.586 44.1124
L147.033 43.3626
L147.256 43.2156
L147.479 43.221
L147.703 43.3786
L148.149 44.1497
L148.596 45.5248
L149.266 48.7033
L149.936 53.1863
L150.829 61.1003
L151.722 71.0763
L152.839 86.1368
L154.179 107.393
L155.965 139.657
L162.888 269.731
L164.674 296.927
L166.238 317.251
L167.577 332.036
L168.917 344.476
L170.257 354.734
L171.374 361.773
L172.49 367.593
L173.607 372.342
L174.723 376.168
L175.84 379.21
L176.956 381.6
L178.073 383.453
L179.19 384.873
L180.306 385.947
L181.423 386.75
L182.763 387.442
L184.326 387.976
L186.112 388.347
L188.569 388.61
L192.365 388.755
L201.297 388.799
L475.524 388.8
L518.4 388.8
L518.4 388.8" style="fill:none;stroke:#208ef4;stroke-linecap:square;"/>
   </g>
   <g id="line2d_8">
    <path clip-path="url(#p7ff5b81e1d)" d="
M179.27 388.8
L179.27 43.2156" style="fill:none;stroke:#208ef4;stroke-linecap:square;"/>
   </g>
   <g id="line2d_9">
    <path clip-path="url(#p7ff5b81e1d)" d="
M72 388.8
L130.731 388.691
L133.857 388.461
L136.09 388.075
L137.654 387.599
L138.993 386.979
L140.11 386.255
L141.227 385.284
L142.343 383.994
L143.46 382.303
L144.576 380.114
L145.693 377.313
L146.809 373.777
L147.926 369.368
L149.043 363.939
L150.159 357.343
L151.276 349.433
L152.392 340.073
L153.732 326.769
L155.072 311.075
L156.635 289.688
L158.198 265.117
L160.208 229.507
L163.111 173.25
L166.014 118.063
L167.577 92.0053
L168.917 73.1558
L170.034 60.5396
L170.927 52.7612
L171.597 48.3858
L172.267 45.3187
L172.714 44.0193
L173.16 43.3246
L173.383 43.2053
L173.607 43.2383
L173.83 43.4235
L174.277 44.2496
L174.723 45.6793
L175.393 48.9379
L176.063 53.4984
L176.956 61.5098
L177.85 71.5749
L178.966 86.7326
L180.306 108.082
L182.093 140.426
L189.015 270.392
L190.802 297.496
L192.365 317.733
L193.705 332.447
L195.045 344.817
L196.385 355.013
L197.501 362.005
L198.618 367.783
L199.734 372.496
L200.851 376.291
L201.967 379.307
L203.084 381.676
L204.201 383.512
L205.317 384.917
L206.434 385.981
L207.55 386.775
L208.89 387.459
L210.453 387.987
L212.24 388.353
L214.696 388.613
L218.492 388.756
L227.648 388.799
L518.4 388.8
L518.4 388.8" style="fill:none;stroke:#00b5eb;stroke-linecap:square;"/>
   </g>
   <g id="line2d_10">
    <path clip-path="url(#p7ff5b81e1d)" d="
M205.357 388.8
L205.357 43.2053" style="fill:none;stroke:#00b5eb;stroke-linecap:square;"/>
   </g>
   <g id="line2d_11">
    <path clip-path="url(#p7ff5b81e1d)" d="
M72 388.8
L156.858 388.69
L159.985 388.456
L161.995 388.118
L163.558 387.666
L164.898 387.078
L166.238 386.225
L167.354 385.243
L168.471 383.94
L169.587 382.233
L170.704 380.023
L171.82 377.199
L172.937 373.633
L174.053 369.189
L175.17 363.721
L176.287 357.08
L177.403 349.119
L178.52 339.705
L179.86 326.33
L181.199 310.563
L182.763 289.09
L184.326 264.44
L186.336 228.751
L189.462 168.06
L192.142 117.343
L193.705 91.3826
L195.045 72.6454
L196.161 60.1403
L197.055 52.4601
L197.724 48.1626
L198.394 45.1759
L198.841 43.9312
L199.288 43.2916
L199.511 43.2
L199.734 43.2606
L200.181 43.8383
L200.628 45.0217
L201.074 46.8045
L201.744 50.5813
L202.414 55.6406
L203.307 64.2776
L204.424 77.8586
L205.764 97.6732
L207.327 124.553
L209.783 171.557
L213.58 244.281
L215.589 278.186
L217.153 301.144
L218.716 320.822
L220.056 335.064
L221.395 346.99
L222.735 356.782
L223.852 363.475
L224.968 368.988
L226.085 373.47
L227.202 377.069
L228.318 379.921
L229.435 382.153
L230.551 383.879
L231.668 385.197
L232.784 386.19
L234.124 387.054
L235.464 387.65
L237.027 388.107
L239.037 388.45
L241.717 388.667
L246.183 388.777
L260.922 388.8
L518.4 388.8
L518.4 388.8" style="fill:none;stroke:#20d5e1;stroke-linecap:square;"/>
   </g>
   <g id="line2d_12">
    <path clip-path="url(#p7ff5b81e1d)" d="
M231.444 388.8
L231.444 43.2" style="fill:none;stroke:#20d5e1;stroke-linecap:square;"/>
   </g>
   <g id="line2d_13">
    <path clip-path="url(#p7ff5b81e1d)" d="
M72 388.8
L182.763 388.697
L186.112 388.451
L188.122 388.109
L189.685 387.652
L191.025 387.056
L192.365 386.194
L193.482 385.202
L194.598 383.886
L195.715 382.162
L196.831 379.932
L197.948 377.083
L199.064 373.488
L200.181 369.01
L201.297 363.502
L202.414 356.815
L203.531 348.804
L204.647 339.334
L205.987 325.888
L207.327 310.047
L208.89 288.49
L210.453 263.761
L212.463 227.993
L215.589 167.263
L218.269 116.625
L219.832 90.763
L221.172 72.1387
L222.289 59.7453
L223.182 52.1637
L223.852 47.9442
L224.522 45.0381
L224.968 43.8481
L225.415 43.2637
L225.638 43.1996
L225.862 43.2879
L226.308 43.9208
L226.755 45.1589
L227.202 46.9957
L227.872 50.8515
L228.541 55.9867
L229.435 64.7185
L230.551 78.4053
L231.891 98.3245
L233.454 125.292
L235.911 172.355
L239.707 245.008
L241.717 278.821
L243.28 301.696
L244.843 321.288
L246.183 335.458
L247.523 347.317
L248.863 357.048
L249.979 363.695
L251.096 369.168
L252.213 373.616
L253.329 377.185
L254.446 380.012
L255.562 382.224
L256.679 383.933
L257.795 385.238
L258.912 386.221
L260.252 387.075
L261.592 387.664
L263.155 388.117
L265.165 388.455
L267.844 388.669
L272.534 388.779
L288.612 388.8
L518.4 388.8
L518.4 388.8" style="fill:none;stroke:#40ecd4;stroke-linecap:square;"/>
   </g>
   <g id="line2d_14">
    <path clip-path="url(#p7ff5b81e1d)" d="
M257.531 388.8
L257.531 43.1996" style="fill:none;stroke:#40ecd4;stroke-linecap:square;"/>
   </g>
   <g id="line2d_15">
    <path clip-path="url(#p7ff5b81e1d)" d="
M72 388.8
L208.89 388.695
L212.24 388.446
L214.25 388.099
L215.813 387.637
L217.153 387.035
L218.492 386.163
L219.609 385.16
L220.726 383.831
L221.842 382.091
L222.959 379.84
L224.075 376.966
L225.192 373.342
L226.308 368.829
L227.425 363.28
L228.541 356.548
L229.658 348.486
L230.775 338.961
L232.114 325.445
L233.454 309.53
L235.018 287.888
L236.581 263.081
L238.59 227.234
L241.717 166.467
L244.397 115.909
L245.96 90.1463
L247.3 71.6359
L248.416 59.3546
L249.309 51.8718
L249.979 47.7305
L250.649 44.9053
L251.096 43.77
L251.543 43.2407
L251.766 43.2044
L251.989 43.3203
L252.436 44.0083
L252.882 45.301
L253.552 48.3584
L254.222 52.7243
L255.116 60.4907
L256.009 70.3316
L257.125 85.2442
L258.465 106.359
L260.252 138.5
L267.398 272.365
L269.184 299.189
L270.747 319.169
L272.087 333.664
L273.427 345.829
L274.767 355.838
L275.884 362.691
L277 368.346
L278.117 372.952
L279.233 376.655
L280.35 379.595
L281.466 381.899
L282.583 383.684
L283.699 385.048
L284.816 386.079
L286.156 386.976
L287.496 387.597
L289.059 388.074
L291.069 388.433
L293.748 388.66
L298.215 388.776
L312.283 388.8
L518.4 388.8
L518.4 388.8" style="fill:none;stroke:#60fac5;stroke-linecap:square;"/>
   </g>
   <g id="line2d_16">
    <path clip-path="url(#p7ff5b81e1d)" d="
M283.618 388.8
L283.618 43.2044" style="fill:none;stroke:#60fac5;stroke-linecap:square;"/>
   </g>
   <g id="line2d_17">
    <path clip-path="url(#p7ff5b81e1d)" d="
M72 388.8
L235.018 388.694
L238.144 388.468
L240.377 388.09
L241.94 387.622
L243.28 387.013
L244.397 386.301
L245.513 385.344
L246.63 384.074
L247.746 382.408
L248.863 380.248
L249.979 377.485
L251.096 373.992
L252.213 369.634
L253.329 364.266
L254.446 357.737
L255.562 349.902
L256.679 340.626
L258.019 327.428
L259.358 311.845
L260.698 293.824
L262.262 269.811
L264.048 238.867
L266.504 192.041
L270.524 115.195
L272.087 89.5328
L273.427 71.1369
L274.544 58.9683
L275.437 51.5846
L276.107 47.5218
L276.777 44.7773
L277.223 43.6969
L277.67 43.2228
L277.893 43.2141
L278.117 43.3577
L278.563 44.1007
L279.01 45.4481
L279.68 48.5858
L280.35 53.0294
L281.243 60.8938
L282.136 70.8243
L283.253 85.8352
L284.593 107.044
L286.379 139.267
L293.302 269.394
L295.088 296.637
L296.652 317.004
L297.991 331.827
L299.331 344.301
L300.671 354.592
L301.788 361.655
L302.904 367.496
L304.021 372.263
L305.137 376.104
L306.254 379.16
L307.37 381.561
L308.487 383.423
L309.604 384.85
L310.72 385.93
L311.837 386.738
L313.177 387.433
L314.74 387.97
L316.526 388.344
L318.983 388.608
L322.779 388.755
L331.711 388.799
L518.4 388.8
L518.4 388.8" style="fill:none;stroke:#80ffb4;stroke-linecap:square;"/>
   </g>
   <g id="line2d_18">
    <path clip-path="url(#p7ff5b81e1d)" d="
M309.705 388.8
L309.705 43.2141" style="fill:none;stroke:#80ffb4;stroke-linecap:square;"/>
   </g>
   <g id="line2d_19">
    <path clip-path="url(#p7ff5b81e1d)" d="
M72 388.8
L261.145 388.692
L264.271 388.463
L266.504 388.08
L268.068 387.606
L269.408 386.99
L270.524 386.271
L271.641 385.304
L272.757 384.021
L273.874 382.338
L274.99 380.159
L276.107 377.371
L277.223 373.85
L278.34 369.458
L279.457 364.05
L280.573 357.476
L281.69 349.592
L282.806 340.26
L284.146 326.992
L285.486 311.335
L287.049 289.992
L288.612 265.46
L290.622 229.891
L293.525 173.656
L296.428 118.43
L297.991 92.323
L299.331 73.4167
L300.448 60.7443
L301.341 52.9161
L302.011 48.5011
L302.681 45.3932
L303.128 44.066
L303.574 43.3433
L303.797 43.2099
L304.021 43.2288
L304.244 43.4001
L304.691 44.1982
L305.137 45.6001
L305.807 48.818
L306.477 53.3392
L307.37 61.3011
L308.264 71.3209
L309.38 86.4293
L310.72 107.731
L312.507 140.035
L319.429 270.056
L321.216 297.207
L322.779 317.488
L324.119 332.238
L325.459 344.644
L326.799 354.871
L327.915 361.887
L329.032 367.687
L330.148 372.418
L331.265 376.228
L332.381 379.258
L333.498 381.637
L334.615 383.482
L335.731 384.895
L336.848 385.964
L337.964 386.763
L339.304 387.45
L340.867 387.981
L342.654 388.35
L345.11 388.611
L348.906 388.756
L357.839 388.799
L518.4 388.8
L518.4 388.8" style="fill:none;stroke:#a0faa1;stroke-linecap:square;"/>
   </g>
   <g id="line2d_20">
    <path clip-path="url(#p7ff5b81e1d)" d="
M335.792 388.8
L335.792 43.2099" style="fill:none;stroke:#a0faa1;stroke-linecap:square;"/>
   </g>
   <g id="line2d_21">
    <path clip-path="url(#p7ff5b81e1d)" d="
M72 388.8
L287.272 388.69
L290.399 388.458
L292.632 388.07
L294.195 387.591
L295.535 386.968
L296.652 386.241
L297.768 385.264
L298.885 383.967
L300.001 382.269
L301.118 380.069
L302.234 377.257
L303.351 373.707
L304.467 369.28
L305.584 363.832
L306.701 357.214
L307.817 349.279
L308.934 339.892
L310.274 326.554
L311.613 310.824
L313.177 289.395
L314.74 264.784
L316.75 229.135
L319.653 172.858
L322.556 117.709
L324.119 91.6988
L325.459 72.9044
L326.575 60.3428
L327.469 52.6126
L328.138 48.2755
L328.808 45.2479
L329.255 43.9754
L329.702 43.3078
L329.925 43.202
L330.148 43.2486
L330.372 43.4475
L330.818 44.3006
L331.265 45.757
L331.935 49.055
L332.605 53.6535
L333.498 61.7127
L334.391 71.8214
L335.508 87.0267
L336.848 108.421
L338.634 140.804
L345.333 267.054
L347.12 294.619
L348.683 315.288
L350.023 330.367
L351.363 343.084
L352.703 353.597
L353.819 360.826
L354.936 366.815
L356.052 371.71
L357.169 375.662
L358.286 378.81
L359.402 381.287
L360.519 383.212
L361.635 384.689
L362.752 385.809
L363.868 386.648
L365.208 387.371
L366.771 387.931
L368.558 388.321
L371.014 388.598
L374.587 388.748
L382.627 388.798
L518.4 388.8
L518.4 388.8" style="fill:none;stroke:#c0eb8d;stroke-linecap:square;"/>
   </g>
   <g id="line2d_22">
    <path clip-path="url(#p7ff5b81e1d)" d="
M361.878 388.8
L361.878 43.202" style="fill:none;stroke:#c0eb8d;stroke-linecap:square;"/>
   </g>
   <g id="line2d_23">
    <path clip-path="url(#p7ff5b81e1d)" d="
M72 388.8
L313.177 388.698
L316.526 388.454
L318.536 388.113
L320.099 387.659
L321.439 387.067
L322.779 386.21
L323.896 385.223
L325.012 383.913
L326.129 382.198
L327.245 379.979
L328.362 377.142
L329.478 373.562
L330.595 369.101
L331.711 363.613
L332.828 356.95
L333.945 348.964
L335.061 339.523
L336.401 326.113
L337.741 310.31
L339.304 288.795
L340.867 264.107
L342.877 228.379
L346.003 167.668
L348.683 116.99
L350.246 91.0776
L351.586 72.3958
L352.703 59.9456
L353.596 52.3138
L354.266 48.0546
L354.936 45.1076
L355.382 43.8897
L355.829 43.2772
L356.052 43.1992
L356.276 43.2734
L356.722 43.8782
L357.169 45.0885
L357.616 46.8979
L358.286 50.7136
L358.955 55.8102
L359.849 64.4938
L360.965 78.1269
L362.305 97.9931
L363.868 124.916
L366.325 171.949
L370.121 244.638
L372.131 278.498
L373.694 301.416
L375.257 321.051
L376.597 335.258
L377.937 347.151
L379.277 356.913
L380.393 363.583
L381.51 369.076
L382.627 373.542
L383.743 377.126
L384.86 379.966
L385.976 382.188
L387.093 383.906
L388.209 385.217
L389.326 386.206
L390.666 387.064
L392.006 387.657
L393.569 388.112
L395.579 388.453
L398.258 388.668
L402.948 388.779
L418.803 388.8
L518.4 388.8
L518.4 388.8" style="fill:none;stroke:#e0d377;stroke-linecap:square;"/>
   </g>
   <g id="line2d_24">
    <path clip-path="url(#p7ff5b81e1d)" d="
M387.965 388.8
L387.965 43.1992" style="fill:none;stroke:#e0d377;stroke-linecap:square;"/>
   </g>
   <g id="line2d_25">
    <path clip-path="url(#p7ff5b81e1d)" d="
M72 388.8
L339.304 388.696
L342.654 388.449
L344.664 388.104
L346.227 387.644
L347.567 387.046
L348.906 386.179
L350.023 385.181
L351.14 383.859
L352.256 382.127
L353.373 379.887
L354.489 377.026
L355.606 373.416
L356.722 368.921
L357.839 363.393
L358.955 356.684
L360.072 348.648
L361.189 339.151
L362.528 325.671
L363.868 309.793
L365.432 288.194
L366.995 263.427
L369.005 227.62
L372.131 166.872
L374.811 116.273
L376.374 90.4594
L377.714 71.8911
L378.83 59.5527
L379.723 52.0196
L380.393 47.8385
L381.063 44.9722
L381.51 43.8091
L381.957 43.2518
L382.18 43.2013
L382.403 43.3032
L382.85 43.9632
L383.296 45.2282
L383.743 47.0915
L384.413 50.9861
L385.083 56.1585
L385.976 64.9367
L387.093 78.6753
L388.433 98.6457
L389.996 125.656
L392.452 172.747
L396.249 245.364
L398.258 279.133
L399.822 301.967
L401.385 321.516
L402.725 335.651
L404.064 347.477
L405.404 357.177
L406.521 363.802
L407.637 369.256
L408.754 373.687
L409.871 377.241
L410.987 380.057
L412.104 382.259
L413.22 383.96
L414.337 385.258
L415.453 386.236
L416.793 387.086
L418.133 387.672
L419.696 388.121
L421.706 388.458
L424.386 388.67
L429.075 388.78
L445.154 388.8
L518.4 388.8
L518.4 388.8" style="fill:none;stroke:#ffb360;stroke-linecap:square;"/>
   </g>
   <g id="line2d_26">
    <path clip-path="url(#p7ff5b81e1d)" d="
M414.052 388.8
L414.052 43.2013" style="fill:none;stroke:#ffb360;stroke-linecap:square;"/>
   </g>
   <g id="line2d_27">
    <path clip-path="url(#p7ff5b81e1d)" d="
M72 388.8
L365.432 388.695
L368.558 388.47
L370.791 388.095
L372.354 387.629
L373.694 387.024
L375.034 386.147
L376.15 385.139
L377.267 383.804
L378.384 382.055
L379.5 379.795
L380.617 376.909
L381.733 373.27
L382.85 368.739
L383.966 363.171
L385.083 356.416
L386.199 348.329
L387.316 338.777
L388.656 325.226
L389.996 309.275
L391.559 287.591
L393.122 262.746
L395.132 226.861
L398.258 166.076
L400.938 115.558
L402.501 89.8443
L403.841 71.3901
L404.958 59.1641
L405.851 51.7301
L406.521 47.6273
L407.191 44.8418
L407.637 43.7334
L408.084 43.2313
L408.307 43.2085
L408.531 43.338
L408.977 44.0531
L409.424 45.3727
L410.094 48.4696
L410.764 52.8737
L411.657 60.6884
L412.55 70.5733
L413.667 85.5343
L415.007 106.695
L416.793 138.877
L423.939 272.687
L425.502 296.346
L427.066 316.757
L428.405 331.617
L429.745 344.127
L431.085 354.449
L432.202 361.536
L433.318 367.398
L434.435 372.184
L435.551 376.041
L436.668 379.11
L437.784 381.522
L438.901 383.393
L440.018 384.827
L441.134 385.913
L442.251 386.725
L443.591 387.424
L445.154 387.965
L446.94 388.34
L449.397 388.607
L453.193 388.754
L462.125 388.799
L518.4 388.8
L518.4 388.8" style="fill:none;stroke:#ff8c49;stroke-linecap:square;"/>
   </g>
   <g id="line2d_28">
    <path clip-path="url(#p7ff5b81e1d)" d="
M440.139 388.8
L440.139 43.2085" style="fill:none;stroke:#ff8c49;stroke-linecap:square;"/>
   </g>
   <g id="line2d_29">
    <path clip-path="url(#p7ff5b81e1d)" d="
M72 388.8
L391.559 388.693
L394.685 388.466
L396.918 388.085
L398.482 387.614
L399.822 387.002
L400.938 386.286
L402.055 385.325
L403.171 384.048
L404.288 382.374
L405.404 380.205
L406.521 377.429
L407.637 373.922
L408.754 369.548
L409.871 364.16
L410.987 357.609
L412.104 349.75
L413.22 340.446
L414.56 327.214
L415.9 311.595
L417.24 293.538
L418.803 269.486
L420.589 238.504
L423.046 191.65
L426.842 118.797
L428.405 92.6415
L429.745 73.6786
L430.862 60.95
L431.755 53.0721
L432.425 48.6177
L433.095 45.4689
L433.542 44.114
L433.988 43.3633
L434.212 43.2158
L434.435 43.2207
L434.658 43.3779
L435.105 44.148
L435.551 45.5222
L436.221 48.6994
L436.891 53.1811
L437.784 61.0935
L438.678 71.068
L439.794 86.1269
L441.134 107.382
L442.921 139.644
L449.843 269.72
L451.63 296.917
L453.193 317.242
L454.533 332.03
L455.873 344.47
L457.213 354.729
L458.329 361.769
L459.446 367.59
L460.562 372.339
L461.679 376.165
L462.795 379.208
L463.912 381.598
L465.029 383.452
L466.145 384.872
L467.262 385.947
L468.378 386.75
L469.718 387.441
L471.281 387.976
L473.068 388.347
L475.524 388.61
L479.32 388.755
L488.253 388.799
L518.4 388.8
L518.4 388.8" style="fill:none;stroke:#ff5f30;stroke-linecap:square;"/>
   </g>
   <g id="line2d_30">
    <path clip-path="url(#p7ff5b81e1d)" d="
M466.226 388.8
L466.226 43.2158" style="fill:none;stroke:#ff5f30;stroke-linecap:square;"/>
   </g>
   <g id="line2d_31">
    <path clip-path="url(#p7ff5b81e1d)" d="
M72 388.8
L417.686 388.691
L420.813 388.461
L423.046 388.075
L424.609 387.599
L425.949 386.979
L427.066 386.256
L428.182 385.284
L429.299 383.995
L430.415 382.304
L431.532 380.115
L432.648 377.315
L433.765 373.78
L434.881 369.371
L435.998 363.943
L437.115 357.348
L438.231 349.438
L439.348 340.08
L440.688 326.777
L442.027 311.084
L443.591 289.698
L445.154 265.128
L447.164 229.52
L450.067 173.264
L452.97 118.075
L454.533 92.0158
L455.873 73.1644
L456.989 60.5464
L457.883 52.7663
L458.552 48.3896
L459.222 45.3211
L459.669 44.0208
L460.116 43.3252
L460.339 43.2054
L460.562 43.2379
L460.786 43.4227
L461.232 44.2479
L461.679 45.6766
L462.349 48.934
L463.019 53.4931
L463.912 61.5029
L464.805 71.5665
L465.922 86.7226
L467.262 108.07
L469.048 140.413
L475.971 270.381
L477.757 297.486
L479.32 317.725
L480.66 332.44
L482 344.811
L483.34 355.008
L484.457 362.001
L485.573 367.78
L486.69 372.494
L487.806 376.289
L488.923 379.306
L490.039 381.674
L491.156 383.511
L492.273 384.917
L493.389 385.98
L494.506 386.775
L495.846 387.458
L497.409 387.987
L499.195 388.353
L501.652 388.613
L505.448 388.756
L514.604 388.799
L518.4 388.8
L518.4 388.8" style="fill:none;stroke:#ff2f18;stroke-linecap:square;"/>
   </g>
   <g id="line2d_32">
    <path clip-path="url(#p7ff5b81e1d)" d="
M492.313 388.8
L492.313 43.2054" style="fill:none;stroke:#ff2f18;stroke-linecap:square;"/>
   </g>
   <g id="line2d_33">
    <path clip-path="url(#p7ff5b81e1d)" d="
M72 388.8
L443.814 388.69
L446.94 388.456
L448.95 388.118
L450.513 387.667
L451.853 387.078
L453.193 386.225
L454.31 385.244
L455.426 383.941
L456.543 382.234
L457.659 380.025
L458.776 377.201
L459.892 373.636
L461.009 369.192
L462.125 363.725
L463.242 357.084
L464.359 349.125
L465.475 339.711
L466.815 326.337
L468.155 310.571
L469.718 289.1
L471.281 264.451
L473.291 228.763
L476.417 168.073
L479.097 117.355
L480.66 91.3931
L482 72.6539
L483.117 60.147
L484.01 52.4652
L484.68 48.1663
L485.35 45.1783
L485.796 43.9326
L486.243 43.2921
L486.466 43.2
L486.69 43.2602
L487.136 43.837
L487.583 45.0194
L488.03 46.8013
L488.7 50.5768
L489.369 55.6349
L490.263 64.2702
L491.379 77.8495
L492.719 97.6623
L494.282 124.541
L496.739 171.544
L500.535 244.269
L502.545 278.175
L504.108 301.135
L505.671 320.814
L507.011 335.057
L508.351 346.985
L509.691 356.778
L510.807 363.471
L511.924 368.985
L513.041 373.468
L514.157 377.067
L515.274 379.92
L516.39 382.152
L517.507 383.878
L518.4 384.961
L518.4 384.961" style="fill:none;stroke:#ff0000;stroke-linecap:square;"/>
   </g>
   <g id="line2d_34">
    <path clip-path="url(#p7ff5b81e1d)" d="
M518.4 388.8
L518.4 43.2" style="fill:none;stroke:#ff0000;stroke-linecap:square;"/>
   </g>
   <g id="matplotlib.axis_1">
    <g id="xtick_1">
     <g id="line2d_35">
      <path clip-path="url(#p7ff5b81e1d)" d="
M72 388.8
L72 43.2" style="fill:none;stroke:#000000;stroke-dasharray:1.000000,3.000000;stroke-dashoffset:0.0;stroke-width:0.5;"/>
     </g>
     <g id="line2d_36">
      <defs>
       <path d="
M0 0
L0 -4" id="m93b0483c22" style="stroke:#000000;stroke-width:0.5;"/>
      </defs>
      <g>
       <use style="stroke:#000000;stroke-width:0.5;" x="72.0" xlink:href="#m93b0483c22" y="388.8"/>
      </g>
     </g>
     <g id="line2d_37">
      <defs>
       <path d="
M0 0
L0 4" id="m741efc42ff" style="stroke:#000000;stroke-width:0.5;"/>
      </defs>
      <g>
       <use style="stroke:#000000;stroke-width:0.5;" x="72.0" xlink:href="#m741efc42ff" y="43.2"/>
      </g>
     </g>
     <g id="text_1">
      <!-- 0.0 -->
      <defs>
       <path d="
M4.15625 35.2969
Q4.15625 48 6.76562 55.7344
Q9.375 63.4844 14.5156 67.6719
Q19.6719 71.875 27.4844 71.875
Q33.25 71.875 37.5938 69.5469
Q41.9375 67.2344 44.7656 62.8594
Q47.6094 58.5 49.2188 52.2188
Q50.8281 45.9531 50.8281 35.2969
Q50.8281 22.7031 48.2344 14.9688
Q45.6562 7.23438 40.5 3
Q35.3594 -1.21875 27.4844 -1.21875
Q17.1406 -1.21875 11.2344 6.20312
Q4.15625 15.1406 4.15625 35.2969
M13.1875 35.2969
Q13.1875 17.6719 17.3125 11.8281
Q21.4375 6 27.4844 6
Q33.5469 6 37.6719 11.8594
Q41.7969 17.7188 41.7969 35.2969
Q41.7969 52.9844 37.6719 58.7812
Q33.5469 64.5938 27.3906 64.5938
Q21.3438 64.5938 17.7188 59.4688
Q13.1875 52.9375 13.1875 35.2969" id="ArialMT-30"/>
       <path d="
M9.07812 0
L9.07812 10.0156
L19.0938 10.0156
L19.0938 0
z
" id="ArialMT-2e"/>
      </defs>
      <g transform="translate(64.19625 401.389375)scale(0.12 -0.12)">
       <use xlink:href="#ArialMT-30"/>
       <use x="55.615234375" xlink:href="#ArialMT-2e"/>
       <use x="83.3984375" xlink:href="#ArialMT-30"/>
      </g>
     </g>
    </g>
    <g id="xtick_2">
     <g id="line2d_38">
      <path clip-path="url(#p7ff5b81e1d)" d="
M161.28 388.8
L161.28 43.2" style="fill:none;stroke:#000000;stroke-dasharray:1.000000,3.000000;stroke-dashoffset:0.0;stroke-width:0.5;"/>
     </g>
     <g id="line2d_39">
      <g>
       <use style="stroke:#000000;stroke-width:0.5;" x="161.28" xlink:href="#m93b0483c22" y="388.8"/>
      </g>
     </g>
     <g id="line2d_40">
      <g>
       <use style="stroke:#000000;stroke-width:0.5;" x="161.28" xlink:href="#m741efc42ff" y="43.2"/>
      </g>
     </g>
     <g id="text_2">
      <!-- 0.2 -->
      <defs>
       <path d="
M50.3438 8.45312
L50.3438 0
L3.03125 0
Q2.9375 3.17188 4.04688 6.10938
Q5.85938 10.9375 9.82812 15.625
Q13.8125 20.3125 21.3438 26.4688
Q33.0156 36.0312 37.1094 41.625
Q41.2188 47.2188 41.2188 52.2031
Q41.2188 57.4219 37.4688 61
Q33.7344 64.5938 27.7344 64.5938
Q21.3906 64.5938 17.5781 60.7812
Q13.7656 56.9844 13.7188 50.25
L4.6875 51.1719
Q5.60938 61.2812 11.6562 66.5781
Q17.7188 71.875 27.9375 71.875
Q38.2344 71.875 44.2344 66.1562
Q50.25 60.4531 50.25 52
Q50.25 47.7031 48.4844 43.5469
Q46.7344 39.4062 42.6562 34.8125
Q38.5781 30.2188 29.1094 22.2188
Q21.1875 15.5781 18.9375 13.2031
Q16.7031 10.8438 15.2344 8.45312
z
" id="ArialMT-32"/>
      </defs>
      <g transform="translate(153.5053125 401.389375)scale(0.12 -0.12)">
       <use xlink:href="#ArialMT-30"/>
       <use x="55.615234375" xlink:href="#ArialMT-2e"/>
       <use x="83.3984375" xlink:href="#ArialMT-32"/>
      </g>
     </g>
    </g>
    <g id="xtick_3">
     <g id="line2d_41">
      <path clip-path="url(#p7ff5b81e1d)" d="
M250.56 388.8
L250.56 43.2" style="fill:none;stroke:#000000;stroke-dasharray:1.000000,3.000000;stroke-dashoffset:0.0;stroke-width:0.5;"/>
     </g>
     <g id="line2d_42">
      <g>
       <use style="stroke:#000000;stroke-width:0.5;" x="250.56" xlink:href="#m93b0483c22" y="388.8"/>
      </g>
     </g>
     <g id="line2d_43">
      <g>
       <use style="stroke:#000000;stroke-width:0.5;" x="250.56" xlink:href="#m741efc42ff" y="43.2"/>
      </g>
     </g>
     <g id="text_3">
      <!-- 0.4 -->
      <defs>
       <path d="
M32.3281 0
L32.3281 17.1406
L1.26562 17.1406
L1.26562 25.2031
L33.9375 71.5781
L41.1094 71.5781
L41.1094 25.2031
L50.7812 25.2031
L50.7812 17.1406
L41.1094 17.1406
L41.1094 0
z

M32.3281 25.2031
L32.3281 57.4688
L9.90625 25.2031
z
" id="ArialMT-34"/>
      </defs>
      <g transform="translate(242.7590625 401.389375)scale(0.12 -0.12)">
       <use xlink:href="#ArialMT-30"/>
       <use x="55.615234375" xlink:href="#ArialMT-2e"/>
       <use x="83.3984375" xlink:href="#ArialMT-34"/>
      </g>
     </g>
    </g>
    <g id="xtick_4">
     <g id="line2d_44">
      <path clip-path="url(#p7ff5b81e1d)" d="
M339.84 388.8
L339.84 43.2" style="fill:none;stroke:#000000;stroke-dasharray:1.000000,3.000000;stroke-dashoffset:0.0;stroke-width:0.5;"/>
     </g>
     <g id="line2d_45">
      <g>
       <use style="stroke:#000000;stroke-width:0.5;" x="339.84" xlink:href="#m93b0483c22" y="388.8"/>
      </g>
     </g>
     <g id="line2d_46">
      <g>
       <use style="stroke:#000000;stroke-width:0.5;" x="339.84" xlink:href="#m741efc42ff" y="43.2"/>
      </g>
     </g>
     <g id="text_4">
      <!-- 0.6 -->
      <defs>
       <path d="
M49.75 54.0469
L41.0156 53.375
Q39.8438 58.5469 37.7031 60.8906
Q34.125 64.6562 28.9062 64.6562
Q24.7031 64.6562 21.5312 62.3125
Q17.3906 59.2812 14.9844 53.4688
Q12.5938 47.6562 12.5 36.9219
Q15.6719 41.75 20.2656 44.0938
Q24.8594 46.4375 29.8906 46.4375
Q38.6719 46.4375 44.8438 39.9688
Q51.0312 33.5 51.0312 23.25
Q51.0312 16.5 48.125 10.7188
Q45.2188 4.9375 40.1406 1.85938
Q35.0625 -1.21875 28.6094 -1.21875
Q17.625 -1.21875 10.6875 6.85938
Q3.76562 14.9375 3.76562 33.5
Q3.76562 54.25 11.4219 63.6719
Q18.1094 71.875 29.4375 71.875
Q37.8906 71.875 43.2812 67.1406
Q48.6875 62.4062 49.75 54.0469
M13.875 23.1875
Q13.875 18.6562 15.7969 14.5
Q17.7188 10.3594 21.1875 8.17188
Q24.6562 6 28.4688 6
Q34.0312 6 38.0312 10.4844
Q42.0469 14.9844 42.0469 22.7031
Q42.0469 30.125 38.0781 34.3906
Q34.125 38.6719 28.125 38.6719
Q22.1719 38.6719 18.0156 34.3906
Q13.875 30.125 13.875 23.1875" id="ArialMT-36"/>
      </defs>
      <g transform="translate(332.0240625 401.389375)scale(0.12 -0.12)">
       <use xlink:href="#ArialMT-30"/>
       <use x="55.615234375" xlink:href="#ArialMT-2e"/>
       <use x="83.3984375" xlink:href="#ArialMT-36"/>
      </g>
     </g>
    </g>
    <g id="xtick_5">
     <g id="line2d_47">
      <path clip-path="url(#p7ff5b81e1d)" d="
M429.12 388.8
L429.12 43.2" style="fill:none;stroke:#000000;stroke-dasharray:1.000000,3.000000;stroke-dashoffset:0.0;stroke-width:0.5;"/>
     </g>
     <g id="line2d_48">
      <g>
       <use style="stroke:#000000;stroke-width:0.5;" x="429.12" xlink:href="#m93b0483c22" y="388.8"/>
      </g>
     </g>
     <g id="line2d_49">
      <g>
       <use style="stroke:#000000;stroke-width:0.5;" x="429.12" xlink:href="#m741efc42ff" y="43.2"/>
      </g>
     </g>
     <g id="text_5">
      <!-- 0.8 -->
      <defs>
       <path d="
M17.6719 38.8125
Q12.2031 40.8281 9.5625 44.5312
Q6.9375 48.25 6.9375 53.4219
Q6.9375 61.2344 12.5469 66.5469
Q18.1719 71.875 27.4844 71.875
Q36.8594 71.875 42.5781 66.4219
Q48.2969 60.9844 48.2969 53.1719
Q48.2969 48.1875 45.6719 44.5
Q43.0625 40.8281 37.75 38.8125
Q44.3438 36.6719 47.7812 31.875
Q51.2188 27.0938 51.2188 20.4531
Q51.2188 11.2812 44.7188 5.03125
Q38.2344 -1.21875 27.6406 -1.21875
Q17.0469 -1.21875 10.5469 5.04688
Q4.04688 11.3281 4.04688 20.7031
Q4.04688 27.6875 7.59375 32.3906
Q11.1406 37.1094 17.6719 38.8125
M15.9219 53.7188
Q15.9219 48.6406 19.1875 45.4062
Q22.4688 42.1875 27.6875 42.1875
Q32.7656 42.1875 36.0156 45.375
Q39.2656 48.5781 39.2656 53.2188
Q39.2656 58.0625 35.9062 61.3594
Q32.5625 64.6562 27.5938 64.6562
Q22.5625 64.6562 19.2344 61.4219
Q15.9219 58.2031 15.9219 53.7188
M13.0938 20.6562
Q13.0938 16.8906 14.875 13.375
Q16.6562 9.85938 20.1719 7.92188
Q23.6875 6 27.7344 6
Q34.0312 6 38.125 10.0469
Q42.2344 14.1094 42.2344 20.3594
Q42.2344 26.7031 38.0156 30.8594
Q33.7969 35.0156 27.4375 35.0156
Q21.2344 35.0156 17.1562 30.9062
Q13.0938 26.8125 13.0938 20.6562" id="ArialMT-38"/>
      </defs>
      <g transform="translate(421.2928125 401.389375)scale(0.12 -0.12)">
       <use xlink:href="#ArialMT-30"/>
       <use x="55.615234375" xlink:href="#ArialMT-2e"/>
       <use x="83.3984375" xlink:href="#ArialMT-38"/>
      </g>
     </g>
    </g>
    <g id="xtick_6">
     <g id="line2d_50">
      <path clip-path="url(#p7ff5b81e1d)" d="
M518.4 388.8
L518.4 43.2" style="fill:none;stroke:#000000;stroke-dasharray:1.000000,3.000000;stroke-dashoffset:0.0;stroke-width:0.5;"/>
     </g>
     <g id="line2d_51">
      <g>
       <use style="stroke:#000000;stroke-width:0.5;" x="518.4" xlink:href="#m93b0483c22" y="388.8"/>
      </g>
     </g>
     <g id="line2d_52">
      <g>
       <use style="stroke:#000000;stroke-width:0.5;" x="518.4" xlink:href="#m741efc42ff" y="43.2"/>
      </g>
     </g>
     <g id="text_6">
      <!-- 1.0 -->
      <defs>
       <path d="
M37.25 0
L28.4688 0
L28.4688 56
Q25.2969 52.9844 20.1406 49.9531
Q14.9844 46.9219 10.8906 45.4062
L10.8906 53.9062
Q18.2656 57.375 23.7812 62.2969
Q29.2969 67.2344 31.5938 71.875
L37.25 71.875
z
" id="ArialMT-31"/>
      </defs>
      <g transform="translate(511.0003125 401.389375)scale(0.12 -0.12)">
       <use xlink:href="#ArialMT-31"/>
       <use x="55.615234375" xlink:href="#ArialMT-2e"/>
       <use x="83.3984375" xlink:href="#ArialMT-30"/>
      </g>
     </g>
    </g>
    <g id="text_7">
     <!-- t -->
     <defs>
      <path d="
M25.7812 7.85938
L27.0469 0.09375
Q23.3438 -0.6875 20.4062 -0.6875
Q15.625 -0.6875 12.9844 0.828125
Q10.3594 2.34375 9.28125 4.8125
Q8.20312 7.28125 8.20312 15.1875
L8.20312 45.0156
L1.76562 45.0156
L1.76562 51.8594
L8.20312 51.8594
L8.20312 64.7031
L16.9375 69.9688
L16.9375 51.8594
L25.7812 51.8594
L25.7812 45.0156
L16.9375 45.0156
L16.9375 14.7031
Q16.9375 10.9375 17.4062 9.85938
Q17.875 8.79688 18.9219 8.15625
Q19.9688 7.51562 21.9219 7.51562
Q23.3906 7.51562 25.7812 7.85938" id="ArialMT-74"/>
     </defs>
     <g transform="translate(293.683125 417.36375)scale(0.12 -0.12)">
      <use xlink:href="#ArialMT-74"/>
     </g>
    </g>
   </g>
   <g id="matplotlib.axis_2">
    <g id="ytick_1">
     <g id="line2d_53">
      <path clip-path="url(#p7ff5b81e1d)" d="
M72 388.8
L518.4 388.8" style="fill:none;stroke:#000000;stroke-dasharray:1.000000,3.000000;stroke-dashoffset:0.0;stroke-width:0.5;"/>
     </g>
     <g id="line2d_54">
      <defs>
       <path d="
M0 0
L4 0" id="m728421d6d4" style="stroke:#000000;stroke-width:0.5;"/>
      </defs>
      <g>
       <use style="stroke:#000000;stroke-width:0.5;" x="72.0" xlink:href="#m728421d6d4" y="388.8"/>
      </g>
     </g>
     <g id="line2d_55">
      <defs>
       <path d="
M0 0
L-4 0" id="mcb0005524f" style="stroke:#000000;stroke-width:0.5;"/>
      </defs>
      <g>
       <use style="stroke:#000000;stroke-width:0.5;" x="518.4" xlink:href="#mcb0005524f" y="388.8"/>
      </g>
     </g>
     <g id="text_8">
      <!-- 0 -->
      <g transform="translate(62.399375 391.9021875)scale(0.12 -0.12)">
       <use xlink:href="#ArialMT-30"/>
      </g>
     </g>
    </g>
    <g id="ytick_2">
     <g id="line2d_56">
      <path clip-path="url(#p7ff5b81e1d)" d="
M72 347.516
L518.4 347.516" style="fill:none;stroke:#000000;stroke-dasharray:1.000000,3.000000;stroke-dashoffset:0.0;stroke-width:0.5;"/>
     </g>
     <g id="line2d_57">
      <g>
       <use style="stroke:#000000;stroke-width:0.5;" x="72.0" xlink:href="#m728421d6d4" y="347.516351302"/>
      </g>
     </g>
     <g id="line2d_58">
      <g>
       <use style="stroke:#000000;stroke-width:0.5;" x="518.4" xlink:href="#mcb0005524f" y="347.516351302"/>
      </g>
     </g>
     <g id="text_9">
      <!-- 2 -->
      <g transform="translate(62.31125 350.618538802)scale(0.12 -0.12)">
       <use xlink:href="#ArialMT-32"/>
      </g>
     </g>
    </g>
    <g id="ytick_3">
     <g id="line2d_59">
      <path clip-path="url(#p7ff5b81e1d)" d="
M72 306.233
L518.4 306.233" style="fill:none;stroke:#000000;stroke-dasharray:1.000000,3.000000;stroke-dashoffset:0.0;stroke-width:0.5;"/>
     </g>
     <g id="line2d_60">
      <g>
       <use style="stroke:#000000;stroke-width:0.5;" x="72.0" xlink:href="#m728421d6d4" y="306.232702603"/>
      </g>
     </g>
     <g id="line2d_61">
      <g>
       <use style="stroke:#000000;stroke-width:0.5;" x="518.4" xlink:href="#mcb0005524f" y="306.232702603"/>
      </g>
     </g>
     <g id="text_10">
      <!-- 4 -->
      <g transform="translate(62.058125 309.334890103)scale(0.12 -0.12)">
       <use xlink:href="#ArialMT-34"/>
      </g>
     </g>
    </g>
    <g id="ytick_4">
     <g id="line2d_62">
      <path clip-path="url(#p7ff5b81e1d)" d="
M72 264.949
L518.4 264.949" style="fill:none;stroke:#000000;stroke-dasharray:1.000000,3.000000;stroke-dashoffset:0.0;stroke-width:0.5;"/>
     </g>
     <g id="line2d_63">
      <g>
       <use style="stroke:#000000;stroke-width:0.5;" x="72.0" xlink:href="#m728421d6d4" y="264.949053905"/>
      </g>
     </g>
     <g id="line2d_64">
      <g>
       <use style="stroke:#000000;stroke-width:0.5;" x="518.4" xlink:href="#mcb0005524f" y="264.949053905"/>
      </g>
     </g>
     <g id="text_11">
      <!-- 6 -->
      <g transform="translate(62.328125 268.051241405)scale(0.12 -0.12)">
       <use xlink:href="#ArialMT-36"/>
      </g>
     </g>
    </g>
    <g id="ytick_5">
     <g id="line2d_65">
      <path clip-path="url(#p7ff5b81e1d)" d="
M72 223.665
L518.4 223.665" style="fill:none;stroke:#000000;stroke-dasharray:1.000000,3.000000;stroke-dashoffset:0.0;stroke-width:0.5;"/>
     </g>
     <g id="line2d_66">
      <g>
       <use style="stroke:#000000;stroke-width:0.5;" x="72.0" xlink:href="#m728421d6d4" y="223.665405206"/>
      </g>
     </g>
     <g id="line2d_67">
      <g>
       <use style="stroke:#000000;stroke-width:0.5;" x="518.4" xlink:href="#mcb0005524f" y="223.665405206"/>
      </g>
     </g>
     <g id="text_12">
      <!-- 8 -->
      <g transform="translate(62.339375 226.767592706)scale(0.12 -0.12)">
       <use xlink:href="#ArialMT-38"/>
      </g>
     </g>
    </g>
    <g id="ytick_6">
     <g id="line2d_68">
      <path clip-path="url(#p7ff5b81e1d)" d="
M72 182.382
L518.4 182.382" style="fill:none;stroke:#000000;stroke-dasharray:1.000000,3.000000;stroke-dashoffset:0.0;stroke-width:0.5;"/>
     </g>
     <g id="line2d_69">
      <g>
       <use style="stroke:#000000;stroke-width:0.5;" x="72.0" xlink:href="#m728421d6d4" y="182.381756508"/>
      </g>
     </g>
     <g id="line2d_70">
      <g>
       <use style="stroke:#000000;stroke-width:0.5;" x="518.4" xlink:href="#mcb0005524f" y="182.381756508"/>
      </g>
     </g>
     <g id="text_13">
      <!-- 10 -->
      <g transform="translate(56.534375 185.483944008)scale(0.12 -0.12)">
       <use xlink:href="#ArialMT-31"/>
       <use x="55.615234375" xlink:href="#ArialMT-30"/>
      </g>
     </g>
    </g>
    <g id="ytick_7">
     <g id="line2d_71">
      <path clip-path="url(#p7ff5b81e1d)" d="
M72 141.098
L518.4 141.098" style="fill:none;stroke:#000000;stroke-dasharray:1.000000,3.000000;stroke-dashoffset:0.0;stroke-width:0.5;"/>
     </g>
     <g id="line2d_72">
      <g>
       <use style="stroke:#000000;stroke-width:0.5;" x="72.0" xlink:href="#m728421d6d4" y="141.09810781"/>
      </g>
     </g>
     <g id="line2d_73">
      <g>
       <use style="stroke:#000000;stroke-width:0.5;" x="518.4" xlink:href="#mcb0005524f" y="141.09810781"/>
      </g>
     </g>
     <g id="text_14">
      <!-- 12 -->
      <g transform="translate(56.5925 144.20029531)scale(0.12 -0.12)">
       <use xlink:href="#ArialMT-31"/>
       <use x="55.615234375" xlink:href="#ArialMT-32"/>
      </g>
     </g>
    </g>
    <g id="ytick_8">
     <g id="line2d_74">
      <path clip-path="url(#p7ff5b81e1d)" d="
M72 99.8145
L518.4 99.8145" style="fill:none;stroke:#000000;stroke-dasharray:1.000000,3.000000;stroke-dashoffset:0.0;stroke-width:0.5;"/>
     </g>
     <g id="line2d_75">
      <g>
       <use style="stroke:#000000;stroke-width:0.5;" x="72.0" xlink:href="#m728421d6d4" y="99.8144591113"/>
      </g>
     </g>
     <g id="line2d_76">
      <g>
       <use style="stroke:#000000;stroke-width:0.5;" x="518.4" xlink:href="#mcb0005524f" y="99.8144591113"/>
      </g>
     </g>
     <g id="text_15">
      <!-- 14 -->
      <g transform="translate(56.54 102.916646611)scale(0.12 -0.12)">
       <use xlink:href="#ArialMT-31"/>
       <use x="55.615234375" xlink:href="#ArialMT-34"/>
      </g>
     </g>
    </g>
    <g id="ytick_9">
     <g id="line2d_77">
      <path clip-path="url(#p7ff5b81e1d)" d="
M72 58.5308
L518.4 58.5308" style="fill:none;stroke:#000000;stroke-dasharray:1.000000,3.000000;stroke-dashoffset:0.0;stroke-width:0.5;"/>
     </g>
     <g id="line2d_78">
      <g>
       <use style="stroke:#000000;stroke-width:0.5;" x="72.0" xlink:href="#m728421d6d4" y="58.5308104129"/>
      </g>
     </g>
     <g id="line2d_79">
      <g>
       <use style="stroke:#000000;stroke-width:0.5;" x="518.4" xlink:href="#mcb0005524f" y="58.5308104129"/>
      </g>
     </g>
     <g id="text_16">
      <!-- 16 -->
      <g transform="translate(56.51 61.6329979129)scale(0.12 -0.12)">
       <use xlink:href="#ArialMT-31"/>
       <use x="55.615234375" xlink:href="#ArialMT-36"/>
      </g>
     </g>
    </g>
    <g id="text_17">
     <!-- P -->
     <defs>
      <path d="
M7.71875 0
L7.71875 71.5781
L34.7188 71.5781
Q41.8438 71.5781 45.6094 70.9062
Q50.875 70.0156 54.4375 67.5469
Q58.0156 65.0938 60.1875 60.6406
Q62.3594 56.2031 62.3594 50.875
Q62.3594 41.75 56.5469 35.4219
Q50.7344 29.1094 35.5469 29.1094
L17.1875 29.1094
L17.1875 0
z

M17.1875 37.5469
L35.6875 37.5469
Q44.875 37.5469 48.7344 40.9688
Q52.5938 44.3906 52.5938 50.5938
Q52.5938 55.0781 50.3125 58.2656
Q48.0469 61.4688 44.3438 62.5
Q41.9375 63.1406 35.5 63.1406
L17.1875 63.1406
z
" id="ArialMT-50"/>
     </defs>
     <g transform="translate(49.125 219.2784375)rotate(-90.0)scale(0.12 -0.12)">
      <use xlink:href="#ArialMT-50"/>
     </g>
    </g>
   </g>
   <g id="patch_3">
    <path d="
M72 43.2
L518.4 43.2" style="fill:none;stroke:#000000;"/>
   </g>
   <g id="patch_4">
    <path d="
M518.4 388.8
L518.4 43.2" style="fill:none;stroke:#000000;"/>
   </g>
   <g id="patch_5">
    <path d="
M72 388.8
L518.4 388.8" style="fill:none;stroke:#000000;"/>
   </g>
   <g id="patch_6">
    <path d="
M72 388.8
L72 43.2" style="fill:none;stroke:#000000;"/>
   </g>
   <g id="text_18">
    <!-- Flight PDF queue distribution -->
    <defs>
     <path d="
M14.7031 0
L6.54688 0
L6.54688 71.5781
L15.3281 71.5781
L15.3281 46.0469
Q20.9062 53.0312 29.5469 53.0312
Q34.3281 53.0312 38.5938 51.0938
Q42.875 49.1719 45.625 45.6719
Q48.3906 42.1875 49.9531 37.25
Q51.5156 32.3281 51.5156 26.7031
Q51.5156 13.375 44.9219 6.09375
Q38.3281 -1.17188 29.1094 -1.17188
Q19.9219 -1.17188 14.7031 6.5
z

M14.5938 26.3125
Q14.5938 17 17.1406 12.8438
Q21.2969 6.0625 28.375 6.0625
Q34.125 6.0625 38.3281 11.0625
Q42.5312 16.0625 42.5312 25.9844
Q42.5312 36.1406 38.5 40.9688
Q34.4688 45.7969 28.7656 45.7969
Q23 45.7969 18.7969 40.7969
Q14.5938 35.7969 14.5938 26.3125" id="ArialMT-62"/>
     <path d="
M4.98438 -4.29688
L13.5312 -5.5625
Q14.0625 -9.51562 16.5 -11.3281
Q19.7812 -13.7656 25.4375 -13.7656
Q31.5469 -13.7656 34.8594 -11.3281
Q38.1875 -8.89062 39.3594 -4.5
Q40.0469 -1.8125 39.9844 6.78125
Q34.2344 0 25.6406 0
Q14.9375 0 9.07812 7.71875
Q3.21875 15.4375 3.21875 26.2188
Q3.21875 33.6406 5.90625 39.9062
Q8.59375 46.1875 13.6875 49.6094
Q18.7969 53.0312 25.6875 53.0312
Q34.8594 53.0312 40.8281 45.6094
L40.8281 51.8594
L48.9219 51.8594
L48.9219 7.03125
Q48.9219 -5.07812 46.4531 -10.125
Q44 -15.1875 38.6406 -18.1094
Q33.2969 -21.0469 25.4844 -21.0469
Q16.2188 -21.0469 10.5 -16.875
Q4.78125 -12.7031 4.98438 -4.29688
M12.25 26.8594
Q12.25 16.6562 16.2969 11.9688
Q20.3594 7.28125 26.4688 7.28125
Q32.5156 7.28125 36.6094 11.9375
Q40.7188 16.6094 40.7188 26.5625
Q40.7188 36.0781 36.5 40.9062
Q32.2812 45.75 26.3125 45.75
Q20.4531 45.75 16.3438 40.9844
Q12.25 36.2344 12.25 26.8594" id="ArialMT-67"/>
     <path d="
M42.0938 16.7031
L51.1719 15.5781
Q49.0312 7.625 43.2188 3.21875
Q37.4062 -1.17188 28.375 -1.17188
Q17 -1.17188 10.3281 5.82812
Q3.65625 12.8438 3.65625 25.4844
Q3.65625 38.5781 10.3906 45.7969
Q17.1406 53.0312 27.875 53.0312
Q38.2812 53.0312 44.875 45.9531
Q51.4688 38.875 51.4688 26.0312
Q51.4688 25.25 51.4219 23.6875
L12.75 23.6875
Q13.2344 15.1406 17.5781 10.5938
Q21.9219 6.0625 28.4219 6.0625
Q33.25 6.0625 36.6719 8.59375
Q40.0938 11.1406 42.0938 16.7031
M13.2344 30.9062
L42.1875 30.9062
Q41.6094 37.4531 38.875 40.7188
Q34.6719 45.7969 27.9844 45.7969
Q21.9219 45.7969 17.7969 41.75
Q13.6719 37.7031 13.2344 30.9062" id="ArialMT-65"/>
     <path d="
M40.2344 0
L40.2344 6.54688
Q35.2969 -1.17188 25.7344 -1.17188
Q19.5312 -1.17188 14.3281 2.25
Q9.125 5.67188 6.26562 11.7969
Q3.42188 17.9219 3.42188 25.875
Q3.42188 33.6406 6 39.9688
Q8.59375 46.2969 13.7656 49.6562
Q18.9531 53.0312 25.3438 53.0312
Q30.0312 53.0312 33.6875 51.0469
Q37.3594 49.0781 39.6562 45.9062
L39.6562 71.5781
L48.3906 71.5781
L48.3906 0
z

M12.4531 25.875
Q12.4531 15.9219 16.6406 10.9844
Q20.8438 6.0625 26.5625 6.0625
Q32.3281 6.0625 36.3438 10.7656
Q40.375 15.4844 40.375 25.1406
Q40.375 35.7969 36.2656 40.7656
Q32.1719 45.75 26.1719 45.75
Q20.3125 45.75 16.375 40.9688
Q12.4531 36.1875 12.4531 25.875" id="ArialMT-64"/>
     <path d="
M40.5781 0
L40.5781 7.625
Q34.5156 -1.17188 24.125 -1.17188
Q19.5312 -1.17188 15.5469 0.578125
Q11.5781 2.34375 9.64062 5
Q7.71875 7.67188 6.9375 11.5312
Q6.39062 14.1094 6.39062 19.7344
L6.39062 51.8594
L15.1875 51.8594
L15.1875 23.0938
Q15.1875 16.2188 15.7188 13.8125
Q16.5469 10.3594 19.2344 8.375
Q21.9219 6.39062 25.875 6.39062
Q29.8281 6.39062 33.2969 8.42188
Q36.7656 10.4531 38.2031 13.9375
Q39.6562 17.4375 39.6562 24.0781
L39.6562 51.8594
L48.4375 51.8594
L48.4375 0
z
" id="ArialMT-75"/>
     <path d="
M6.64062 61.4688
L6.64062 71.5781
L15.4375 71.5781
L15.4375 61.4688
z

M6.64062 0
L6.64062 51.8594
L15.4375 51.8594
L15.4375 0
z
" id="ArialMT-69"/>
     <path d="
M6.59375 0
L6.59375 71.5781
L15.375 71.5781
L15.375 45.9062
Q21.5312 53.0312 30.9062 53.0312
Q36.6719 53.0312 40.9219 50.75
Q45.1719 48.4844 47 44.4844
Q48.8281 40.4844 48.8281 32.8594
L48.8281 0
L40.0469 0
L40.0469 32.8594
Q40.0469 39.4531 37.1875 42.4531
Q34.3281 45.4531 29.1094 45.4531
Q25.2031 45.4531 21.75 43.4219
Q18.3125 41.4062 16.8438 37.9375
Q15.375 34.4688 15.375 28.375
L15.375 0
z
" id="ArialMT-68"/>
     <path d="
M7.71875 0
L7.71875 71.5781
L32.375 71.5781
Q40.7188 71.5781 45.125 70.5625
Q51.2656 69.1406 55.6094 65.4375
Q61.2812 60.6406 64.0781 53.1875
Q66.8906 45.75 66.8906 36.1875
Q66.8906 28.0312 64.9844 21.7344
Q63.0938 15.4375 60.1094 11.2969
Q57.125 7.17188 53.5781 4.79688
Q50.0469 2.4375 45.0469 1.21875
Q40.0469 0 33.5469 0
z

M17.1875 8.45312
L32.4688 8.45312
Q39.5469 8.45312 43.5781 9.76562
Q47.6094 11.0781 50 13.4844
Q53.375 16.8438 55.25 22.5312
Q57.125 28.2188 57.125 36.3281
Q57.125 47.5625 53.4375 53.5938
Q49.75 59.625 44.4844 61.6719
Q40.6719 63.1406 32.2344 63.1406
L17.1875 63.1406
z
" id="ArialMT-44"/>
     <path d="
M6.5 0
L6.5 51.8594
L14.4062 51.8594
L14.4062 44
Q17.4375 49.5156 20 51.2656
Q22.5625 53.0312 25.6406 53.0312
Q30.0781 53.0312 34.6719 50.2031
L31.6406 42.0469
Q28.4219 43.9531 25.2031 43.9531
Q22.3125 43.9531 20.0156 42.2188
Q17.7188 40.4844 16.75 37.4062
Q15.2812 32.7188 15.2812 27.1562
L15.2812 0
z
" id="ArialMT-72"/>
     <path d="
M8.20312 0
L8.20312 71.5781
L56.5 71.5781
L56.5 63.1406
L17.6719 63.1406
L17.6719 40.9688
L51.2656 40.9688
L51.2656 32.5156
L17.6719 32.5156
L17.6719 0
z
" id="ArialMT-46"/>
     <path d="
M6.39062 0
L6.39062 71.5781
L15.1875 71.5781
L15.1875 0
z
" id="ArialMT-6c"/>
     <path d="
M3.32812 25.9219
Q3.32812 40.3281 11.3281 47.2656
Q18.0156 53.0312 27.6406 53.0312
Q38.3281 53.0312 45.1094 46.0156
Q51.9062 39.0156 51.9062 26.6562
Q51.9062 16.6562 48.9062 10.9062
Q45.9062 5.17188 40.1562 2
Q34.4219 -1.17188 27.6406 -1.17188
Q16.75 -1.17188 10.0312 5.8125
Q3.32812 12.7969 3.32812 25.9219
M12.3594 25.9219
Q12.3594 15.9688 16.7031 11.0156
Q21.0469 6.0625 27.6406 6.0625
Q34.1875 6.0625 38.5312 11.0312
Q42.875 16.0156 42.875 26.2188
Q42.875 35.8438 38.5 40.7969
Q34.125 45.75 27.6406 45.75
Q21.0469 45.75 16.7031 40.8125
Q12.3594 35.8906 12.3594 25.9219" id="ArialMT-6f"/>
     <path d="
M6.59375 0
L6.59375 51.8594
L14.5 51.8594
L14.5 44.4844
Q20.2188 53.0312 31 53.0312
Q35.6875 53.0312 39.625 51.3438
Q43.5625 49.6562 45.5156 46.9219
Q47.4688 44.1875 48.25 40.4375
Q48.7344 37.9844 48.7344 31.8906
L48.7344 0
L39.9375 0
L39.9375 31.5469
Q39.9375 36.9219 38.9062 39.5781
Q37.8906 42.2344 35.2812 43.8125
Q32.6719 45.4062 29.1562 45.4062
Q23.5312 45.4062 19.4531 41.8438
Q15.375 38.2812 15.375 28.3281
L15.375 0
z
" id="ArialMT-6e"/>
     <path d="
M39.6562 -19.875
L39.6562 5.51562
Q37.5938 2.64062 33.9062 0.734375
Q30.2188 -1.17188 26.0781 -1.17188
Q16.8438 -1.17188 10.1719 6.20312
Q3.51562 13.5781 3.51562 26.4219
Q3.51562 34.2344 6.21875 40.4219
Q8.9375 46.625 14.0781 49.8281
Q19.2344 53.0312 25.3906 53.0312
Q35.0156 53.0312 40.5312 44.9219
L40.5312 51.8594
L48.4375 51.8594
L48.4375 -19.875
z

M12.5469 26.0781
Q12.5469 16.0625 16.75 11.0625
Q20.9531 6.0625 26.8125 6.0625
Q32.4219 6.0625 36.4688 10.8125
Q40.5312 15.5781 40.5312 25.2969
Q40.5312 35.6406 36.25 40.8594
Q31.9844 46.0938 26.2188 46.0938
Q20.5156 46.0938 16.5312 41.2344
Q12.5469 36.375 12.5469 26.0781" id="ArialMT-71"/>
     <path d="
M3.07812 15.4844
L11.7656 16.8438
Q12.5 11.625 15.8438 8.84375
Q19.1875 6.0625 25.2031 6.0625
Q31.25 6.0625 34.1719 8.51562
Q37.1094 10.9844 37.1094 14.3125
Q37.1094 17.2812 34.5156 19
Q32.7188 20.1719 25.5312 21.9688
Q15.875 24.4219 12.1406 26.2031
Q8.40625 27.9844 6.46875 31.125
Q4.54688 34.2812 4.54688 38.0938
Q4.54688 41.5469 6.125 44.5
Q7.71875 47.4688 10.4531 49.4219
Q12.5 50.9219 16.0312 51.9688
Q19.5781 53.0312 23.6406 53.0312
Q29.7344 53.0312 34.3438 51.2656
Q38.9688 49.5156 41.1562 46.5
Q43.3594 43.5 44.1875 38.4844
L35.5938 37.3125
Q35.0156 41.3125 32.2031 43.5469
Q29.3906 45.7969 24.2656 45.7969
Q18.2188 45.7969 15.625 43.7969
Q13.0312 41.7969 13.0312 39.1094
Q13.0312 37.4062 14.1094 36.0312
Q15.1875 34.625 17.4844 33.6875
Q18.7969 33.2031 25.25 31.4531
Q34.5781 28.9531 38.25 27.3594
Q41.9375 25.7812 44.0312 22.75
Q46.1406 19.7344 46.1406 15.2344
Q46.1406 10.8438 43.5781 6.95312
Q41.0156 3.07812 36.1719 0.953125
Q31.3438 -1.17188 25.25 -1.17188
Q15.1406 -1.17188 9.84375 3.03125
Q4.54688 7.23438 3.07812 15.4844" id="ArialMT-73"/>
     <path id="ArialMT-20"/>
    </defs>
    <g transform="translate(202.85325 38.2)scale(0.144 -0.144)">
     <use xlink:href="#ArialMT-46"/>
     <use x="61.083984375" xlink:href="#ArialMT-6c"/>
     <use x="83.30078125" xlink:href="#ArialMT-69"/>
     <use x="105.517578125" xlink:href="#ArialMT-67"/>
     <use x="161.1328125" xlink:href="#ArialMT-68"/>
     <use x="216.748046875" xlink:href="#ArialMT-74"/>
     <use x="244.53125" xlink:href="#ArialMT-20"/>
     <use x="272.314453125" xlink:href="#ArialMT-50"/>
     <use x="339.013671875" xlink:href="#ArialMT-44"/>
     <use x="411.23046875" xlink:href="#ArialMT-46"/>
     <use x="472.314453125" xlink:href="#ArialMT-20"/>
     <use x="500.09765625" xlink:href="#ArialMT-71"/>
     <use x="555.712890625" xlink:href="#ArialMT-75"/>
     <use x="611.328125" xlink:href="#ArialMT-65"/>
     <use x="666.943359375" xlink:href="#ArialMT-75"/>
     <use x="722.55859375" xlink:href="#ArialMT-65"/>
     <use x="778.173828125" xlink:href="#ArialMT-20"/>
     <use x="805.95703125" xlink:href="#ArialMT-64"/>
     <use x="861.572265625" xlink:href="#ArialMT-69"/>
     <use x="883.7890625" xlink:href="#ArialMT-73"/>
     <use x="933.7890625" xlink:href="#ArialMT-74"/>
     <use x="961.572265625" xlink:href="#ArialMT-72"/>
     <use x="994.873046875" xlink:href="#ArialMT-69"/>
     <use x="1017.08984375" xlink:href="#ArialMT-62"/>
     <use x="1072.70507812" xlink:href="#ArialMT-75"/>
     <use x="1128.3203125" xlink:href="#ArialMT-74"/>
     <use x="1156.10351562" xlink:href="#ArialMT-69"/>
     <use x="1178.3203125" xlink:href="#ArialMT-6f"/>
     <use x="1233.93554688" xlink:href="#ArialMT-6e"/>
    </g>
   </g>
  </g>
 </g>
 <defs>
  <clipPath id="p7ff5b81e1d">
   <rect height="345.6" width="446.4" x="72.0" y="43.2"/>
  </clipPath>
 </defs>
</svg>
