<?xml version="1.0" encoding="utf-8" standalone="no"?>
<!DOCTYPE svg PUBLIC "-//W3C//DTD SVG 1.1//EN"
  "http://www.w3.org/Graphics/SVG/1.1/DTD/svg11.dtd">
<!-- Created with matplotlib (http://matplotlib.org/) -->
<svg height="432pt" version="1.1" viewBox="0 0 576 432" width="576pt" xmlns="http://www.w3.org/2000/svg" xmlns:xlink="http://www.w3.org/1999/xlink">
 <defs>
  <style type="text/css">
*{stroke-linecap:butt;stroke-linejoin:round;}
  </style>
 </defs>
 <g id="figure_1">
  <g id="patch_1">
   <path d="
M0 432
L576 432
L576 0
L0 0
z
" style="fill:#ffffff;"/>
  </g>
  <g id="axes_1">
   <g id="patch_2">
    <path d="
M72 388.8
L518.4 388.8
L518.4 43.2
L72 43.2
z
" style="fill:#ffffff;"/>
   </g>
   <g id="line2d_1">
    <path clip-path="url(#p7ff5b81e1d)" d="
M72 179.182
L76.2429 238.899
L78.476 267.395
L80.4858 290.394
L82.2723 308.458
L84.0588 324.194
L85.622 336.073
L87.1852 346.264
L88.7484 354.882
L90.0882 361.122
L91.4281 366.406
L92.768 370.835
L94.1079 374.511
L95.4477 377.531
L96.7876 379.988
L98.1275 381.968
L99.4673 383.548
L100.807 384.797
L102.147 385.775
L103.71 386.642
L105.497 387.353
L107.507 387.894
L109.963 388.302
L113.089 388.577
L117.779 388.739
L127.605 388.797
L248.863 388.8
L518.4 388.8
L518.4 388.8" style="fill:none;stroke:#8000ff;stroke-linecap:square;"/>
   </g>
   <g id="line2d_2">
    <path clip-path="url(#p7ff5b81e1d)" d="
M101.009 388.8
L101.009 179.182" style="fill:none;stroke:#8000ff;stroke-linecap:square;"/>
   </g>
   <g id="line2d_3">
    <path clip-path="url(#p7ff5b81e1d)" d="
M72 99.9032
L73.5632 82.4329
L74.9031 69.5846
L76.0196 60.6132
L77.1362 53.3832
L78.0294 48.9379
L78.6993 46.4185
L79.3693 44.6154
L80.0392 43.5402
L80.4858 43.2313
L80.9325 43.25
L81.3791 43.596
L81.8257 44.2686
L82.4956 45.8851
L83.1656 48.2214
L84.0588 52.4298
L84.9521 57.8437
L86.0686 66.2138
L87.1852 76.23
L88.5251 90.1846
L90.0882 108.717
L92.098 135.229
L95.4477 182.93
L99.4673 239.38
L101.7 267.831
L103.71 290.781
L105.497 308.799
L107.283 324.487
L108.846 336.326
L110.41 346.48
L111.973 355.064
L113.313 361.276
L114.653 366.536
L115.992 370.944
L117.332 374.6
L118.672 377.604
L120.012 380.047
L121.352 382.016
L122.692 383.586
L124.032 384.827
L125.371 385.798
L126.935 386.659
L128.721 387.365
L130.731 387.902
L133.187 388.306
L136.314 388.579
L141.003 388.739
L150.829 388.797
L273.427 388.8
L518.4 388.8
L518.4 388.8" style="fill:none;stroke:#642cfe;stroke-linecap:square;"/>
   </g>
   <g id="line2d_4">
    <path clip-path="url(#p7ff5b81e1d)" d="
M124.198 388.8
L124.198 43.1997" style="fill:none;stroke:#642cfe;stroke-linecap:square;"/>
   </g>
   <g id="line2d_5">
    <path clip-path="url(#p7ff5b81e1d)" d="
M72 357.891
L73.3399 351.096
L74.6797 343.198
L76.2429 332.48
L77.8061 320.047
L79.3693 305.837
L81.1558 287.42
L83.1656 264.053
L85.3987 235.22
L88.3018 194.558
L93.4379 121.99
L95.4477 96.8406
L97.0109 79.7813
L98.3508 67.3531
L99.4673 58.7736
L100.584 51.967
L101.477 47.8785
L102.147 45.6348
L102.817 44.1124
L103.264 43.5032
L103.71 43.2207
L104.157 43.2657
L104.604 43.6382
L105.05 44.337
L105.72 45.9926
L106.39 48.3672
L107.283 52.6252
L108.176 58.0866
L109.293 66.5122
L110.633 78.7746
L112.196 95.6708
L113.983 117.739
L116.439 151.35
L123.585 251.558
L125.818 278.781
L127.828 300.442
L129.614 317.25
L131.178 330.049
L132.741 341.115
L134.304 350.543
L135.644 357.418
L136.984 363.276
L138.324 368.217
L139.663 372.342
L141.003 375.752
L142.343 378.544
L143.683 380.807
L145.023 382.623
L146.363 384.068
L147.703 385.205
L149.266 386.219
L150.829 386.969
L152.616 387.58
L154.849 388.081
L157.528 388.431
L161.101 388.656
L167.131 388.774
L185.442 388.8
L518.4 388.8
L518.4 388.8" style="fill:none;stroke:#4856fb;stroke-linecap:square;"/>
   </g>
   <g id="line2d_6">
    <path clip-path="url(#p7ff5b81e1d)" d="
M147.386 388.8
L147.386 43.2023" style="fill:none;stroke:#4856fb;stroke-linecap:square;"/>
   </g>
   <g id="line2d_7">
    <path clip-path="url(#p7ff5b81e1d)" d="
M72 388.543
L75.1264 388.232
L77.5828 387.772
L79.5926 387.167
L81.3791 386.375
L82.9423 385.415
L84.2821 384.336
L85.622 382.963
L86.9619 381.232
L88.3018 379.072
L89.6416 376.401
L90.9815 373.131
L92.3214 369.168
L93.6612 364.411
L95.0011 358.758
L96.341 352.11
L97.6808 344.372
L99.244 333.853
L100.807 321.629
L102.37 307.634
L104.157 289.458
L105.943 269.042
L108.176 240.717
L110.856 203.637
L117.109 115.678
L118.895 93.84
L120.459 77.2063
L121.798 65.2095
L122.915 57.0297
L123.808 51.7783
L124.702 47.7397
L125.371 45.5344
L126.041 44.0511
L126.488 43.4682
L126.935 43.2122
L127.381 43.2837
L127.828 43.6825
L128.275 44.4076
L128.944 46.1021
L129.614 48.515
L130.508 52.8226
L131.401 58.3314
L132.517 66.8123
L133.857 79.1344
L135.421 96.0894
L137.207 118.209
L139.663 151.862
L146.809 252.022
L149.043 279.195
L151.052 300.804
L152.839 317.565
L154.402 330.323
L155.965 341.35
L157.528 350.742
L158.868 357.588
L160.208 363.42
L161.548 368.338
L162.888 372.443
L164.228 375.835
L165.568 378.611
L166.907 380.861
L168.247 382.667
L169.587 384.102
L170.927 385.232
L172.49 386.239
L174.053 386.983
L175.84 387.59
L178.073 388.088
L180.753 388.434
L184.326 388.657
L190.355 388.775
L208.667 388.8
L518.4 388.8
L518.4 388.8" style="fill:none;stroke:#2c7ef7;stroke-linecap:square;"/>
   </g>
   <g id="line2d_8">
    <path clip-path="url(#p7ff5b81e1d)" d="
M170.574 388.8
L170.574 43.207" style="fill:none;stroke:#2c7ef7;stroke-linecap:square;"/>
   </g>
   <g id="line2d_9">
    <path clip-path="url(#p7ff5b81e1d)" d="
M72 388.8
L92.098 388.688
L96.341 388.454
L99.244 388.086
L101.477 387.588
L103.264 386.98
L104.827 386.235
L106.39 385.226
L107.73 384.095
L109.07 382.658
L110.41 380.85
L111.749 378.597
L113.089 375.818
L114.429 372.421
L115.769 368.312
L117.109 363.39
L118.449 357.552
L119.789 350.7
L121.129 342.74
L122.692 331.945
L124.255 319.431
L125.818 305.139
L127.605 286.629
L129.614 263.167
L131.848 234.247
L134.751 193.521
L139.887 121.038
L141.897 96.0005
L143.46 79.0579
L144.8 66.7485
L145.916 58.2793
L147.033 51.5915
L147.926 47.6029
L148.596 45.4362
L149.266 43.992
L149.712 43.4354
L150.159 43.2058
L150.606 43.3037
L151.052 43.7289
L151.499 44.4803
L152.169 46.2138
L152.839 48.6649
L153.732 53.022
L154.625 58.578
L155.742 67.1141
L157.082 79.4956
L158.645 96.5091
L160.431 118.679
L162.888 152.373
L169.811 249.607
L172.044 277.038
L174.053 298.912
L175.84 315.918
L177.403 328.887
L178.966 340.117
L180.529 349.699
L181.869 356.695
L183.209 362.662
L184.549 367.702
L185.889 371.914
L187.229 375.4
L188.569 378.257
L189.909 380.575
L191.248 382.438
L192.588 383.921
L193.928 385.09
L195.491 386.134
L197.055 386.906
L198.841 387.537
L200.851 388.013
L203.307 388.371
L206.657 388.62
L211.793 388.757
L224.299 388.799
L518.4 388.8
L518.4 388.8" style="fill:none;stroke:#10a2f0;stroke-linecap:square;"/>
   </g>
   <g id="line2d_10">
    <path clip-path="url(#p7ff5b81e1d)" d="
M193.763 388.8
L193.763 43.2058" style="fill:none;stroke:#10a2f0;stroke-linecap:square;"/>
   </g>
   <g id="line2d_11">
    <path clip-path="url(#p7ff5b81e1d)" d="
M72 388.8
L115.099 388.694
L119.565 388.451
L122.468 388.08
L124.702 387.578
L126.488 386.966
L128.051 386.215
L129.614 385.199
L130.954 384.06
L132.294 382.614
L133.634 380.795
L134.974 378.53
L136.314 375.735
L137.654 372.321
L138.993 368.191
L140.333 363.245
L141.673 357.382
L143.013 350.501
L144.353 342.51
L145.916 331.677
L147.479 319.122
L149.043 304.788
L150.829 286.233
L152.839 262.722
L155.072 233.759
L158.198 189.786
L162.888 123.519
L164.898 98.1936
L166.461 80.9498
L167.801 68.3336
L168.917 59.579
L170.034 52.5836
L170.927 48.3361
L171.597 45.9696
L172.267 44.3223
L172.714 43.6291
L173.16 43.2622
L173.607 43.2228
L174.053 43.5108
L174.5 44.1256
L174.947 45.0654
L175.617 47.0783
L176.287 49.8033
L177.18 54.5141
L178.073 60.4072
L179.19 69.3361
L180.529 82.139
L182.093 99.565
L183.879 122.091
L186.336 156.066
L192.812 247.174
L195.045 274.858
L197.055 296.995
L198.841 314.245
L200.404 327.427
L201.967 338.861
L203.531 348.634
L205.094 356.868
L206.434 362.81
L207.773 367.825
L209.113 372.017
L210.453 375.485
L211.793 378.326
L213.133 380.631
L214.473 382.483
L215.813 383.956
L217.153 385.118
L218.716 386.154
L220.279 386.921
L222.065 387.547
L224.075 388.02
L226.532 388.374
L229.881 388.622
L235.241 388.761
L248.416 388.799
L518.4 388.8
L518.4 388.8" style="fill:none;stroke:#0fc4e7;stroke-linecap:square;"/>
   </g>
   <g id="line2d_12">
    <path clip-path="url(#p7ff5b81e1d)" d="
M216.951 388.8
L216.951 43.2015" style="fill:none;stroke:#0fc4e7;stroke-linecap:square;"/>
   </g>
   <g id="line2d_13">
    <path clip-path="url(#p7ff5b81e1d)" d="
M72 388.8
L138.324 388.693
L142.79 388.448
L145.693 388.074
L147.926 387.568
L149.712 386.951
L151.276 386.195
L152.839 385.172
L154.179 384.026
L155.519 382.57
L156.858 380.741
L158.198 378.462
L159.538 375.652
L160.878 372.219
L162.218 368.069
L163.558 363.1
L164.898 357.21
L166.238 350.301
L167.577 342.279
L169.141 331.407
L170.704 318.811
L172.267 304.437
L174.053 285.835
L176.063 262.277
L178.296 233.271
L181.423 189.267
L186.112 123.04
L188.122 97.7691
L189.685 80.5827
L191.025 68.0251
L192.142 59.3251
L193.258 52.3886
L194.151 48.1907
L194.821 45.8626
L195.491 44.2543
L195.938 43.5874
L196.385 43.2469
L196.831 43.2339
L197.278 43.5484
L197.724 44.1894
L198.394 45.7592
L199.064 48.0496
L199.958 52.1984
L200.851 57.5555
L201.967 65.8589
L203.084 75.8144
L204.424 89.7055
L205.987 108.177
L207.997 134.636
L211.346 182.307
L215.366 238.804
L217.599 267.309
L219.609 290.318
L221.395 308.391
L223.182 324.136
L224.745 336.023
L226.308 346.222
L227.872 354.847
L229.211 361.092
L230.551 366.381
L231.891 370.814
L233.231 374.493
L234.571 377.516
L235.911 379.977
L237.251 381.959
L238.59 383.541
L239.93 384.791
L241.27 385.771
L242.833 386.638
L244.62 387.351
L246.63 387.893
L249.086 388.301
L252.213 388.576
L256.902 388.739
L266.728 388.797
L387.763 388.8
L518.4 388.8
L518.4 388.8" style="fill:none;stroke:#2adddd;stroke-linecap:square;"/>
   </g>
   <g id="line2d_14">
    <path clip-path="url(#p7ff5b81e1d)" d="
M240.139 388.8
L240.139 43.1994" style="fill:none;stroke:#2adddd;stroke-linecap:square;"/>
   </g>
   <g id="line2d_15">
    <path clip-path="url(#p7ff5b81e1d)" d="
M72 388.8
L161.548 388.692
L166.014 388.444
L168.917 388.067
L171.15 387.558
L172.937 386.936
L174.5 386.175
L176.063 385.145
L177.403 383.991
L178.743 382.526
L180.083 380.686
L181.423 378.394
L182.763 375.568
L184.102 372.118
L185.442 367.946
L186.782 362.954
L188.122 357.038
L189.462 350.1
L190.802 342.047
L192.365 331.136
L193.928 318.5
L195.491 304.084
L197.278 285.436
L199.288 261.831
L201.521 232.783
L204.647 188.747
L209.337 122.562
L211.346 97.3458
L212.91 80.217
L214.25 67.7182
L215.366 59.0729
L216.483 52.1955
L217.376 48.0474
L218.046 45.7576
L218.716 44.1885
L219.162 43.5478
L219.609 43.2337
L220.056 43.2471
L220.502 43.588
L220.949 44.2554
L221.619 45.8642
L222.289 48.1929
L223.182 52.3915
L224.075 57.7961
L225.192 66.1552
L226.308 76.1614
L227.648 90.1057
L229.211 108.628
L231.221 135.131
L234.571 182.828
L238.59 239.285
L240.824 267.745
L242.833 290.705
L244.62 308.732
L246.406 324.43
L247.97 336.276
L249.533 346.438
L251.096 355.028
L252.436 361.246
L253.776 366.51
L255.116 370.922
L256.455 374.583
L257.795 377.59
L259.135 380.036
L260.475 382.006
L261.815 383.579
L263.155 384.821
L264.495 385.794
L266.058 386.655
L267.844 387.363
L269.854 387.9
L272.311 388.306
L275.437 388.579
L280.126 388.739
L289.952 388.797
L412.327 388.8
L518.4 388.8
L518.4 388.8" style="fill:none;stroke:#46efd1;stroke-linecap:square;"/>
   </g>
   <g id="line2d_16">
    <path clip-path="url(#p7ff5b81e1d)" d="
M263.328 388.8
L263.328 43.1994" style="fill:none;stroke:#46efd1;stroke-linecap:square;"/>
   </g>
   <g id="line2d_17">
    <path clip-path="url(#p7ff5b81e1d)" d="
M72 388.8
L184.772 388.691
L189.239 388.441
L192.142 388.061
L194.375 387.547
L196.161 386.921
L197.724 386.154
L199.288 385.117
L200.628 383.956
L201.967 382.482
L203.307 380.63
L204.647 378.325
L205.987 375.484
L207.327 372.015
L208.667 367.823
L210.007 362.807
L211.346 356.865
L212.686 349.899
L214.026 341.815
L215.589 330.865
L217.153 318.188
L218.716 303.731
L220.502 285.037
L222.512 261.384
L224.745 232.293
L227.872 188.227
L232.561 122.084
L234.571 96.9236
L236.134 79.8528
L237.474 67.413
L238.59 58.8227
L239.707 52.0044
L240.6 47.9061
L241.27 45.6548
L241.94 44.1247
L242.387 43.5103
L242.833 43.2226
L243.28 43.2625
L243.727 43.6297
L244.173 44.3234
L244.843 45.9713
L245.513 48.3383
L246.406 52.5866
L247.3 58.0386
L248.416 66.4533
L249.756 78.7039
L251.319 95.5886
L253.106 117.646
L255.562 151.25
L262.708 251.467
L264.941 278.7
L266.951 300.37
L268.738 317.188
L270.301 329.994
L271.864 341.068
L273.427 350.504
L274.767 357.384
L276.107 363.247
L277.447 368.193
L278.787 372.322
L280.126 375.736
L281.466 378.531
L282.806 380.796
L284.146 382.615
L285.486 384.061
L286.826 385.2
L288.389 386.215
L289.952 386.966
L291.739 387.578
L293.748 388.04
L296.428 388.409
L300.001 388.647
L305.807 388.771
L322.332 388.8
L518.4 388.8
L518.4 388.8" style="fill:none;stroke:#62fbc4;stroke-linecap:square;"/>
   </g>
   <g id="line2d_18">
    <path clip-path="url(#p7ff5b81e1d)" d="
M286.516 388.8
L286.516 43.2016" style="fill:none;stroke:#62fbc4;stroke-linecap:square;"/>
   </g>
   <g id="line2d_19">
    <path clip-path="url(#p7ff5b81e1d)" d="
M72 388.8
L207.997 388.69
L212.24 388.458
L215.143 388.094
L217.376 387.6
L219.162 386.998
L220.726 386.259
L222.289 385.258
L223.629 384.136
L224.968 382.709
L226.308 380.914
L227.648 378.677
L228.988 375.916
L230.328 372.541
L231.668 368.456
L233.008 363.562
L234.348 357.755
L235.687 350.938
L237.027 343.015
L238.59 332.266
L240.154 319.8
L241.717 305.557
L243.503 287.103
L245.513 263.698
L247.746 234.829
L250.649 194.142
L255.785 121.608
L257.795 96.5027
L259.358 79.4901
L260.698 67.1095
L261.815 58.5742
L262.931 51.8153
L263.825 47.7669
L264.495 45.554
L265.165 44.063
L265.611 43.4749
L266.058 43.2137
L266.504 43.28
L266.951 43.6736
L267.398 44.3935
L268.068 46.0804
L268.738 48.4858
L269.631 52.7836
L270.524 58.283
L271.641 66.7531
L272.98 79.0634
L274.544 96.0069
L276.33 118.116
L278.787 151.761
L285.933 251.93
L288.166 279.113
L290.175 300.733
L291.962 317.503
L293.525 330.269
L295.088 341.304
L296.652 350.703
L297.991 357.555
L299.331 363.392
L300.671 368.314
L302.011 372.423
L303.351 375.819
L304.691 378.598
L306.031 380.851
L307.37 382.658
L308.71 384.095
L310.05 385.227
L311.613 386.235
L313.177 386.981
L314.963 387.588
L317.196 388.087
L319.876 388.434
L323.449 388.657
L329.478 388.775
L347.79 388.8
L518.4 388.8
L518.4 388.8" style="fill:none;stroke:#80ffb4;stroke-linecap:square;"/>
   </g>
   <g id="line2d_20">
    <path clip-path="url(#p7ff5b81e1d)" d="
M309.705 388.8
L309.705 43.2059" style="fill:none;stroke:#80ffb4;stroke-linecap:square;"/>
   </g>
   <g id="line2d_21">
    <path clip-path="url(#p7ff5b81e1d)" d="
M72 388.8
L230.998 388.695
L235.464 388.455
L238.367 388.088
L240.6 387.59
L242.387 386.983
L243.95 386.239
L245.513 385.231
L246.853 384.101
L248.193 382.666
L249.533 380.86
L250.873 378.61
L252.213 375.834
L253.552 372.441
L254.892 368.336
L256.232 363.418
L257.572 357.586
L258.912 350.739
L260.252 342.786
L261.815 331.998
L263.378 319.492
L264.941 305.208
L266.728 286.707
L268.738 263.254
L270.971 234.343
L273.874 193.623
L279.01 121.132
L281.02 96.083
L282.583 79.1289
L283.923 66.8077
L285.039 58.3276
L286.156 51.6282
L287.049 47.6297
L287.719 45.4554
L288.389 44.0035
L288.836 43.4417
L289.282 43.2069
L289.729 43.2996
L290.175 43.7196
L290.622 44.4658
L291.292 46.1916
L291.962 48.6352
L292.855 52.9826
L293.748 58.5293
L294.865 67.0546
L296.205 79.4244
L297.768 96.4264
L299.555 118.587
L302.011 152.273
L309.157 252.393
L311.39 279.526
L313.4 301.094
L315.186 317.818
L316.75 330.543
L318.313 341.538
L319.876 350.902
L321.216 357.725
L322.556 363.536
L323.896 368.435
L325.235 372.523
L326.575 375.901
L327.915 378.665
L329.255 380.905
L330.595 382.701
L331.935 384.129
L333.275 385.253
L334.838 386.255
L336.401 386.995
L338.187 387.598
L340.421 388.093
L343.1 388.437
L346.673 388.659
L352.703 388.775
L371.238 388.8
L518.4 388.8
L518.4 388.8" style="fill:none;stroke:#9cfba4;stroke-linecap:square;"/>
   </g>
   <g id="line2d_22">
    <path clip-path="url(#p7ff5b81e1d)" d="
M332.893 388.8
L332.893 43.2069" style="fill:none;stroke:#9cfba4;stroke-linecap:square;"/>
   </g>
   <g id="line2d_23">
    <path clip-path="url(#p7ff5b81e1d)" d="
M72 388.8
L254.222 388.694
L258.689 388.451
L261.592 388.081
L263.825 387.58
L265.611 386.969
L267.174 386.219
L268.738 385.205
L270.077 384.067
L271.417 382.623
L272.757 380.806
L274.097 378.543
L275.437 375.751
L276.777 372.341
L278.117 368.215
L279.457 363.274
L280.796 357.415
L282.136 350.54
L283.476 342.556
L285.039 331.73
L286.603 319.183
L288.166 304.857
L289.952 286.311
L291.962 262.81
L294.195 233.855
L297.321 189.889
L302.011 123.613
L304.021 98.2773
L305.584 81.0223
L306.924 68.3946
L308.04 59.6293
L309.157 52.6222
L310.05 48.365
L310.72 45.9909
L311.39 44.336
L311.837 43.6376
L312.283 43.2655
L312.73 43.2208
L313.177 43.5037
L313.623 44.1133
L314.07 45.0479
L314.74 47.0532
L315.41 49.7708
L316.303 54.4719
L317.196 60.3559
L318.313 69.2741
L319.653 82.0657
L321.216 99.4806
L323.002 121.998
L325.459 155.964
L331.935 247.082
L334.168 274.775
L336.178 296.921
L337.964 314.181
L339.527 327.371
L341.091 338.813
L342.654 348.594
L344.217 356.834
L345.557 362.781
L346.897 367.801
L348.237 371.997
L349.576 375.468
L350.916 378.313
L352.256 380.62
L353.596 382.474
L354.936 383.949
L356.276 385.112
L357.839 386.15
L359.402 386.918
L361.189 387.545
L363.198 388.019
L365.655 388.374
L369.005 388.622
L374.364 388.76
L387.539 388.799
L518.4 388.8
L518.4 388.8" style="fill:none;stroke:#b9ef92;stroke-linecap:square;"/>
   </g>
   <g id="line2d_24">
    <path clip-path="url(#p7ff5b81e1d)" d="
M356.081 388.8
L356.081 43.2022" style="fill:none;stroke:#b9ef92;stroke-linecap:square;"/>
   </g>
   <g id="line2d_25">
    <path clip-path="url(#p7ff5b81e1d)" d="
M72 388.8
L277.447 388.693
L281.913 388.448
L284.816 388.075
L287.049 387.57
L288.836 386.954
L290.399 386.199
L291.962 385.177
L293.302 384.033
L294.642 382.579
L295.982 380.751
L297.321 378.475
L298.661 375.668
L300.001 372.239
L301.341 368.093
L302.681 363.128
L304.021 357.244
L305.361 350.34
L306.701 342.325
L308.264 331.46
L309.827 318.872
L311.39 304.506
L313.177 285.913
L315.186 262.365
L317.42 233.367
L320.546 189.369
L325.235 123.134
L327.245 97.8526
L328.808 80.6549
L330.148 68.0857
L331.265 59.3749
L332.381 52.4268
L333.275 48.2192
L333.945 45.8835
L334.615 44.2676
L335.061 43.5954
L335.508 43.2497
L335.954 43.2315
L336.401 43.5408
L336.848 44.1767
L337.518 45.7388
L338.187 48.0216
L339.081 52.1607
L339.974 57.5083
L341.091 65.8007
L342.207 75.7463
L343.547 89.6268
L345.11 108.089
L347.12 134.538
L350.47 182.204
L354.489 238.709
L356.722 267.223
L358.732 290.241
L360.519 308.324
L362.305 324.078
L363.868 335.973
L365.432 346.179
L366.995 354.811
L368.335 361.061
L369.674 366.355
L371.014 370.792
L372.354 374.475
L373.694 377.502
L375.034 379.965
L376.374 381.949
L377.714 383.533
L379.054 384.786
L380.393 385.766
L381.957 386.635
L383.743 387.349
L385.753 387.891
L388.209 388.3
L391.336 388.576
L396.025 388.738
L405.851 388.797
L518.4 388.8
L518.4 388.8" style="fill:none;stroke:#d4dd80;stroke-linecap:square;"/>
   </g>
   <g id="line2d_26">
    <path clip-path="url(#p7ff5b81e1d)" d="
M379.27 388.8
L379.27 43.1997" style="fill:none;stroke:#d4dd80;stroke-linecap:square;"/>
   </g>
   <g id="line2d_27">
    <path clip-path="url(#p7ff5b81e1d)" d="
M72 388.8
L300.671 388.692
L305.137 388.445
L308.04 388.069
L310.274 387.56
L312.06 386.939
L313.623 386.179
L315.186 385.15
L316.526 383.998
L317.866 382.535
L319.206 380.696
L320.546 378.407
L321.886 375.584
L323.226 372.138
L324.565 367.971
L325.905 362.983
L327.245 357.072
L328.585 350.14
L329.925 342.093
L331.488 331.19
L333.051 318.561
L334.615 304.154
L336.401 285.515
L338.411 261.919
L340.644 232.879
L343.77 188.85
L348.46 122.656
L350.47 97.429
L352.033 80.2889
L353.373 67.7785
L354.489 59.1225
L355.606 52.2334
L356.499 48.0755
L357.169 45.7781
L357.839 44.2013
L358.286 43.5554
L358.732 43.2361
L359.179 43.2443
L359.625 43.58
L360.072 44.2422
L360.742 45.8434
L361.412 48.1645
L362.305 52.3534
L363.198 57.7486
L364.315 66.0968
L365.432 76.093
L366.771 90.0267
L368.335 108.539
L370.344 135.033
L373.694 182.725
L377.714 239.19
L379.947 267.659
L381.957 290.629
L383.743 308.665
L385.53 324.372
L387.093 336.227
L388.656 346.395
L390.219 354.992
L391.559 361.216
L392.899 366.485
L394.239 370.901
L395.579 374.565
L396.918 377.575
L398.258 380.024
L399.598 381.997
L400.938 383.571
L402.278 384.815
L403.618 385.789
L405.181 386.652
L406.967 387.361
L408.977 387.899
L411.434 388.305
L414.56 388.578
L419.25 388.739
L429.075 388.797
L518.4 388.8
L518.4 388.8" style="fill:none;stroke:#f0c46c;stroke-linecap:square;"/>
   </g>
   <g id="line2d_28">
    <path clip-path="url(#p7ff5b81e1d)" d="
M402.458 388.8
L402.458 43.1993" style="fill:none;stroke:#f0c46c;stroke-linecap:square;"/>
   </g>
   <g id="line2d_29">
    <path clip-path="url(#p7ff5b81e1d)" d="
M72 388.8
L323.896 388.691
L328.362 388.442
L331.265 388.062
L333.498 387.549
L335.284 386.924
L336.848 386.158
L338.411 385.123
L339.751 383.963
L341.091 382.491
L342.43 380.641
L343.77 378.339
L345.11 375.5
L346.45 372.035
L347.79 367.848
L349.13 362.836
L350.47 356.899
L351.81 349.938
L353.149 341.86
L354.713 330.918
L356.276 318.249
L357.839 303.801
L359.625 285.116
L361.635 261.472
L363.868 232.39
L366.995 188.33
L371.684 122.178
L373.694 97.0067
L375.257 79.9244
L376.597 67.473
L377.714 58.8718
L378.83 52.0419
L379.723 47.9338
L380.393 45.6749
L381.063 44.1371
L381.51 43.5175
L381.957 43.2246
L382.403 43.2593
L382.85 43.6214
L383.296 44.3098
L383.966 45.95
L384.636 48.3095
L385.53 52.548
L386.423 57.9907
L387.539 66.3945
L388.879 78.6333
L390.219 92.943
L392.006 114.664
L394.239 144.847
L402.501 259.869
L404.511 283.681
L406.298 302.53
L408.084 319.065
L409.647 331.628
L411.21 342.468
L412.774 351.687
L414.113 358.397
L415.453 364.105
L416.793 368.912
L418.133 372.919
L419.473 376.227
L420.813 378.93
L422.153 381.118
L423.493 382.872
L424.832 384.264
L426.172 385.359
L427.735 386.333
L429.299 387.052
L431.085 387.638
L433.318 388.117
L435.998 388.45
L439.794 388.672
L446.047 388.779
L467.262 388.8
L518.4 388.8
L518.4 388.8" style="fill:none;stroke:#ffa256;stroke-linecap:square;"/>
   </g>
   <g id="line2d_30">
    <path clip-path="url(#p7ff5b81e1d)" d="
M425.646 388.8
L425.646 43.201" style="fill:none;stroke:#ffa256;stroke-linecap:square;"/>
   </g>
   <g id="line2d_31">
    <path clip-path="url(#p7ff5b81e1d)" d="
M72 388.8
L347.12 388.69
L351.363 388.458
L354.266 388.095
L356.499 387.602
L358.286 387.001
L359.849 386.263
L361.412 385.263
L362.752 384.142
L364.092 382.718
L365.432 380.925
L366.771 378.691
L368.111 375.932
L369.451 372.561
L370.791 368.48
L372.131 363.59
L373.471 357.789
L374.811 350.976
L376.15 343.06
L377.714 332.319
L379.277 319.86
L380.84 305.626
L382.627 287.181
L384.636 263.785
L386.869 234.925
L389.772 194.244
L394.909 121.701
L396.918 96.5855
L398.482 79.5614
L399.822 67.1691
L400.938 58.623
L402.055 51.8524
L402.948 47.7941
L403.618 45.5737
L404.288 44.075
L404.734 43.4817
L405.181 43.2153
L405.628 43.2764
L406.074 43.6648
L406.521 44.3796
L407.191 46.0587
L407.861 48.4566
L408.754 52.7446
L409.647 58.2348
L410.764 66.6939
L412.104 78.9925
L413.667 95.9244
L415.453 118.023
L417.91 151.66
L425.056 251.839
L427.289 279.032
L429.299 300.661
L431.085 317.441
L432.648 330.215
L434.212 341.257
L435.775 350.664
L437.115 357.521
L438.454 363.363
L439.794 368.29
L441.134 372.403
L442.474 375.803
L443.814 378.585
L445.154 380.84
L446.494 382.65
L447.834 384.088
L449.173 385.221
L450.737 386.231
L452.3 386.978
L454.086 387.586
L456.319 388.085
L458.999 388.433
L462.572 388.657
L468.602 388.775
L486.913 388.8
L518.4 388.8
L518.4 388.8" style="fill:none;stroke:#ff7e41;stroke-linecap:square;"/>
   </g>
   <g id="line2d_32">
    <path clip-path="url(#p7ff5b81e1d)" d="
M448.835 388.8
L448.835 43.2049" style="fill:none;stroke:#ff7e41;stroke-linecap:square;"/>
   </g>
   <g id="line2d_33">
    <path clip-path="url(#p7ff5b81e1d)" d="
M72 388.8
L370.121 388.695
L374.587 388.455
L377.49 388.089
L379.723 387.592
L381.51 386.986
L383.073 386.243
L384.636 385.237
L385.976 384.108
L387.316 382.675
L388.656 380.871
L389.996 378.624
L391.336 375.85
L392.676 372.461
L394.015 368.36
L395.355 363.446
L396.695 357.619
L398.035 350.778
L399.375 342.831
L400.938 332.051
L402.501 319.552
L404.064 305.277
L405.851 286.785
L407.861 263.342
L410.094 234.438
L412.997 193.725
L418.133 121.225
L420.143 96.1655
L421.706 79.1999
L423.046 66.867
L424.162 58.376
L425.279 51.6649
L426.172 47.6566
L426.842 45.4746
L427.512 44.0151
L427.959 43.4481
L428.405 43.208
L428.852 43.2956
L429.299 43.7104
L429.745 44.4514
L430.415 46.1695
L431.085 48.6056
L431.978 52.9432
L432.872 58.4806
L433.988 66.995
L435.328 79.3532
L436.891 96.3437
L438.678 118.494
L441.134 152.172
L448.28 252.302
L450.513 279.445
L452.523 301.023
L454.31 317.756
L455.873 330.489
L457.436 341.492
L458.999 350.863
L460.339 357.691
L461.679 363.507
L463.019 368.411
L464.359 372.503
L465.698 375.885
L467.038 378.652
L468.378 380.894
L469.718 382.693
L471.058 384.123
L472.398 385.248
L473.961 386.251
L475.524 386.992
L477.311 387.596
L479.544 388.092
L482.224 388.436
L485.796 388.658
L491.826 388.775
L510.361 388.8
L518.4 388.8
L518.4 388.8" style="fill:none;stroke:#ff562c;stroke-linecap:square;"/>
   </g>
   <g id="line2d_34">
    <path clip-path="url(#p7ff5b81e1d)" d="
M472.023 388.8
L472.023 43.208" style="fill:none;stroke:#ff562c;stroke-linecap:square;"/>
   </g>
   <g id="line2d_35">
    <path clip-path="url(#p7ff5b81e1d)" d="
M72 388.8
L393.345 388.694
L397.812 388.452
L400.715 388.083
L402.948 387.582
L404.734 386.971
L406.298 386.223
L407.861 385.21
L409.201 384.074
L410.54 382.631
L411.88 380.817
L413.22 378.556
L414.56 375.768
L415.9 372.36
L417.24 368.239
L418.58 363.302
L419.92 357.449
L421.259 350.58
L422.599 342.601
L424.162 331.783
L425.726 319.243
L427.289 304.927
L429.075 286.389
L431.085 262.897
L433.318 233.951
L436.221 193.207
L441.357 120.75
L443.367 95.7468
L444.93 78.8399
L446.27 66.5666
L447.387 58.131
L448.503 51.4793
L449.397 47.521
L450.067 45.3776
L450.737 43.9572
L451.183 43.4166
L451.63 43.203
L452.076 43.3169
L452.523 43.7581
L452.97 44.5253
L453.64 46.2824
L454.31 48.7567
L455.203 53.1438
L456.096 58.7284
L457.213 67.2979
L458.552 79.7153
L460.116 96.7641
L461.902 118.965
L464.359 152.684
L471.281 249.89
L473.514 277.291
L475.524 299.134
L477.311 316.111
L478.874 329.056
L480.437 340.262
L482 349.822
L483.34 356.8
L484.68 362.752
L486.02 367.777
L487.36 371.976
L488.7 375.452
L490.039 378.299
L491.379 380.609
L492.719 382.465
L494.059 383.943
L495.399 385.107
L496.962 386.146
L498.525 386.915
L500.312 387.543
L502.322 388.018
L504.778 388.373
L508.128 388.621
L513.487 388.76
L518.4 388.791
L518.4 388.791" style="fill:none;stroke:#ff2c16;stroke-linecap:square;"/>
   </g>
   <g id="line2d_36">
    <path clip-path="url(#p7ff5b81e1d)" d="
M495.212 388.8
L495.212 43.203" style="fill:none;stroke:#ff2c16;stroke-linecap:square;"/>
   </g>
   <g id="line2d_37">
    <path clip-path="url(#p7ff5b81e1d)" d="
M72 388.8
L416.57 388.693
L421.036 388.449
L423.939 388.076
L426.172 387.572
L427.959 386.957
L429.522 386.203
L431.085 385.183
L432.425 384.039
L433.765 382.588
L435.105 380.762
L436.445 378.489
L437.784 375.684
L439.124 372.259
L440.464 368.117
L441.804 363.157
L443.144 357.278
L444.484 350.38
L445.824 342.37
L447.387 331.513
L448.95 318.934
L450.513 304.575
L452.3 285.992
L454.31 262.453
L456.543 233.463
L459.669 189.471
L464.359 123.228
L466.368 97.9361
L467.932 80.7271
L469.271 68.1464
L470.388 59.4249
L471.505 52.4652
L472.398 48.2477
L473.068 45.9045
L473.738 44.2809
L474.184 43.6035
L474.631 43.2527
L475.078 43.2292
L475.524 43.5333
L475.971 44.1641
L476.641 45.7185
L477.311 47.9937
L478.204 52.1229
L479.097 57.4612
L480.214 65.7427
L481.33 75.6782
L482.67 89.5482
L484.233 108
L486.243 134.441
L489.593 182.102
L493.612 238.614
L495.846 267.137
L497.855 290.165
L499.642 308.257
L501.428 324.02
L502.991 335.923
L504.555 346.136
L506.118 354.775
L507.458 361.031
L508.798 366.329
L510.137 370.771
L511.477 374.458
L512.817 377.488
L514.157 379.953
L515.497 381.94
L516.837 383.526
L518.177 384.78
L518.4 384.961
L518.4 384.961" style="fill:none;stroke:#ff0000;stroke-linecap:square;"/>
   </g>
   <g id="line2d_38">
    <path clip-path="url(#p7ff5b81e1d)" d="
M518.4 388.8
L518.4 43.2" style="fill:none;stroke:#ff0000;stroke-linecap:square;"/>
   </g>
   <g id="matplotlib.axis_1">
    <g id="xtick_1">
     <g id="line2d_39">
      <path clip-path="url(#p7ff5b81e1d)" d="
M72 388.8
L72 43.2" style="fill:none;stroke:#000000;stroke-dasharray:1.000000,3.000000;stroke-dashoffset:0.0;stroke-width:0.5;"/>
     </g>
     <g id="line2d_40">
      <defs>
       <path d="
M0 0
L0 -4" id="m93b0483c22" style="stroke:#000000;stroke-width:0.5;"/>
      </defs>
      <g>
       <use style="stroke:#000000;stroke-width:0.5;" x="72.0" xlink:href="#m93b0483c22" y="388.8"/>
      </g>
     </g>
     <g id="line2d_41">
      <defs>
       <path d="
M0 0
L0 4" id="m741efc42ff" style="stroke:#000000;stroke-width:0.5;"/>
      </defs>
      <g>
       <use style="stroke:#000000;stroke-width:0.5;" x="72.0" xlink:href="#m741efc42ff" y="43.2"/>
      </g>
     </g>
     <g id="text_1">
      <!-- 0.0 -->
      <defs>
       <path d="
M4.15625 35.2969
Q4.15625 48 6.76562 55.7344
Q9.375 63.4844 14.5156 67.6719
Q19.6719 71.875 27.4844 71.875
Q33.25 71.875 37.5938 69.5469
Q41.9375 67.2344 44.7656 62.8594
Q47.6094 58.5 49.2188 52.2188
Q50.8281 45.9531 50.8281 35.2969
Q50.8281 22.7031 48.2344 14.9688
Q45.6562 7.23438 40.5 3
Q35.3594 -1.21875 27.4844 -1.21875
Q17.1406 -1.21875 11.2344 6.20312
Q4.15625 15.1406 4.15625 35.2969
M13.1875 35.2969
Q13.1875 17.6719 17.3125 11.8281
Q21.4375 6 27.4844 6
Q33.5469 6 37.6719 11.8594
Q41.7969 17.7188 41.7969 35.2969
Q41.7969 52.9844 37.6719 58.7812
Q33.5469 64.5938 27.3906 64.5938
Q21.3438 64.5938 17.7188 59.4688
Q13.1875 52.9375 13.1875 35.2969" id="ArialMT-30"/>
       <path d="
M9.07812 0
L9.07812 10.0156
L19.0938 10.0156
L19.0938 0
z
" id="ArialMT-2e"/>
      </defs>
      <g transform="translate(64.19625 401.389375)scale(0.12 -0.12)">
       <use xlink:href="#ArialMT-30"/>
       <use x="55.615234375" xlink:href="#ArialMT-2e"/>
       <use x="83.3984375" xlink:href="#ArialMT-30"/>
      </g>
     </g>
    </g>
    <g id="xtick_2">
     <g id="line2d_42">
      <path clip-path="url(#p7ff5b81e1d)" d="
M161.28 388.8
L161.28 43.2" style="fill:none;stroke:#000000;stroke-dasharray:1.000000,3.000000;stroke-dashoffset:0.0;stroke-width:0.5;"/>
     </g>
     <g id="line2d_43">
      <g>
       <use style="stroke:#000000;stroke-width:0.5;" x="161.28" xlink:href="#m93b0483c22" y="388.8"/>
      </g>
     </g>
     <g id="line2d_44">
      <g>
       <use style="stroke:#000000;stroke-width:0.5;" x="161.28" xlink:href="#m741efc42ff" y="43.2"/>
      </g>
     </g>
     <g id="text_2">
      <!-- 0.2 -->
      <defs>
       <path d="
M50.3438 8.45312
L50.3438 0
L3.03125 0
Q2.9375 3.17188 4.04688 6.10938
Q5.85938 10.9375 9.82812 15.625
Q13.8125 20.3125 21.3438 26.4688
Q33.0156 36.0312 37.1094 41.625
Q41.2188 47.2188 41.2188 52.2031
Q41.2188 57.4219 37.4688 61
Q33.7344 64.5938 27.7344 64.5938
Q21.3906 64.5938 17.5781 60.7812
Q13.7656 56.9844 13.7188 50.25
L4.6875 51.1719
Q5.60938 61.2812 11.6562 66.5781
Q17.7188 71.875 27.9375 71.875
Q38.2344 71.875 44.2344 66.1562
Q50.25 60.4531 50.25 52
Q50.25 47.7031 48.4844 43.5469
Q46.7344 39.4062 42.6562 34.8125
Q38.5781 30.2188 29.1094 22.2188
Q21.1875 15.5781 18.9375 13.2031
Q16.7031 10.8438 15.2344 8.45312
z
" id="ArialMT-32"/>
      </defs>
      <g transform="translate(153.5053125 401.389375)scale(0.12 -0.12)">
       <use xlink:href="#ArialMT-30"/>
       <use x="55.615234375" xlink:href="#ArialMT-2e"/>
       <use x="83.3984375" xlink:href="#ArialMT-32"/>
      </g>
     </g>
    </g>
    <g id="xtick_3">
     <g id="line2d_45">
      <path clip-path="url(#p7ff5b81e1d)" d="
M250.56 388.8
L250.56 43.2" style="fill:none;stroke:#000000;stroke-dasharray:1.000000,3.000000;stroke-dashoffset:0.0;stroke-width:0.5;"/>
     </g>
     <g id="line2d_46">
      <g>
       <use style="stroke:#000000;stroke-width:0.5;" x="250.56" xlink:href="#m93b0483c22" y="388.8"/>
      </g>
     </g>
     <g id="line2d_47">
      <g>
       <use style="stroke:#000000;stroke-width:0.5;" x="250.56" xlink:href="#m741efc42ff" y="43.2"/>
      </g>
     </g>
     <g id="text_3">
      <!-- 0.4 -->
      <defs>
       <path d="
M32.3281 0
L32.3281 17.1406
L1.26562 17.1406
L1.26562 25.2031
L33.9375 71.5781
L41.1094 71.5781
L41.1094 25.2031
L50.7812 25.2031
L50.7812 17.1406
L41.1094 17.1406
L41.1094 0
z

M32.3281 25.2031
L32.3281 57.4688
L9.90625 25.2031
z
" id="ArialMT-34"/>
      </defs>
      <g transform="translate(242.7590625 401.389375)scale(0.12 -0.12)">
       <use xlink:href="#ArialMT-30"/>
       <use x="55.615234375" xlink:href="#ArialMT-2e"/>
       <use x="83.3984375" xlink:href="#ArialMT-34"/>
      </g>
     </g>
    </g>
    <g id="xtick_4">
     <g id="line2d_48">
      <path clip-path="url(#p7ff5b81e1d)" d="
M339.84 388.8
L339.84 43.2" style="fill:none;stroke:#000000;stroke-dasharray:1.000000,3.000000;stroke-dashoffset:0.0;stroke-width:0.5;"/>
     </g>
     <g id="line2d_49">
      <g>
       <use style="stroke:#000000;stroke-width:0.5;" x="339.84" xlink:href="#m93b0483c22" y="388.8"/>
      </g>
     </g>
     <g id="line2d_50">
      <g>
       <use style="stroke:#000000;stroke-width:0.5;" x="339.84" xlink:href="#m741efc42ff" y="43.2"/>
      </g>
     </g>
     <g id="text_4">
      <!-- 0.6 -->
      <defs>
       <path d="
M49.75 54.0469
L41.0156 53.375
Q39.8438 58.5469 37.7031 60.8906
Q34.125 64.6562 28.9062 64.6562
Q24.7031 64.6562 21.5312 62.3125
Q17.3906 59.2812 14.9844 53.4688
Q12.5938 47.6562 12.5 36.9219
Q15.6719 41.75 20.2656 44.0938
Q24.8594 46.4375 29.8906 46.4375
Q38.6719 46.4375 44.8438 39.9688
Q51.0312 33.5 51.0312 23.25
Q51.0312 16.5 48.125 10.7188
Q45.2188 4.9375 40.1406 1.85938
Q35.0625 -1.21875 28.6094 -1.21875
Q17.625 -1.21875 10.6875 6.85938
Q3.76562 14.9375 3.76562 33.5
Q3.76562 54.25 11.4219 63.6719
Q18.1094 71.875 29.4375 71.875
Q37.8906 71.875 43.2812 67.1406
Q48.6875 62.4062 49.75 54.0469
M13.875 23.1875
Q13.875 18.6562 15.7969 14.5
Q17.7188 10.3594 21.1875 8.17188
Q24.6562 6 28.4688 6
Q34.0312 6 38.0312 10.4844
Q42.0469 14.9844 42.0469 22.7031
Q42.0469 30.125 38.0781 34.3906
Q34.125 38.6719 28.125 38.6719
Q22.1719 38.6719 18.0156 34.3906
Q13.875 30.125 13.875 23.1875" id="ArialMT-36"/>
      </defs>
      <g transform="translate(332.0240625 401.389375)scale(0.12 -0.12)">
       <use xlink:href="#ArialMT-30"/>
       <use x="55.615234375" xlink:href="#ArialMT-2e"/>
       <use x="83.3984375" xlink:href="#ArialMT-36"/>
      </g>
     </g>
    </g>
    <g id="xtick_5">
     <g id="line2d_51">
      <path clip-path="url(#p7ff5b81e1d)" d="
M429.12 388.8
L429.12 43.2" style="fill:none;stroke:#000000;stroke-dasharray:1.000000,3.000000;stroke-dashoffset:0.0;stroke-width:0.5;"/>
     </g>
     <g id="line2d_52">
      <g>
       <use style="stroke:#000000;stroke-width:0.5;" x="429.12" xlink:href="#m93b0483c22" y="388.8"/>
      </g>
     </g>
     <g id="line2d_53">
      <g>
       <use style="stroke:#000000;stroke-width:0.5;" x="429.12" xlink:href="#m741efc42ff" y="43.2"/>
      </g>
     </g>
     <g id="text_5">
      <!-- 0.8 -->
      <defs>
       <path d="
M17.6719 38.8125
Q12.2031 40.8281 9.5625 44.5312
Q6.9375 48.25 6.9375 53.4219
Q6.9375 61.2344 12.5469 66.5469
Q18.1719 71.875 27.4844 71.875
Q36.8594 71.875 42.5781 66.4219
Q48.2969 60.9844 48.2969 53.1719
Q48.2969 48.1875 45.6719 44.5
Q43.0625 40.8281 37.75 38.8125
Q44.3438 36.6719 47.7812 31.875
Q51.2188 27.0938 51.2188 20.4531
Q51.2188 11.2812 44.7188 5.03125
Q38.2344 -1.21875 27.6406 -1.21875
Q17.0469 -1.21875 10.5469 5.04688
Q4.04688 11.3281 4.04688 20.7031
Q4.04688 27.6875 7.59375 32.3906
Q11.1406 37.1094 17.6719 38.8125
M15.9219 53.7188
Q15.9219 48.6406 19.1875 45.4062
Q22.4688 42.1875 27.6875 42.1875
Q32.7656 42.1875 36.0156 45.375
Q39.2656 48.5781 39.2656 53.2188
Q39.2656 58.0625 35.9062 61.3594
Q32.5625 64.6562 27.5938 64.6562
Q22.5625 64.6562 19.2344 61.4219
Q15.9219 58.2031 15.9219 53.7188
M13.0938 20.6562
Q13.0938 16.8906 14.875 13.375
Q16.6562 9.85938 20.1719 7.92188
Q23.6875 6 27.7344 6
Q34.0312 6 38.125 10.0469
Q42.2344 14.1094 42.2344 20.3594
Q42.2344 26.7031 38.0156 30.8594
Q33.7969 35.0156 27.4375 35.0156
Q21.2344 35.0156 17.1562 30.9062
Q13.0938 26.8125 13.0938 20.6562" id="ArialMT-38"/>
      </defs>
      <g transform="translate(421.2928125 401.389375)scale(0.12 -0.12)">
       <use xlink:href="#ArialMT-30"/>
       <use x="55.615234375" xlink:href="#ArialMT-2e"/>
       <use x="83.3984375" xlink:href="#ArialMT-38"/>
      </g>
     </g>
    </g>
    <g id="xtick_6">
     <g id="line2d_54">
      <path clip-path="url(#p7ff5b81e1d)" d="
M518.4 388.8
L518.4 43.2" style="fill:none;stroke:#000000;stroke-dasharray:1.000000,3.000000;stroke-dashoffset:0.0;stroke-width:0.5;"/>
     </g>
     <g id="line2d_55">
      <g>
       <use style="stroke:#000000;stroke-width:0.5;" x="518.4" xlink:href="#m93b0483c22" y="388.8"/>
      </g>
     </g>
     <g id="line2d_56">
      <g>
       <use style="stroke:#000000;stroke-width:0.5;" x="518.4" xlink:href="#m741efc42ff" y="43.2"/>
      </g>
     </g>
     <g id="text_6">
      <!-- 1.0 -->
      <defs>
       <path d="
M37.25 0
L28.4688 0
L28.4688 56
Q25.2969 52.9844 20.1406 49.9531
Q14.9844 46.9219 10.8906 45.4062
L10.8906 53.9062
Q18.2656 57.375 23.7812 62.2969
Q29.2969 67.2344 31.5938 71.875
L37.25 71.875
z
" id="ArialMT-31"/>
      </defs>
      <g transform="translate(511.0003125 401.389375)scale(0.12 -0.12)">
       <use xlink:href="#ArialMT-31"/>
       <use x="55.615234375" xlink:href="#ArialMT-2e"/>
       <use x="83.3984375" xlink:href="#ArialMT-30"/>
      </g>
     </g>
    </g>
    <g id="text_7">
     <!-- t -->
     <defs>
      <path d="
M25.7812 7.85938
L27.0469 0.09375
Q23.3438 -0.6875 20.4062 -0.6875
Q15.625 -0.6875 12.9844 0.828125
Q10.3594 2.34375 9.28125 4.8125
Q8.20312 7.28125 8.20312 15.1875
L8.20312 45.0156
L1.76562 45.0156
L1.76562 51.8594
L8.20312 51.8594
L8.20312 64.7031
L16.9375 69.9688
L16.9375 51.8594
L25.7812 51.8594
L25.7812 45.0156
L16.9375 45.0156
L16.9375 14.7031
Q16.9375 10.9375 17.4062 9.85938
Q17.875 8.79688 18.9219 8.15625
Q19.9688 7.51562 21.9219 7.51562
Q23.3906 7.51562 25.7812 7.85938" id="ArialMT-74"/>
     </defs>
     <g transform="translate(293.683125 417.36375)scale(0.12 -0.12)">
      <use xlink:href="#ArialMT-74"/>
     </g>
    </g>
   </g>
   <g id="matplotlib.axis_2">
    <g id="ytick_1">
     <g id="line2d_57">
      <path clip-path="url(#p7ff5b81e1d)" d="
M72 388.8
L518.4 388.8" style="fill:none;stroke:#000000;stroke-dasharray:1.000000,3.000000;stroke-dashoffset:0.0;stroke-width:0.5;"/>
     </g>
     <g id="line2d_58">
      <defs>
       <path d="
M0 0
L4 0" id="m728421d6d4" style="stroke:#000000;stroke-width:0.5;"/>
      </defs>
      <g>
       <use style="stroke:#000000;stroke-width:0.5;" x="72.0" xlink:href="#m728421d6d4" y="388.8"/>
      </g>
     </g>
     <g id="line2d_59">
      <defs>
       <path d="
M0 0
L-4 0" id="mcb0005524f" style="stroke:#000000;stroke-width:0.5;"/>
      </defs>
      <g>
       <use style="stroke:#000000;stroke-width:0.5;" x="518.4" xlink:href="#mcb0005524f" y="388.8"/>
      </g>
     </g>
     <g id="text_8">
      <!-- 0 -->
      <g transform="translate(62.399375 391.9021875)scale(0.12 -0.12)">
       <use xlink:href="#ArialMT-30"/>
      </g>
     </g>
    </g>
    <g id="ytick_2">
     <g id="line2d_60">
      <path clip-path="url(#p7ff5b81e1d)" d="
M72 332.504
L518.4 332.504" style="fill:none;stroke:#000000;stroke-dasharray:1.000000,3.000000;stroke-dashoffset:0.0;stroke-width:0.5;"/>
     </g>
     <g id="line2d_61">
      <g>
       <use style="stroke:#000000;stroke-width:0.5;" x="72.0" xlink:href="#m728421d6d4" y="332.504115411"/>
      </g>
     </g>
     <g id="line2d_62">
      <g>
       <use style="stroke:#000000;stroke-width:0.5;" x="518.4" xlink:href="#mcb0005524f" y="332.504115411"/>
      </g>
     </g>
     <g id="text_9">
      <!-- 2 -->
      <g transform="translate(62.31125 335.606302911)scale(0.12 -0.12)">
       <use xlink:href="#ArialMT-32"/>
      </g>
     </g>
    </g>
    <g id="ytick_3">
     <g id="line2d_63">
      <path clip-path="url(#p7ff5b81e1d)" d="
M72 276.208
L518.4 276.208" style="fill:none;stroke:#000000;stroke-dasharray:1.000000,3.000000;stroke-dashoffset:0.0;stroke-width:0.5;"/>
     </g>
     <g id="line2d_64">
      <g>
       <use style="stroke:#000000;stroke-width:0.5;" x="72.0" xlink:href="#m728421d6d4" y="276.208230823"/>
      </g>
     </g>
     <g id="line2d_65">
      <g>
       <use style="stroke:#000000;stroke-width:0.5;" x="518.4" xlink:href="#mcb0005524f" y="276.208230823"/>
      </g>
     </g>
     <g id="text_10">
      <!-- 4 -->
      <g transform="translate(62.058125 279.310418323)scale(0.12 -0.12)">
       <use xlink:href="#ArialMT-34"/>
      </g>
     </g>
    </g>
    <g id="ytick_4">
     <g id="line2d_66">
      <path clip-path="url(#p7ff5b81e1d)" d="
M72 219.912
L518.4 219.912" style="fill:none;stroke:#000000;stroke-dasharray:1.000000,3.000000;stroke-dashoffset:0.0;stroke-width:0.5;"/>
     </g>
     <g id="line2d_67">
      <g>
       <use style="stroke:#000000;stroke-width:0.5;" x="72.0" xlink:href="#m728421d6d4" y="219.912346234"/>
      </g>
     </g>
     <g id="line2d_68">
      <g>
       <use style="stroke:#000000;stroke-width:0.5;" x="518.4" xlink:href="#mcb0005524f" y="219.912346234"/>
      </g>
     </g>
     <g id="text_11">
      <!-- 6 -->
      <g transform="translate(62.328125 223.014533734)scale(0.12 -0.12)">
       <use xlink:href="#ArialMT-36"/>
      </g>
     </g>
    </g>
    <g id="ytick_5">
     <g id="line2d_69">
      <path clip-path="url(#p7ff5b81e1d)" d="
M72 163.616
L518.4 163.616" style="fill:none;stroke:#000000;stroke-dasharray:1.000000,3.000000;stroke-dashoffset:0.0;stroke-width:0.5;"/>
     </g>
     <g id="line2d_70">
      <g>
       <use style="stroke:#000000;stroke-width:0.5;" x="72.0" xlink:href="#m728421d6d4" y="163.616461645"/>
      </g>
     </g>
     <g id="line2d_71">
      <g>
       <use style="stroke:#000000;stroke-width:0.5;" x="518.4" xlink:href="#mcb0005524f" y="163.616461645"/>
      </g>
     </g>
     <g id="text_12">
      <!-- 8 -->
      <g transform="translate(62.339375 166.718649145)scale(0.12 -0.12)">
       <use xlink:href="#ArialMT-38"/>
      </g>
     </g>
    </g>
    <g id="ytick_6">
     <g id="line2d_72">
      <path clip-path="url(#p7ff5b81e1d)" d="
M72 107.321
L518.4 107.321" style="fill:none;stroke:#000000;stroke-dasharray:1.000000,3.000000;stroke-dashoffset:0.0;stroke-width:0.5;"/>
     </g>
     <g id="line2d_73">
      <g>
       <use style="stroke:#000000;stroke-width:0.5;" x="72.0" xlink:href="#m728421d6d4" y="107.320577056"/>
      </g>
     </g>
     <g id="line2d_74">
      <g>
       <use style="stroke:#000000;stroke-width:0.5;" x="518.4" xlink:href="#mcb0005524f" y="107.320577056"/>
      </g>
     </g>
     <g id="text_13">
      <!-- 10 -->
      <g transform="translate(56.534375 110.422764556)scale(0.12 -0.12)">
       <use xlink:href="#ArialMT-31"/>
       <use x="55.615234375" xlink:href="#ArialMT-30"/>
      </g>
     </g>
    </g>
    <g id="ytick_7">
     <g id="line2d_75">
      <path clip-path="url(#p7ff5b81e1d)" d="
M72 51.0247
L518.4 51.0247" style="fill:none;stroke:#000000;stroke-dasharray:1.000000,3.000000;stroke-dashoffset:0.0;stroke-width:0.5;"/>
     </g>
     <g id="line2d_76">
      <g>
       <use style="stroke:#000000;stroke-width:0.5;" x="72.0" xlink:href="#m728421d6d4" y="51.0246924677"/>
      </g>
     </g>
     <g id="line2d_77">
      <g>
       <use style="stroke:#000000;stroke-width:0.5;" x="518.4" xlink:href="#mcb0005524f" y="51.0246924677"/>
      </g>
     </g>
     <g id="text_14">
      <!-- 12 -->
      <g transform="translate(56.5925 54.1268799677)scale(0.12 -0.12)">
       <use xlink:href="#ArialMT-31"/>
       <use x="55.615234375" xlink:href="#ArialMT-32"/>
      </g>
     </g>
    </g>
    <g id="text_15">
     <!-- P -->
     <defs>
      <path d="
M7.71875 0
L7.71875 71.5781
L34.7188 71.5781
Q41.8438 71.5781 45.6094 70.9062
Q50.875 70.0156 54.4375 67.5469
Q58.0156 65.0938 60.1875 60.6406
Q62.3594 56.2031 62.3594 50.875
Q62.3594 41.75 56.5469 35.4219
Q50.7344 29.1094 35.5469 29.1094
L17.1875 29.1094
L17.1875 0
z

M17.1875 37.5469
L35.6875 37.5469
Q44.875 37.5469 48.7344 40.9688
Q52.5938 44.3906 52.5938 50.5938
Q52.5938 55.0781 50.3125 58.2656
Q48.0469 61.4688 44.3438 62.5
Q41.9375 63.1406 35.5 63.1406
L17.1875 63.1406
z
" id="ArialMT-50"/>
     </defs>
     <g transform="translate(49.149375 219.2784375)rotate(-90.0)scale(0.12 -0.12)">
      <use xlink:href="#ArialMT-50"/>
     </g>
    </g>
   </g>
   <g id="patch_3">
    <path d="
M72 43.2
L518.4 43.2" style="fill:none;stroke:#000000;"/>
   </g>
   <g id="patch_4">
    <path d="
M518.4 388.8
L518.4 43.2" style="fill:none;stroke:#000000;"/>
   </g>
   <g id="patch_5">
    <path d="
M72 388.8
L518.4 388.8" style="fill:none;stroke:#000000;"/>
   </g>
   <g id="patch_6">
    <path d="
M72 388.8
L72 43.2" style="fill:none;stroke:#000000;"/>
   </g>
   <g id="text_16">
    <!-- Flight PDF queue distribution -->
    <defs>
     <path d="
M14.7031 0
L6.54688 0
L6.54688 71.5781
L15.3281 71.5781
L15.3281 46.0469
Q20.9062 53.0312 29.5469 53.0312
Q34.3281 53.0312 38.5938 51.0938
Q42.875 49.1719 45.625 45.6719
Q48.3906 42.1875 49.9531 37.25
Q51.5156 32.3281 51.5156 26.7031
Q51.5156 13.375 44.9219 6.09375
Q38.3281 -1.17188 29.1094 -1.17188
Q19.9219 -1.17188 14.7031 6.5
z

M14.5938 26.3125
Q14.5938 17 17.1406 12.8438
Q21.2969 6.0625 28.375 6.0625
Q34.125 6.0625 38.3281 11.0625
Q42.5312 16.0625 42.5312 25.9844
Q42.5312 36.1406 38.5 40.9688
Q34.4688 45.7969 28.7656 45.7969
Q23 45.7969 18.7969 40.7969
Q14.5938 35.7969 14.5938 26.3125" id="ArialMT-62"/>
     <path d="
M4.98438 -4.29688
L13.5312 -5.5625
Q14.0625 -9.51562 16.5 -11.3281
Q19.7812 -13.7656 25.4375 -13.7656
Q31.5469 -13.7656 34.8594 -11.3281
Q38.1875 -8.89062 39.3594 -4.5
Q40.0469 -1.8125 39.9844 6.78125
Q34.2344 0 25.6406 0
Q14.9375 0 9.07812 7.71875
Q3.21875 15.4375 3.21875 26.2188
Q3.21875 33.6406 5.90625 39.9062
Q8.59375 46.1875 13.6875 49.6094
Q18.7969 53.0312 25.6875 53.0312
Q34.8594 53.0312 40.8281 45.6094
L40.8281 51.8594
L48.9219 51.8594
L48.9219 7.03125
Q48.9219 -5.07812 46.4531 -10.125
Q44 -15.1875 38.6406 -18.1094
Q33.2969 -21.0469 25.4844 -21.0469
Q16.2188 -21.0469 10.5 -16.875
Q4.78125 -12.7031 4.98438 -4.29688
M12.25 26.8594
Q12.25 16.6562 16.2969 11.9688
Q20.3594 7.28125 26.4688 7.28125
Q32.5156 7.28125 36.6094 11.9375
Q40.7188 16.6094 40.7188 26.5625
Q40.7188 36.0781 36.5 40.9062
Q32.2812 45.75 26.3125 45.75
Q20.4531 45.75 16.3438 40.9844
Q12.25 36.2344 12.25 26.8594" id="ArialMT-67"/>
     <path d="
M42.0938 16.7031
L51.1719 15.5781
Q49.0312 7.625 43.2188 3.21875
Q37.4062 -1.17188 28.375 -1.17188
Q17 -1.17188 10.3281 5.82812
Q3.65625 12.8438 3.65625 25.4844
Q3.65625 38.5781 10.3906 45.7969
Q17.1406 53.0312 27.875 53.0312
Q38.2812 53.0312 44.875 45.9531
Q51.4688 38.875 51.4688 26.0312
Q51.4688 25.25 51.4219 23.6875
L12.75 23.6875
Q13.2344 15.1406 17.5781 10.5938
Q21.9219 6.0625 28.4219 6.0625
Q33.25 6.0625 36.6719 8.59375
Q40.0938 11.1406 42.0938 16.7031
M13.2344 30.9062
L42.1875 30.9062
Q41.6094 37.4531 38.875 40.7188
Q34.6719 45.7969 27.9844 45.7969
Q21.9219 45.7969 17.7969 41.75
Q13.6719 37.7031 13.2344 30.9062" id="ArialMT-65"/>
     <path d="
M40.2344 0
L40.2344 6.54688
Q35.2969 -1.17188 25.7344 -1.17188
Q19.5312 -1.17188 14.3281 2.25
Q9.125 5.67188 6.26562 11.7969
Q3.42188 17.9219 3.42188 25.875
Q3.42188 33.6406 6 39.9688
Q8.59375 46.2969 13.7656 49.6562
Q18.9531 53.0312 25.3438 53.0312
Q30.0312 53.0312 33.6875 51.0469
Q37.3594 49.0781 39.6562 45.9062
L39.6562 71.5781
L48.3906 71.5781
L48.3906 0
z

M12.4531 25.875
Q12.4531 15.9219 16.6406 10.9844
Q20.8438 6.0625 26.5625 6.0625
Q32.3281 6.0625 36.3438 10.7656
Q40.375 15.4844 40.375 25.1406
Q40.375 35.7969 36.2656 40.7656
Q32.1719 45.75 26.1719 45.75
Q20.3125 45.75 16.375 40.9688
Q12.4531 36.1875 12.4531 25.875" id="ArialMT-64"/>
     <path d="
M40.5781 0
L40.5781 7.625
Q34.5156 -1.17188 24.125 -1.17188
Q19.5312 -1.17188 15.5469 0.578125
Q11.5781 2.34375 9.64062 5
Q7.71875 7.67188 6.9375 11.5312
Q6.39062 14.1094 6.39062 19.7344
L6.39062 51.8594
L15.1875 51.8594
L15.1875 23.0938
Q15.1875 16.2188 15.7188 13.8125
Q16.5469 10.3594 19.2344 8.375
Q21.9219 6.39062 25.875 6.39062
Q29.8281 6.39062 33.2969 8.42188
Q36.7656 10.4531 38.2031 13.9375
Q39.6562 17.4375 39.6562 24.0781
L39.6562 51.8594
L48.4375 51.8594
L48.4375 0
z
" id="ArialMT-75"/>
     <path d="
M6.64062 61.4688
L6.64062 71.5781
L15.4375 71.5781
L15.4375 61.4688
z

M6.64062 0
L6.64062 51.8594
L15.4375 51.8594
L15.4375 0
z
" id="ArialMT-69"/>
     <path d="
M6.59375 0
L6.59375 71.5781
L15.375 71.5781
L15.375 45.9062
Q21.5312 53.0312 30.9062 53.0312
Q36.6719 53.0312 40.9219 50.75
Q45.1719 48.4844 47 44.4844
Q48.8281 40.4844 48.8281 32.8594
L48.8281 0
L40.0469 0
L40.0469 32.8594
Q40.0469 39.4531 37.1875 42.4531
Q34.3281 45.4531 29.1094 45.4531
Q25.2031 45.4531 21.75 43.4219
Q18.3125 41.4062 16.8438 37.9375
Q15.375 34.4688 15.375 28.375
L15.375 0
z
" id="ArialMT-68"/>
     <path d="
M7.71875 0
L7.71875 71.5781
L32.375 71.5781
Q40.7188 71.5781 45.125 70.5625
Q51.2656 69.1406 55.6094 65.4375
Q61.2812 60.6406 64.0781 53.1875
Q66.8906 45.75 66.8906 36.1875
Q66.8906 28.0312 64.9844 21.7344
Q63.0938 15.4375 60.1094 11.2969
Q57.125 7.17188 53.5781 4.79688
Q50.0469 2.4375 45.0469 1.21875
Q40.0469 0 33.5469 0
z

M17.1875 8.45312
L32.4688 8.45312
Q39.5469 8.45312 43.5781 9.76562
Q47.6094 11.0781 50 13.4844
Q53.375 16.8438 55.25 22.5312
Q57.125 28.2188 57.125 36.3281
Q57.125 47.5625 53.4375 53.5938
Q49.75 59.625 44.4844 61.6719
Q40.6719 63.1406 32.2344 63.1406
L17.1875 63.1406
z
" id="ArialMT-44"/>
     <path d="
M6.5 0
L6.5 51.8594
L14.4062 51.8594
L14.4062 44
Q17.4375 49.5156 20 51.2656
Q22.5625 53.0312 25.6406 53.0312
Q30.0781 53.0312 34.6719 50.2031
L31.6406 42.0469
Q28.4219 43.9531 25.2031 43.9531
Q22.3125 43.9531 20.0156 42.2188
Q17.7188 40.4844 16.75 37.4062
Q15.2812 32.7188 15.2812 27.1562
L15.2812 0
z
" id="ArialMT-72"/>
     <path d="
M8.20312 0
L8.20312 71.5781
L56.5 71.5781
L56.5 63.1406
L17.6719 63.1406
L17.6719 40.9688
L51.2656 40.9688
L51.2656 32.5156
L17.6719 32.5156
L17.6719 0
z
" id="ArialMT-46"/>
     <path d="
M6.39062 0
L6.39062 71.5781
L15.1875 71.5781
L15.1875 0
z
" id="ArialMT-6c"/>
     <path d="
M3.32812 25.9219
Q3.32812 40.3281 11.3281 47.2656
Q18.0156 53.0312 27.6406 53.0312
Q38.3281 53.0312 45.1094 46.0156
Q51.9062 39.0156 51.9062 26.6562
Q51.9062 16.6562 48.9062 10.9062
Q45.9062 5.17188 40.1562 2
Q34.4219 -1.17188 27.6406 -1.17188
Q16.75 -1.17188 10.0312 5.8125
Q3.32812 12.7969 3.32812 25.9219
M12.3594 25.9219
Q12.3594 15.9688 16.7031 11.0156
Q21.0469 6.0625 27.6406 6.0625
Q34.1875 6.0625 38.5312 11.0312
Q42.875 16.0156 42.875 26.2188
Q42.875 35.8438 38.5 40.7969
Q34.125 45.75 27.6406 45.75
Q21.0469 45.75 16.7031 40.8125
Q12.3594 35.8906 12.3594 25.9219" id="ArialMT-6f"/>
     <path d="
M6.59375 0
L6.59375 51.8594
L14.5 51.8594
L14.5 44.4844
Q20.2188 53.0312 31 53.0312
Q35.6875 53.0312 39.625 51.3438
Q43.5625 49.6562 45.5156 46.9219
Q47.4688 44.1875 48.25 40.4375
Q48.7344 37.9844 48.7344 31.8906
L48.7344 0
L39.9375 0
L39.9375 31.5469
Q39.9375 36.9219 38.9062 39.5781
Q37.8906 42.2344 35.2812 43.8125
Q32.6719 45.4062 29.1562 45.4062
Q23.5312 45.4062 19.4531 41.8438
Q15.375 38.2812 15.375 28.3281
L15.375 0
z
" id="ArialMT-6e"/>
     <path d="
M39.6562 -19.875
L39.6562 5.51562
Q37.5938 2.64062 33.9062 0.734375
Q30.2188 -1.17188 26.0781 -1.17188
Q16.8438 -1.17188 10.1719 6.20312
Q3.51562 13.5781 3.51562 26.4219
Q3.51562 34.2344 6.21875 40.4219
Q8.9375 46.625 14.0781 49.8281
Q19.2344 53.0312 25.3906 53.0312
Q35.0156 53.0312 40.5312 44.9219
L40.5312 51.8594
L48.4375 51.8594
L48.4375 -19.875
z

M12.5469 26.0781
Q12.5469 16.0625 16.75 11.0625
Q20.9531 6.0625 26.8125 6.0625
Q32.4219 6.0625 36.4688 10.8125
Q40.5312 15.5781 40.5312 25.2969
Q40.5312 35.6406 36.25 40.8594
Q31.9844 46.0938 26.2188 46.0938
Q20.5156 46.0938 16.5312 41.2344
Q12.5469 36.375 12.5469 26.0781" id="ArialMT-71"/>
     <path d="
M3.07812 15.4844
L11.7656 16.8438
Q12.5 11.625 15.8438 8.84375
Q19.1875 6.0625 25.2031 6.0625
Q31.25 6.0625 34.1719 8.51562
Q37.1094 10.9844 37.1094 14.3125
Q37.1094 17.2812 34.5156 19
Q32.7188 20.1719 25.5312 21.9688
Q15.875 24.4219 12.1406 26.2031
Q8.40625 27.9844 6.46875 31.125
Q4.54688 34.2812 4.54688 38.0938
Q4.54688 41.5469 6.125 44.5
Q7.71875 47.4688 10.4531 49.4219
Q12.5 50.9219 16.0312 51.9688
Q19.5781 53.0312 23.6406 53.0312
Q29.7344 53.0312 34.3438 51.2656
Q38.9688 49.5156 41.1562 46.5
Q43.3594 43.5 44.1875 38.4844
L35.5938 37.3125
Q35.0156 41.3125 32.2031 43.5469
Q29.3906 45.7969 24.2656 45.7969
Q18.2188 45.7969 15.625 43.7969
Q13.0312 41.7969 13.0312 39.1094
Q13.0312 37.4062 14.1094 36.0312
Q15.1875 34.625 17.4844 33.6875
Q18.7969 33.2031 25.25 31.4531
Q34.5781 28.9531 38.25 27.3594
Q41.9375 25.7812 44.0312 22.75
Q46.1406 19.7344 46.1406 15.2344
Q46.1406 10.8438 43.5781 6.95312
Q41.0156 3.07812 36.1719 0.953125
Q31.3438 -1.17188 25.25 -1.17188
Q15.1406 -1.17188 9.84375 3.03125
Q4.54688 7.23438 3.07812 15.4844" id="ArialMT-73"/>
     <path id="ArialMT-20"/>
    </defs>
    <g transform="translate(202.85325 38.2)scale(0.144 -0.144)">
     <use xlink:href="#ArialMT-46"/>
     <use x="61.083984375" xlink:href="#ArialMT-6c"/>
     <use x="83.30078125" xlink:href="#ArialMT-69"/>
     <use x="105.517578125" xlink:href="#ArialMT-67"/>
     <use x="161.1328125" xlink:href="#ArialMT-68"/>
     <use x="216.748046875" xlink:href="#ArialMT-74"/>
     <use x="244.53125" xlink:href="#ArialMT-20"/>
     <use x="272.314453125" xlink:href="#ArialMT-50"/>
     <use x="339.013671875" xlink:href="#ArialMT-44"/>
     <use x="411.23046875" xlink:href="#ArialMT-46"/>
     <use x="472.314453125" xlink:href="#ArialMT-20"/>
     <use x="500.09765625" xlink:href="#ArialMT-71"/>
     <use x="555.712890625" xlink:href="#ArialMT-75"/>
     <use x="611.328125" xlink:href="#ArialMT-65"/>
     <use x="666.943359375" xlink:href="#ArialMT-75"/>
     <use x="722.55859375" xlink:href="#ArialMT-65"/>
     <use x="778.173828125" xlink:href="#ArialMT-20"/>
     <use x="805.95703125" xlink:href="#ArialMT-64"/>
     <use x="861.572265625" xlink:href="#ArialMT-69"/>
     <use x="883.7890625" xlink:href="#ArialMT-73"/>
     <use x="933.7890625" xlink:href="#ArialMT-74"/>
     <use x="961.572265625" xlink:href="#ArialMT-72"/>
     <use x="994.873046875" xlink:href="#ArialMT-69"/>
     <use x="1017.08984375" xlink:href="#ArialMT-62"/>
     <use x="1072.70507812" xlink:href="#ArialMT-75"/>
     <use x="1128.3203125" xlink:href="#ArialMT-74"/>
     <use x="1156.10351562" xlink:href="#ArialMT-69"/>
     <use x="1178.3203125" xlink:href="#ArialMT-6f"/>
     <use x="1233.93554688" xlink:href="#ArialMT-6e"/>
    </g>
   </g>
  </g>
 </g>
 <defs>
  <clipPath id="p7ff5b81e1d">
   <rect height="345.6" width="446.4" x="72.0" y="43.2"/>
  </clipPath>
 </defs>
</svg>
