<?xml version="1.0" encoding="utf-8" standalone="no"?>
<!DOCTYPE svg PUBLIC "-//W3C//DTD SVG 1.1//EN"
  "http://www.w3.org/Graphics/SVG/1.1/DTD/svg11.dtd">
<!-- Created with matplotlib (http://matplotlib.org/) -->
<svg height="432pt" version="1.1" viewBox="0 0 576 432" width="576pt" xmlns="http://www.w3.org/2000/svg" xmlns:xlink="http://www.w3.org/1999/xlink">
 <defs>
  <style type="text/css">
*{stroke-linecap:butt;stroke-linejoin:round;}
  </style>
 </defs>
 <g id="figure_1">
  <g id="patch_1">
   <path d="
M0 432
L576 432
L576 0
L0 0
z
" style="fill:#ffffff;"/>
  </g>
  <g id="axes_1">
   <g id="patch_2">
    <path d="
M72 388.8
L518.4 388.8
L518.4 43.2
L72 43.2
z
" style="fill:#ffffff;"/>
   </g>
   <g id="patch_3">
    <path clip-path="url(#p7ff5b81e1d)" d="
M72 388.8
L74.2093 388.8
L74.2093 369.051
L72 369.051
z
" style="stroke:#000000;"/>
   </g>
   <g id="patch_4">
    <path clip-path="url(#p7ff5b81e1d)" d="
M74.2093 388.8
L76.4187 388.8
L76.4187 369.051
L74.2093 369.051
z
" style="stroke:#000000;"/>
   </g>
   <g id="patch_5">
    <path clip-path="url(#p7ff5b81e1d)" d="
M76.4187 388.8
L78.628 388.8
L78.628 354.24
L76.4187 354.24
z
" style="stroke:#000000;"/>
   </g>
   <g id="patch_6">
    <path clip-path="url(#p7ff5b81e1d)" d="
M78.628 388.8
L80.8373 388.8
L80.8373 354.24
L78.628 354.24
z
" style="stroke:#000000;"/>
   </g>
   <g id="patch_7">
    <path clip-path="url(#p7ff5b81e1d)" d="
M80.8373 388.8
L83.0467 388.8
L83.0467 344.366
L80.8373 344.366
z
" style="stroke:#000000;"/>
   </g>
   <g id="patch_8">
    <path clip-path="url(#p7ff5b81e1d)" d="
M83.0467 388.8
L85.256 388.8
L85.256 324.617
L83.0467 324.617
z
" style="stroke:#000000;"/>
   </g>
   <g id="patch_9">
    <path clip-path="url(#p7ff5b81e1d)" d="
M85.256 388.8
L87.4653 388.8
L87.4653 299.931
L85.256 299.931
z
" style="stroke:#000000;"/>
   </g>
   <g id="patch_10">
    <path clip-path="url(#p7ff5b81e1d)" d="
M87.4653 388.8
L89.6746 388.8
L89.6746 270.309
L87.4653 270.309
z
" style="stroke:#000000;"/>
   </g>
   <g id="patch_11">
    <path clip-path="url(#p7ff5b81e1d)" d="
M89.6746 388.8
L91.884 388.8
L91.884 339.429
L89.6746 339.429
z
" style="stroke:#000000;"/>
   </g>
   <g id="patch_12">
    <path clip-path="url(#p7ff5b81e1d)" d="
M91.884 388.8
L94.0933 388.8
L94.0933 304.869
L91.884 304.869
z
" style="stroke:#000000;"/>
   </g>
   <g id="patch_13">
    <path clip-path="url(#p7ff5b81e1d)" d="
M94.0933 388.8
L96.3026 388.8
L96.3026 329.554
L94.0933 329.554
z
" style="stroke:#000000;"/>
   </g>
   <g id="patch_14">
    <path clip-path="url(#p7ff5b81e1d)" d="
M96.3026 388.8
L98.512 388.8
L98.512 260.434
L96.3026 260.434
z
" style="stroke:#000000;"/>
   </g>
   <g id="patch_15">
    <path clip-path="url(#p7ff5b81e1d)" d="
M98.512 388.8
L100.721 388.8
L100.721 294.994
L98.512 294.994
z
" style="stroke:#000000;"/>
   </g>
   <g id="patch_16">
    <path clip-path="url(#p7ff5b81e1d)" d="
M100.721 388.8
L102.931 388.8
L102.931 314.743
L100.721 314.743
z
" style="stroke:#000000;"/>
   </g>
   <g id="patch_17">
    <path clip-path="url(#p7ff5b81e1d)" d="
M102.931 388.8
L105.14 388.8
L105.14 250.56
L102.931 250.56
z
" style="stroke:#000000;"/>
   </g>
   <g id="patch_18">
    <path clip-path="url(#p7ff5b81e1d)" d="
M105.14 388.8
L107.349 388.8
L107.349 191.314
L105.14 191.314
z
" style="stroke:#000000;"/>
   </g>
   <g id="patch_19">
    <path clip-path="url(#p7ff5b81e1d)" d="
M107.349 388.8
L109.559 388.8
L109.559 206.126
L107.349 206.126
z
" style="stroke:#000000;"/>
   </g>
   <g id="patch_20">
    <path clip-path="url(#p7ff5b81e1d)" d="
M109.559 388.8
L111.768 388.8
L111.768 206.126
L109.559 206.126
z
" style="stroke:#000000;"/>
   </g>
   <g id="patch_21">
    <path clip-path="url(#p7ff5b81e1d)" d="
M111.768 388.8
L113.977 388.8
L113.977 230.811
L111.768 230.811
z
" style="stroke:#000000;"/>
   </g>
   <g id="patch_22">
    <path clip-path="url(#p7ff5b81e1d)" d="
M113.977 388.8
L116.187 388.8
L116.187 220.937
L113.977 220.937
z
" style="stroke:#000000;"/>
   </g>
   <g id="patch_23">
    <path clip-path="url(#p7ff5b81e1d)" d="
M116.187 388.8
L118.396 388.8
L118.396 230.811
L116.187 230.811
z
" style="stroke:#000000;"/>
   </g>
   <g id="patch_24">
    <path clip-path="url(#p7ff5b81e1d)" d="
M118.396 388.8
L120.605 388.8
L120.605 260.434
L118.396 260.434
z
" style="stroke:#000000;"/>
   </g>
   <g id="patch_25">
    <path clip-path="url(#p7ff5b81e1d)" d="
M120.605 388.8
L122.815 388.8
L122.815 240.686
L120.605 240.686
z
" style="stroke:#000000;"/>
   </g>
   <g id="patch_26">
    <path clip-path="url(#p7ff5b81e1d)" d="
M122.815 388.8
L125.024 388.8
L125.024 245.623
L122.815 245.623
z
" style="stroke:#000000;"/>
   </g>
   <g id="patch_27">
    <path clip-path="url(#p7ff5b81e1d)" d="
M125.024 388.8
L127.233 388.8
L127.233 270.309
L125.024 270.309
z
" style="stroke:#000000;"/>
   </g>
   <g id="patch_28">
    <path clip-path="url(#p7ff5b81e1d)" d="
M127.233 388.8
L129.443 388.8
L129.443 324.617
L127.233 324.617
z
" style="stroke:#000000;"/>
   </g>
   <g id="patch_29">
    <path clip-path="url(#p7ff5b81e1d)" d="
M129.443 388.8
L131.652 388.8
L131.652 112.32
L129.443 112.32
z
" style="stroke:#000000;"/>
   </g>
   <g id="patch_30">
    <path clip-path="url(#p7ff5b81e1d)" d="
M131.652 388.8
L133.861 388.8
L133.861 334.491
L131.652 334.491
z
" style="stroke:#000000;"/>
   </g>
   <g id="patch_31">
    <path clip-path="url(#p7ff5b81e1d)" d="
M133.861 388.8
L136.071 388.8
L136.071 260.434
L133.861 260.434
z
" style="stroke:#000000;"/>
   </g>
   <g id="patch_32">
    <path clip-path="url(#p7ff5b81e1d)" d="
M136.071 388.8
L138.28 388.8
L138.28 314.743
L136.071 314.743
z
" style="stroke:#000000;"/>
   </g>
   <g id="patch_33">
    <path clip-path="url(#p7ff5b81e1d)" d="
M138.28 388.8
L140.489 388.8
L140.489 275.246
L138.28 275.246
z
" style="stroke:#000000;"/>
   </g>
   <g id="patch_34">
    <path clip-path="url(#p7ff5b81e1d)" d="
M140.489 388.8
L142.699 388.8
L142.699 364.114
L140.489 364.114
z
" style="stroke:#000000;"/>
   </g>
   <g id="patch_35">
    <path clip-path="url(#p7ff5b81e1d)" d="
M142.699 388.8
L144.908 388.8
L144.908 339.429
L142.699 339.429
z
" style="stroke:#000000;"/>
   </g>
   <g id="patch_36">
    <path clip-path="url(#p7ff5b81e1d)" d="
M144.908 388.8
L147.117 388.8
L147.117 383.863
L144.908 383.863
z
" style="stroke:#000000;"/>
   </g>
   <g id="patch_37">
    <path clip-path="url(#p7ff5b81e1d)" d="
M147.117 388.8
L149.327 388.8
L149.327 369.051
L147.117 369.051
z
" style="stroke:#000000;"/>
   </g>
   <g id="patch_38">
    <path clip-path="url(#p7ff5b81e1d)" d="
M149.327 388.8
L151.536 388.8
L151.536 388.8
L149.327 388.8
z
" style="stroke:#000000;"/>
   </g>
   <g id="patch_39">
    <path clip-path="url(#p7ff5b81e1d)" d="
M151.536 388.8
L153.745 388.8
L153.745 388.8
L151.536 388.8
z
" style="stroke:#000000;"/>
   </g>
   <g id="patch_40">
    <path clip-path="url(#p7ff5b81e1d)" d="
M153.745 388.8
L155.955 388.8
L155.955 344.366
L153.745 344.366
z
" style="stroke:#000000;"/>
   </g>
   <g id="patch_41">
    <path clip-path="url(#p7ff5b81e1d)" d="
M155.955 388.8
L158.164 388.8
L158.164 388.8
L155.955 388.8
z
" style="stroke:#000000;"/>
   </g>
   <g id="patch_42">
    <path clip-path="url(#p7ff5b81e1d)" d="
M158.164 388.8
L160.373 388.8
L160.373 354.24
L158.164 354.24
z
" style="stroke:#000000;"/>
   </g>
   <g id="patch_43">
    <path clip-path="url(#p7ff5b81e1d)" d="
M160.373 388.8
L162.583 388.8
L162.583 329.554
L160.373 329.554
z
" style="stroke:#000000;"/>
   </g>
   <g id="patch_44">
    <path clip-path="url(#p7ff5b81e1d)" d="
M162.583 388.8
L164.792 388.8
L164.792 299.931
L162.583 299.931
z
" style="stroke:#000000;"/>
   </g>
   <g id="patch_45">
    <path clip-path="url(#p7ff5b81e1d)" d="
M164.792 388.8
L167.001 388.8
L167.001 314.743
L164.792 314.743
z
" style="stroke:#000000;"/>
   </g>
   <g id="patch_46">
    <path clip-path="url(#p7ff5b81e1d)" d="
M167.001 388.8
L169.211 388.8
L169.211 334.491
L167.001 334.491
z
" style="stroke:#000000;"/>
   </g>
   <g id="patch_47">
    <path clip-path="url(#p7ff5b81e1d)" d="
M169.211 388.8
L171.42 388.8
L171.42 369.051
L169.211 369.051
z
" style="stroke:#000000;"/>
   </g>
   <g id="patch_48">
    <path clip-path="url(#p7ff5b81e1d)" d="
M171.42 388.8
L173.629 388.8
L173.629 299.931
L171.42 299.931
z
" style="stroke:#000000;"/>
   </g>
   <g id="patch_49">
    <path clip-path="url(#p7ff5b81e1d)" d="
M173.629 388.8
L175.839 388.8
L175.839 369.051
L173.629 369.051
z
" style="stroke:#000000;"/>
   </g>
   <g id="patch_50">
    <path clip-path="url(#p7ff5b81e1d)" d="
M175.839 388.8
L178.048 388.8
L178.048 334.491
L175.839 334.491
z
" style="stroke:#000000;"/>
   </g>
   <g id="patch_51">
    <path clip-path="url(#p7ff5b81e1d)" d="
M178.048 388.8
L180.257 388.8
L180.257 319.68
L178.048 319.68
z
" style="stroke:#000000;"/>
   </g>
   <g id="patch_52">
    <path clip-path="url(#p7ff5b81e1d)" d="
M180.257 388.8
L182.467 388.8
L182.467 299.931
L180.257 299.931
z
" style="stroke:#000000;"/>
   </g>
   <g id="patch_53">
    <path clip-path="url(#p7ff5b81e1d)" d="
M182.467 388.8
L184.676 388.8
L184.676 334.491
L182.467 334.491
z
" style="stroke:#000000;"/>
   </g>
   <g id="patch_54">
    <path clip-path="url(#p7ff5b81e1d)" d="
M184.676 388.8
L186.885 388.8
L186.885 324.617
L184.676 324.617
z
" style="stroke:#000000;"/>
   </g>
   <g id="patch_55">
    <path clip-path="url(#p7ff5b81e1d)" d="
M186.885 388.8
L189.095 388.8
L189.095 309.806
L186.885 309.806
z
" style="stroke:#000000;"/>
   </g>
   <g id="patch_56">
    <path clip-path="url(#p7ff5b81e1d)" d="
M189.095 388.8
L191.304 388.8
L191.304 294.994
L189.095 294.994
z
" style="stroke:#000000;"/>
   </g>
   <g id="patch_57">
    <path clip-path="url(#p7ff5b81e1d)" d="
M191.304 388.8
L193.513 388.8
L193.513 294.994
L191.304 294.994
z
" style="stroke:#000000;"/>
   </g>
   <g id="patch_58">
    <path clip-path="url(#p7ff5b81e1d)" d="
M193.513 388.8
L195.723 388.8
L195.723 334.491
L193.513 334.491
z
" style="stroke:#000000;"/>
   </g>
   <g id="patch_59">
    <path clip-path="url(#p7ff5b81e1d)" d="
M195.723 388.8
L197.932 388.8
L197.932 324.617
L195.723 324.617
z
" style="stroke:#000000;"/>
   </g>
   <g id="patch_60">
    <path clip-path="url(#p7ff5b81e1d)" d="
M197.932 388.8
L200.141 388.8
L200.141 299.931
L197.932 299.931
z
" style="stroke:#000000;"/>
   </g>
   <g id="patch_61">
    <path clip-path="url(#p7ff5b81e1d)" d="
M200.141 388.8
L202.351 388.8
L202.351 319.68
L200.141 319.68
z
" style="stroke:#000000;"/>
   </g>
   <g id="patch_62">
    <path clip-path="url(#p7ff5b81e1d)" d="
M202.351 388.8
L204.56 388.8
L204.56 151.817
L202.351 151.817
z
" style="stroke:#000000;"/>
   </g>
   <g id="patch_63">
    <path clip-path="url(#p7ff5b81e1d)" d="
M204.56 388.8
L206.769 388.8
L206.769 349.303
L204.56 349.303
z
" style="stroke:#000000;"/>
   </g>
   <g id="patch_64">
    <path clip-path="url(#p7ff5b81e1d)" d="
M206.769 388.8
L208.979 388.8
L208.979 354.24
L206.769 354.24
z
" style="stroke:#000000;"/>
   </g>
   <g id="patch_65">
    <path clip-path="url(#p7ff5b81e1d)" d="
M208.979 388.8
L211.188 388.8
L211.188 285.12
L208.979 285.12
z
" style="stroke:#000000;"/>
   </g>
   <g id="patch_66">
    <path clip-path="url(#p7ff5b81e1d)" d="
M211.188 388.8
L213.397 388.8
L213.397 275.246
L211.188 275.246
z
" style="stroke:#000000;"/>
   </g>
   <g id="patch_67">
    <path clip-path="url(#p7ff5b81e1d)" d="
M213.397 388.8
L215.607 388.8
L215.607 319.68
L213.397 319.68
z
" style="stroke:#000000;"/>
   </g>
   <g id="patch_68">
    <path clip-path="url(#p7ff5b81e1d)" d="
M215.607 388.8
L217.816 388.8
L217.816 329.554
L215.607 329.554
z
" style="stroke:#000000;"/>
   </g>
   <g id="patch_69">
    <path clip-path="url(#p7ff5b81e1d)" d="
M217.816 388.8
L220.025 388.8
L220.025 294.994
L217.816 294.994
z
" style="stroke:#000000;"/>
   </g>
   <g id="patch_70">
    <path clip-path="url(#p7ff5b81e1d)" d="
M220.025 388.8
L222.234 388.8
L222.234 344.366
L220.025 344.366
z
" style="stroke:#000000;"/>
   </g>
   <g id="patch_71">
    <path clip-path="url(#p7ff5b81e1d)" d="
M222.234 388.8
L224.444 388.8
L224.444 349.303
L222.234 349.303
z
" style="stroke:#000000;"/>
   </g>
   <g id="patch_72">
    <path clip-path="url(#p7ff5b81e1d)" d="
M224.444 388.8
L226.653 388.8
L226.653 290.057
L224.444 290.057
z
" style="stroke:#000000;"/>
   </g>
   <g id="patch_73">
    <path clip-path="url(#p7ff5b81e1d)" d="
M226.653 388.8
L228.862 388.8
L228.862 299.931
L226.653 299.931
z
" style="stroke:#000000;"/>
   </g>
   <g id="patch_74">
    <path clip-path="url(#p7ff5b81e1d)" d="
M228.862 388.8
L231.072 388.8
L231.072 334.491
L228.862 334.491
z
" style="stroke:#000000;"/>
   </g>
   <g id="patch_75">
    <path clip-path="url(#p7ff5b81e1d)" d="
M231.072 388.8
L233.281 388.8
L233.281 329.554
L231.072 329.554
z
" style="stroke:#000000;"/>
   </g>
   <g id="patch_76">
    <path clip-path="url(#p7ff5b81e1d)" d="
M233.281 388.8
L235.49 388.8
L235.49 329.554
L233.281 329.554
z
" style="stroke:#000000;"/>
   </g>
   <g id="patch_77">
    <path clip-path="url(#p7ff5b81e1d)" d="
M235.49 388.8
L237.7 388.8
L237.7 324.617
L235.49 324.617
z
" style="stroke:#000000;"/>
   </g>
   <g id="patch_78">
    <path clip-path="url(#p7ff5b81e1d)" d="
M237.7 388.8
L239.909 388.8
L239.909 309.806
L237.7 309.806
z
" style="stroke:#000000;"/>
   </g>
   <g id="patch_79">
    <path clip-path="url(#p7ff5b81e1d)" d="
M239.909 388.8
L242.118 388.8
L242.118 319.68
L239.909 319.68
z
" style="stroke:#000000;"/>
   </g>
   <g id="patch_80">
    <path clip-path="url(#p7ff5b81e1d)" d="
M242.118 388.8
L244.328 388.8
L244.328 324.617
L242.118 324.617
z
" style="stroke:#000000;"/>
   </g>
   <g id="patch_81">
    <path clip-path="url(#p7ff5b81e1d)" d="
M244.328 388.8
L246.537 388.8
L246.537 349.303
L244.328 349.303
z
" style="stroke:#000000;"/>
   </g>
   <g id="patch_82">
    <path clip-path="url(#p7ff5b81e1d)" d="
M246.537 388.8
L248.746 388.8
L248.746 329.554
L246.537 329.554
z
" style="stroke:#000000;"/>
   </g>
   <g id="patch_83">
    <path clip-path="url(#p7ff5b81e1d)" d="
M248.746 388.8
L250.956 388.8
L250.956 364.114
L248.746 364.114
z
" style="stroke:#000000;"/>
   </g>
   <g id="patch_84">
    <path clip-path="url(#p7ff5b81e1d)" d="
M250.956 388.8
L253.165 388.8
L253.165 329.554
L250.956 329.554
z
" style="stroke:#000000;"/>
   </g>
   <g id="patch_85">
    <path clip-path="url(#p7ff5b81e1d)" d="
M253.165 388.8
L255.374 388.8
L255.374 324.617
L253.165 324.617
z
" style="stroke:#000000;"/>
   </g>
   <g id="patch_86">
    <path clip-path="url(#p7ff5b81e1d)" d="
M255.374 388.8
L257.584 388.8
L257.584 364.114
L255.374 364.114
z
" style="stroke:#000000;"/>
   </g>
   <g id="patch_87">
    <path clip-path="url(#p7ff5b81e1d)" d="
M257.584 388.8
L259.793 388.8
L259.793 344.366
L257.584 344.366
z
" style="stroke:#000000;"/>
   </g>
   <g id="patch_88">
    <path clip-path="url(#p7ff5b81e1d)" d="
M259.793 388.8
L262.002 388.8
L262.002 364.114
L259.793 364.114
z
" style="stroke:#000000;"/>
   </g>
   <g id="patch_89">
    <path clip-path="url(#p7ff5b81e1d)" d="
M262.002 388.8
L264.212 388.8
L264.212 319.68
L262.002 319.68
z
" style="stroke:#000000;"/>
   </g>
   <g id="patch_90">
    <path clip-path="url(#p7ff5b81e1d)" d="
M264.212 388.8
L266.421 388.8
L266.421 339.429
L264.212 339.429
z
" style="stroke:#000000;"/>
   </g>
   <g id="patch_91">
    <path clip-path="url(#p7ff5b81e1d)" d="
M266.421 388.8
L268.63 388.8
L268.63 294.994
L266.421 294.994
z
" style="stroke:#000000;"/>
   </g>
   <g id="patch_92">
    <path clip-path="url(#p7ff5b81e1d)" d="
M268.63 388.8
L270.84 388.8
L270.84 314.743
L268.63 314.743
z
" style="stroke:#000000;"/>
   </g>
   <g id="patch_93">
    <path clip-path="url(#p7ff5b81e1d)" d="
M270.84 388.8
L273.049 388.8
L273.049 240.686
L270.84 240.686
z
" style="stroke:#000000;"/>
   </g>
   <g id="patch_94">
    <path clip-path="url(#p7ff5b81e1d)" d="
M273.049 388.8
L275.258 388.8
L275.258 285.12
L273.049 285.12
z
" style="stroke:#000000;"/>
   </g>
   <g id="patch_95">
    <path clip-path="url(#p7ff5b81e1d)" d="
M275.258 388.8
L277.468 388.8
L277.468 260.434
L275.258 260.434
z
" style="stroke:#000000;"/>
   </g>
   <g id="patch_96">
    <path clip-path="url(#p7ff5b81e1d)" d="
M277.468 388.8
L279.677 388.8
L279.677 265.371
L277.468 265.371
z
" style="stroke:#000000;"/>
   </g>
   <g id="patch_97">
    <path clip-path="url(#p7ff5b81e1d)" d="
M279.677 388.8
L281.886 388.8
L281.886 290.057
L279.677 290.057
z
" style="stroke:#000000;"/>
   </g>
   <g id="patch_98">
    <path clip-path="url(#p7ff5b81e1d)" d="
M281.886 388.8
L284.096 388.8
L284.096 201.189
L281.886 201.189
z
" style="stroke:#000000;"/>
   </g>
   <g id="patch_99">
    <path clip-path="url(#p7ff5b81e1d)" d="
M284.096 388.8
L286.305 388.8
L286.305 191.314
L284.096 191.314
z
" style="stroke:#000000;"/>
   </g>
   <g id="patch_100">
    <path clip-path="url(#p7ff5b81e1d)" d="
M286.305 388.8
L288.514 388.8
L288.514 216
L286.305 216
z
" style="stroke:#000000;"/>
   </g>
   <g id="patch_101">
    <path clip-path="url(#p7ff5b81e1d)" d="
M288.514 388.8
L290.724 388.8
L290.724 211.063
L288.514 211.063
z
" style="stroke:#000000;"/>
   </g>
   <g id="patch_102">
    <path clip-path="url(#p7ff5b81e1d)" d="
M290.724 388.8
L292.933 388.8
L292.933 265.371
L290.724 265.371
z
" style="stroke:#000000;"/>
   </g>
   <g id="patch_103">
    <path clip-path="url(#p7ff5b81e1d)" d="
M292.933 388.8
L295.142 388.8
L295.142 230.811
L292.933 230.811
z
" style="stroke:#000000;"/>
   </g>
   <g id="patch_104">
    <path clip-path="url(#p7ff5b81e1d)" d="
M295.142 388.8
L297.352 388.8
L297.352 216
L295.142 216
z
" style="stroke:#000000;"/>
   </g>
   <g id="patch_105">
    <path clip-path="url(#p7ff5b81e1d)" d="
M297.352 388.8
L299.561 388.8
L299.561 151.817
L297.352 151.817
z
" style="stroke:#000000;"/>
   </g>
   <g id="patch_106">
    <path clip-path="url(#p7ff5b81e1d)" d="
M299.561 388.8
L301.77 388.8
L301.77 181.44
L299.561 181.44
z
" style="stroke:#000000;"/>
   </g>
   <g id="patch_107">
    <path clip-path="url(#p7ff5b81e1d)" d="
M301.77 388.8
L303.98 388.8
L303.98 191.314
L301.77 191.314
z
" style="stroke:#000000;"/>
   </g>
   <g id="patch_108">
    <path clip-path="url(#p7ff5b81e1d)" d="
M303.98 388.8
L306.189 388.8
L306.189 191.314
L303.98 191.314
z
" style="stroke:#000000;"/>
   </g>
   <g id="patch_109">
    <path clip-path="url(#p7ff5b81e1d)" d="
M306.189 388.8
L308.398 388.8
L308.398 216
L306.189 216
z
" style="stroke:#000000;"/>
   </g>
   <g id="patch_110">
    <path clip-path="url(#p7ff5b81e1d)" d="
M308.398 388.8
L310.608 388.8
L310.608 146.88
L308.398 146.88
z
" style="stroke:#000000;"/>
   </g>
   <g id="patch_111">
    <path clip-path="url(#p7ff5b81e1d)" d="
M310.608 388.8
L312.817 388.8
L312.817 82.6971
L310.608 82.6971
z
" style="stroke:#000000;"/>
   </g>
   <g id="patch_112">
    <path clip-path="url(#p7ff5b81e1d)" d="
M312.817 388.8
L315.026 388.8
L315.026 176.503
L312.817 176.503
z
" style="stroke:#000000;"/>
   </g>
   <g id="patch_113">
    <path clip-path="url(#p7ff5b81e1d)" d="
M315.026 388.8
L317.236 388.8
L317.236 230.811
L315.026 230.811
z
" style="stroke:#000000;"/>
   </g>
   <g id="patch_114">
    <path clip-path="url(#p7ff5b81e1d)" d="
M317.236 388.8
L319.445 388.8
L319.445 166.629
L317.236 166.629
z
" style="stroke:#000000;"/>
   </g>
   <g id="patch_115">
    <path clip-path="url(#p7ff5b81e1d)" d="
M319.445 388.8
L321.654 388.8
L321.654 260.434
L319.445 260.434
z
" style="stroke:#000000;"/>
   </g>
   <g id="patch_116">
    <path clip-path="url(#p7ff5b81e1d)" d="
M321.654 388.8
L323.864 388.8
L323.864 206.126
L321.654 206.126
z
" style="stroke:#000000;"/>
   </g>
   <g id="patch_117">
    <path clip-path="url(#p7ff5b81e1d)" d="
M323.864 388.8
L326.073 388.8
L326.073 304.869
L323.864 304.869
z
" style="stroke:#000000;"/>
   </g>
   <g id="patch_118">
    <path clip-path="url(#p7ff5b81e1d)" d="
M326.073 388.8
L328.282 388.8
L328.282 344.366
L326.073 344.366
z
" style="stroke:#000000;"/>
   </g>
   <g id="patch_119">
    <path clip-path="url(#p7ff5b81e1d)" d="
M328.282 388.8
L330.492 388.8
L330.492 294.994
L328.282 294.994
z
" style="stroke:#000000;"/>
   </g>
   <g id="patch_120">
    <path clip-path="url(#p7ff5b81e1d)" d="
M330.492 388.8
L332.701 388.8
L332.701 151.817
L330.492 151.817
z
" style="stroke:#000000;"/>
   </g>
   <g id="patch_121">
    <path clip-path="url(#p7ff5b81e1d)" d="
M332.701 388.8
L334.91 388.8
L334.91 270.309
L332.701 270.309
z
" style="stroke:#000000;"/>
   </g>
   <g id="patch_122">
    <path clip-path="url(#p7ff5b81e1d)" d="
M334.91 388.8
L337.12 388.8
L337.12 334.491
L334.91 334.491
z
" style="stroke:#000000;"/>
   </g>
   <g id="patch_123">
    <path clip-path="url(#p7ff5b81e1d)" d="
M337.12 388.8
L339.329 388.8
L339.329 245.623
L337.12 245.623
z
" style="stroke:#000000;"/>
   </g>
   <g id="patch_124">
    <path clip-path="url(#p7ff5b81e1d)" d="
M339.329 388.8
L341.538 388.8
L341.538 319.68
L339.329 319.68
z
" style="stroke:#000000;"/>
   </g>
   <g id="patch_125">
    <path clip-path="url(#p7ff5b81e1d)" d="
M341.538 388.8
L343.748 388.8
L343.748 349.303
L341.538 349.303
z
" style="stroke:#000000;"/>
   </g>
   <g id="patch_126">
    <path clip-path="url(#p7ff5b81e1d)" d="
M343.748 388.8
L345.957 388.8
L345.957 250.56
L343.748 250.56
z
" style="stroke:#000000;"/>
   </g>
   <g id="patch_127">
    <path clip-path="url(#p7ff5b81e1d)" d="
M345.957 388.8
L348.166 388.8
L348.166 319.68
L345.957 319.68
z
" style="stroke:#000000;"/>
   </g>
   <g id="patch_128">
    <path clip-path="url(#p7ff5b81e1d)" d="
M348.166 388.8
L350.376 388.8
L350.376 354.24
L348.166 354.24
z
" style="stroke:#000000;"/>
   </g>
   <g id="patch_129">
    <path clip-path="url(#p7ff5b81e1d)" d="
M350.376 388.8
L352.585 388.8
L352.585 349.303
L350.376 349.303
z
" style="stroke:#000000;"/>
   </g>
   <g id="patch_130">
    <path clip-path="url(#p7ff5b81e1d)" d="
M352.585 388.8
L354.794 388.8
L354.794 319.68
L352.585 319.68
z
" style="stroke:#000000;"/>
   </g>
   <g id="patch_131">
    <path clip-path="url(#p7ff5b81e1d)" d="
M354.794 388.8
L357.004 388.8
L357.004 294.994
L354.794 294.994
z
" style="stroke:#000000;"/>
   </g>
   <g id="patch_132">
    <path clip-path="url(#p7ff5b81e1d)" d="
M357.004 388.8
L359.213 388.8
L359.213 364.114
L357.004 364.114
z
" style="stroke:#000000;"/>
   </g>
   <g id="patch_133">
    <path clip-path="url(#p7ff5b81e1d)" d="
M359.213 388.8
L361.422 388.8
L361.422 314.743
L359.213 314.743
z
" style="stroke:#000000;"/>
   </g>
   <g id="patch_134">
    <path clip-path="url(#p7ff5b81e1d)" d="
M361.422 388.8
L363.632 388.8
L363.632 309.806
L361.422 309.806
z
" style="stroke:#000000;"/>
   </g>
   <g id="patch_135">
    <path clip-path="url(#p7ff5b81e1d)" d="
M363.632 388.8
L365.841 388.8
L365.841 240.686
L363.632 240.686
z
" style="stroke:#000000;"/>
   </g>
   <g id="patch_136">
    <path clip-path="url(#p7ff5b81e1d)" d="
M365.841 388.8
L368.05 388.8
L368.05 339.429
L365.841 339.429
z
" style="stroke:#000000;"/>
   </g>
   <g id="patch_137">
    <path clip-path="url(#p7ff5b81e1d)" d="
M368.05 388.8
L370.26 388.8
L370.26 206.126
L368.05 206.126
z
" style="stroke:#000000;"/>
   </g>
   <g id="patch_138">
    <path clip-path="url(#p7ff5b81e1d)" d="
M370.26 388.8
L372.469 388.8
L372.469 245.623
L370.26 245.623
z
" style="stroke:#000000;"/>
   </g>
   <g id="patch_139">
    <path clip-path="url(#p7ff5b81e1d)" d="
M372.469 388.8
L374.678 388.8
L374.678 299.931
L372.469 299.931
z
" style="stroke:#000000;"/>
   </g>
   <g id="patch_140">
    <path clip-path="url(#p7ff5b81e1d)" d="
M374.678 388.8
L376.888 388.8
L376.888 324.617
L374.678 324.617
z
" style="stroke:#000000;"/>
   </g>
   <g id="patch_141">
    <path clip-path="url(#p7ff5b81e1d)" d="
M376.888 388.8
L379.097 388.8
L379.097 294.994
L376.888 294.994
z
" style="stroke:#000000;"/>
   </g>
   <g id="patch_142">
    <path clip-path="url(#p7ff5b81e1d)" d="
M379.097 388.8
L381.306 388.8
L381.306 309.806
L379.097 309.806
z
" style="stroke:#000000;"/>
   </g>
   <g id="patch_143">
    <path clip-path="url(#p7ff5b81e1d)" d="
M381.306 388.8
L383.516 388.8
L383.516 314.743
L381.306 314.743
z
" style="stroke:#000000;"/>
   </g>
   <g id="patch_144">
    <path clip-path="url(#p7ff5b81e1d)" d="
M383.516 388.8
L385.725 388.8
L385.725 369.051
L383.516 369.051
z
" style="stroke:#000000;"/>
   </g>
   <g id="patch_145">
    <path clip-path="url(#p7ff5b81e1d)" d="
M385.725 388.8
L387.934 388.8
L387.934 344.366
L385.725 344.366
z
" style="stroke:#000000;"/>
   </g>
   <g id="patch_146">
    <path clip-path="url(#p7ff5b81e1d)" d="
M387.934 388.8
L390.144 388.8
L390.144 369.051
L387.934 369.051
z
" style="stroke:#000000;"/>
   </g>
   <g id="patch_147">
    <path clip-path="url(#p7ff5b81e1d)" d="
M390.144 388.8
L392.353 388.8
L392.353 383.863
L390.144 383.863
z
" style="stroke:#000000;"/>
   </g>
   <g id="patch_148">
    <path clip-path="url(#p7ff5b81e1d)" d="
M392.353 388.8
L394.562 388.8
L394.562 373.989
L392.353 373.989
z
" style="stroke:#000000;"/>
   </g>
   <g id="patch_149">
    <path clip-path="url(#p7ff5b81e1d)" d="
M394.562 388.8
L396.772 388.8
L396.772 359.177
L394.562 359.177
z
" style="stroke:#000000;"/>
   </g>
   <g id="patch_150">
    <path clip-path="url(#p7ff5b81e1d)" d="
M396.772 388.8
L398.981 388.8
L398.981 373.989
L396.772 373.989
z
" style="stroke:#000000;"/>
   </g>
   <g id="patch_151">
    <path clip-path="url(#p7ff5b81e1d)" d="
M398.981 388.8
L401.19 388.8
L401.19 383.863
L398.981 383.863
z
" style="stroke:#000000;"/>
   </g>
   <g id="patch_152">
    <path clip-path="url(#p7ff5b81e1d)" d="
M401.19 388.8
L403.4 388.8
L403.4 359.177
L401.19 359.177
z
" style="stroke:#000000;"/>
   </g>
   <g id="patch_153">
    <path clip-path="url(#p7ff5b81e1d)" d="
M403.4 388.8
L405.609 388.8
L405.609 344.366
L403.4 344.366
z
" style="stroke:#000000;"/>
   </g>
   <g id="patch_154">
    <path clip-path="url(#p7ff5b81e1d)" d="
M405.609 388.8
L407.818 388.8
L407.818 329.554
L405.609 329.554
z
" style="stroke:#000000;"/>
   </g>
   <g id="patch_155">
    <path clip-path="url(#p7ff5b81e1d)" d="
M407.818 388.8
L410.028 388.8
L410.028 334.491
L407.818 334.491
z
" style="stroke:#000000;"/>
   </g>
   <g id="patch_156">
    <path clip-path="url(#p7ff5b81e1d)" d="
M410.028 388.8
L412.237 388.8
L412.237 319.68
L410.028 319.68
z
" style="stroke:#000000;"/>
   </g>
   <g id="patch_157">
    <path clip-path="url(#p7ff5b81e1d)" d="
M412.237 388.8
L414.446 388.8
L414.446 319.68
L412.237 319.68
z
" style="stroke:#000000;"/>
   </g>
   <g id="patch_158">
    <path clip-path="url(#p7ff5b81e1d)" d="
M414.446 388.8
L416.656 388.8
L416.656 245.623
L414.446 245.623
z
" style="stroke:#000000;"/>
   </g>
   <g id="patch_159">
    <path clip-path="url(#p7ff5b81e1d)" d="
M416.656 388.8
L418.865 388.8
L418.865 309.806
L416.656 309.806
z
" style="stroke:#000000;"/>
   </g>
   <g id="patch_160">
    <path clip-path="url(#p7ff5b81e1d)" d="
M418.865 388.8
L421.074 388.8
L421.074 265.371
L418.865 265.371
z
" style="stroke:#000000;"/>
   </g>
   <g id="patch_161">
    <path clip-path="url(#p7ff5b81e1d)" d="
M421.074 388.8
L423.284 388.8
L423.284 275.246
L421.074 275.246
z
" style="stroke:#000000;"/>
   </g>
   <g id="patch_162">
    <path clip-path="url(#p7ff5b81e1d)" d="
M423.284 388.8
L425.493 388.8
L425.493 201.189
L423.284 201.189
z
" style="stroke:#000000;"/>
   </g>
   <g id="patch_163">
    <path clip-path="url(#p7ff5b81e1d)" d="
M425.493 388.8
L427.702 388.8
L427.702 290.057
L425.493 290.057
z
" style="stroke:#000000;"/>
   </g>
   <g id="patch_164">
    <path clip-path="url(#p7ff5b81e1d)" d="
M427.702 388.8
L429.912 388.8
L429.912 260.434
L427.702 260.434
z
" style="stroke:#000000;"/>
   </g>
   <g id="patch_165">
    <path clip-path="url(#p7ff5b81e1d)" d="
M429.912 388.8
L432.121 388.8
L432.121 285.12
L429.912 285.12
z
" style="stroke:#000000;"/>
   </g>
   <g id="patch_166">
    <path clip-path="url(#p7ff5b81e1d)" d="
M432.121 388.8
L434.33 388.8
L434.33 290.057
L432.121 290.057
z
" style="stroke:#000000;"/>
   </g>
   <g id="patch_167">
    <path clip-path="url(#p7ff5b81e1d)" d="
M434.33 388.8
L436.54 388.8
L436.54 245.623
L434.33 245.623
z
" style="stroke:#000000;"/>
   </g>
   <g id="patch_168">
    <path clip-path="url(#p7ff5b81e1d)" d="
M436.54 388.8
L438.749 388.8
L438.749 285.12
L436.54 285.12
z
" style="stroke:#000000;"/>
   </g>
   <g id="patch_169">
    <path clip-path="url(#p7ff5b81e1d)" d="
M438.749 388.8
L440.958 388.8
L440.958 299.931
L438.749 299.931
z
" style="stroke:#000000;"/>
   </g>
   <g id="patch_170">
    <path clip-path="url(#p7ff5b81e1d)" d="
M440.958 388.8
L443.168 388.8
L443.168 299.931
L440.958 299.931
z
" style="stroke:#000000;"/>
   </g>
   <g id="patch_171">
    <path clip-path="url(#p7ff5b81e1d)" d="
M443.168 388.8
L445.377 388.8
L445.377 275.246
L443.168 275.246
z
" style="stroke:#000000;"/>
   </g>
   <g id="patch_172">
    <path clip-path="url(#p7ff5b81e1d)" d="
M445.377 388.8
L447.586 388.8
L447.586 270.309
L445.377 270.309
z
" style="stroke:#000000;"/>
   </g>
   <g id="patch_173">
    <path clip-path="url(#p7ff5b81e1d)" d="
M447.586 388.8
L449.796 388.8
L449.796 359.177
L447.586 359.177
z
" style="stroke:#000000;"/>
   </g>
   <g id="patch_174">
    <path clip-path="url(#p7ff5b81e1d)" d="
M449.796 388.8
L452.005 388.8
L452.005 314.743
L449.796 314.743
z
" style="stroke:#000000;"/>
   </g>
   <g id="patch_175">
    <path clip-path="url(#p7ff5b81e1d)" d="
M452.005 388.8
L454.214 388.8
L454.214 304.869
L452.005 304.869
z
" style="stroke:#000000;"/>
   </g>
   <g id="patch_176">
    <path clip-path="url(#p7ff5b81e1d)" d="
M454.214 388.8
L456.424 388.8
L456.424 344.366
L454.214 344.366
z
" style="stroke:#000000;"/>
   </g>
   <g id="patch_177">
    <path clip-path="url(#p7ff5b81e1d)" d="
M456.424 388.8
L458.633 388.8
L458.633 275.246
L456.424 275.246
z
" style="stroke:#000000;"/>
   </g>
   <g id="patch_178">
    <path clip-path="url(#p7ff5b81e1d)" d="
M458.633 388.8
L460.842 388.8
L460.842 240.686
L458.633 240.686
z
" style="stroke:#000000;"/>
   </g>
   <g id="patch_179">
    <path clip-path="url(#p7ff5b81e1d)" d="
M460.842 388.8
L463.052 388.8
L463.052 339.429
L460.842 339.429
z
" style="stroke:#000000;"/>
   </g>
   <g id="patch_180">
    <path clip-path="url(#p7ff5b81e1d)" d="
M463.052 388.8
L465.261 388.8
L465.261 334.491
L463.052 334.491
z
" style="stroke:#000000;"/>
   </g>
   <g id="patch_181">
    <path clip-path="url(#p7ff5b81e1d)" d="
M465.261 388.8
L467.47 388.8
L467.47 339.429
L465.261 339.429
z
" style="stroke:#000000;"/>
   </g>
   <g id="patch_182">
    <path clip-path="url(#p7ff5b81e1d)" d="
M467.47 388.8
L469.68 388.8
L469.68 383.863
L467.47 383.863
z
" style="stroke:#000000;"/>
   </g>
   <g id="patch_183">
    <path clip-path="url(#p7ff5b81e1d)" d="
M469.68 388.8
L471.889 388.8
L471.889 378.926
L469.68 378.926
z
" style="stroke:#000000;"/>
   </g>
   <g id="patch_184">
    <path clip-path="url(#p7ff5b81e1d)" d="
M471.889 388.8
L474.098 388.8
L474.098 378.926
L471.889 378.926
z
" style="stroke:#000000;"/>
   </g>
   <g id="patch_185">
    <path clip-path="url(#p7ff5b81e1d)" d="
M474.098 388.8
L476.308 388.8
L476.308 373.989
L474.098 373.989
z
" style="stroke:#000000;"/>
   </g>
   <g id="patch_186">
    <path clip-path="url(#p7ff5b81e1d)" d="
M476.308 388.8
L478.517 388.8
L478.517 299.931
L476.308 299.931
z
" style="stroke:#000000;"/>
   </g>
   <g id="patch_187">
    <path clip-path="url(#p7ff5b81e1d)" d="
M478.517 388.8
L480.726 388.8
L480.726 255.497
L478.517 255.497
z
" style="stroke:#000000;"/>
   </g>
   <g id="patch_188">
    <path clip-path="url(#p7ff5b81e1d)" d="
M480.726 388.8
L482.936 388.8
L482.936 220.937
L480.726 220.937
z
" style="stroke:#000000;"/>
   </g>
   <g id="patch_189">
    <path clip-path="url(#p7ff5b81e1d)" d="
M482.936 388.8
L485.145 388.8
L485.145 285.12
L482.936 285.12
z
" style="stroke:#000000;"/>
   </g>
   <g id="patch_190">
    <path clip-path="url(#p7ff5b81e1d)" d="
M485.145 388.8
L487.354 388.8
L487.354 255.497
L485.145 255.497
z
" style="stroke:#000000;"/>
   </g>
   <g id="patch_191">
    <path clip-path="url(#p7ff5b81e1d)" d="
M487.354 388.8
L489.564 388.8
L489.564 339.429
L487.354 339.429
z
" style="stroke:#000000;"/>
   </g>
   <g id="patch_192">
    <path clip-path="url(#p7ff5b81e1d)" d="
M489.564 388.8
L491.773 388.8
L491.773 260.434
L489.564 260.434
z
" style="stroke:#000000;"/>
   </g>
   <g id="patch_193">
    <path clip-path="url(#p7ff5b81e1d)" d="
M491.773 388.8
L493.982 388.8
L493.982 275.246
L491.773 275.246
z
" style="stroke:#000000;"/>
   </g>
   <g id="patch_194">
    <path clip-path="url(#p7ff5b81e1d)" d="
M493.982 388.8
L496.192 388.8
L496.192 260.434
L493.982 260.434
z
" style="stroke:#000000;"/>
   </g>
   <g id="patch_195">
    <path clip-path="url(#p7ff5b81e1d)" d="
M496.192 388.8
L498.401 388.8
L498.401 349.303
L496.192 349.303
z
" style="stroke:#000000;"/>
   </g>
   <g id="patch_196">
    <path clip-path="url(#p7ff5b81e1d)" d="
M498.401 388.8
L500.61 388.8
L500.61 359.177
L498.401 359.177
z
" style="stroke:#000000;"/>
   </g>
   <g id="patch_197">
    <path clip-path="url(#p7ff5b81e1d)" d="
M500.61 388.8
L502.82 388.8
L502.82 354.24
L500.61 354.24
z
" style="stroke:#000000;"/>
   </g>
   <g id="patch_198">
    <path clip-path="url(#p7ff5b81e1d)" d="
M502.82 388.8
L505.029 388.8
L505.029 334.491
L502.82 334.491
z
" style="stroke:#000000;"/>
   </g>
   <g id="patch_199">
    <path clip-path="url(#p7ff5b81e1d)" d="
M505.029 388.8
L507.238 388.8
L507.238 354.24
L505.029 354.24
z
" style="stroke:#000000;"/>
   </g>
   <g id="patch_200">
    <path clip-path="url(#p7ff5b81e1d)" d="
M507.238 388.8
L509.448 388.8
L509.448 388.8
L507.238 388.8
z
" style="stroke:#000000;"/>
   </g>
   <g id="patch_201">
    <path clip-path="url(#p7ff5b81e1d)" d="
M509.448 388.8
L511.657 388.8
L511.657 383.863
L509.448 383.863
z
" style="stroke:#000000;"/>
   </g>
   <g id="patch_202">
    <path clip-path="url(#p7ff5b81e1d)" d="
M511.657 388.8
L513.866 388.8
L513.866 383.863
L511.657 383.863
z
" style="stroke:#000000;"/>
   </g>
   <g id="matplotlib.axis_1">
    <g id="xtick_1">
     <g id="line2d_1">
      <path clip-path="url(#p7ff5b81e1d)" d="
M72 388.8
L72 43.2" style="fill:none;stroke:#000000;stroke-dasharray:1.000000,3.000000;stroke-dashoffset:0.0;stroke-width:0.5;"/>
     </g>
     <g id="line2d_2">
      <defs>
       <path d="
M0 0
L0 -4" id="m93b0483c22" style="stroke:#000000;stroke-width:0.5;"/>
      </defs>
      <g>
       <use style="stroke:#000000;stroke-width:0.5;" x="72.0" xlink:href="#m93b0483c22" y="388.8"/>
      </g>
     </g>
     <g id="line2d_3">
      <defs>
       <path d="
M0 0
L0 4" id="m741efc42ff" style="stroke:#000000;stroke-width:0.5;"/>
      </defs>
      <g>
       <use style="stroke:#000000;stroke-width:0.5;" x="72.0" xlink:href="#m741efc42ff" y="43.2"/>
      </g>
     </g>
     <g id="text_1">
      <!-- 0.0 -->
      <defs>
       <path d="
M4.15625 35.2969
Q4.15625 48 6.76562 55.7344
Q9.375 63.4844 14.5156 67.6719
Q19.6719 71.875 27.4844 71.875
Q33.25 71.875 37.5938 69.5469
Q41.9375 67.2344 44.7656 62.8594
Q47.6094 58.5 49.2188 52.2188
Q50.8281 45.9531 50.8281 35.2969
Q50.8281 22.7031 48.2344 14.9688
Q45.6562 7.23438 40.5 3
Q35.3594 -1.21875 27.4844 -1.21875
Q17.1406 -1.21875 11.2344 6.20312
Q4.15625 15.1406 4.15625 35.2969
M13.1875 35.2969
Q13.1875 17.6719 17.3125 11.8281
Q21.4375 6 27.4844 6
Q33.5469 6 37.6719 11.8594
Q41.7969 17.7188 41.7969 35.2969
Q41.7969 52.9844 37.6719 58.7812
Q33.5469 64.5938 27.3906 64.5938
Q21.3438 64.5938 17.7188 59.4688
Q13.1875 52.9375 13.1875 35.2969" id="ArialMT-30"/>
       <path d="
M9.07812 0
L9.07812 10.0156
L19.0938 10.0156
L19.0938 0
z
" id="ArialMT-2e"/>
      </defs>
      <g transform="translate(64.19625 401.389375)scale(0.12 -0.12)">
       <use xlink:href="#ArialMT-30"/>
       <use x="55.615234375" xlink:href="#ArialMT-2e"/>
       <use x="83.3984375" xlink:href="#ArialMT-30"/>
      </g>
     </g>
    </g>
    <g id="xtick_2">
     <g id="line2d_4">
      <path clip-path="url(#p7ff5b81e1d)" d="
M161.28 388.8
L161.28 43.2" style="fill:none;stroke:#000000;stroke-dasharray:1.000000,3.000000;stroke-dashoffset:0.0;stroke-width:0.5;"/>
     </g>
     <g id="line2d_5">
      <g>
       <use style="stroke:#000000;stroke-width:0.5;" x="161.28" xlink:href="#m93b0483c22" y="388.8"/>
      </g>
     </g>
     <g id="line2d_6">
      <g>
       <use style="stroke:#000000;stroke-width:0.5;" x="161.28" xlink:href="#m741efc42ff" y="43.2"/>
      </g>
     </g>
     <g id="text_2">
      <!-- 0.2 -->
      <defs>
       <path d="
M50.3438 8.45312
L50.3438 0
L3.03125 0
Q2.9375 3.17188 4.04688 6.10938
Q5.85938 10.9375 9.82812 15.625
Q13.8125 20.3125 21.3438 26.4688
Q33.0156 36.0312 37.1094 41.625
Q41.2188 47.2188 41.2188 52.2031
Q41.2188 57.4219 37.4688 61
Q33.7344 64.5938 27.7344 64.5938
Q21.3906 64.5938 17.5781 60.7812
Q13.7656 56.9844 13.7188 50.25
L4.6875 51.1719
Q5.60938 61.2812 11.6562 66.5781
Q17.7188 71.875 27.9375 71.875
Q38.2344 71.875 44.2344 66.1562
Q50.25 60.4531 50.25 52
Q50.25 47.7031 48.4844 43.5469
Q46.7344 39.4062 42.6562 34.8125
Q38.5781 30.2188 29.1094 22.2188
Q21.1875 15.5781 18.9375 13.2031
Q16.7031 10.8438 15.2344 8.45312
z
" id="ArialMT-32"/>
      </defs>
      <g transform="translate(153.5053125 401.389375)scale(0.12 -0.12)">
       <use xlink:href="#ArialMT-30"/>
       <use x="55.615234375" xlink:href="#ArialMT-2e"/>
       <use x="83.3984375" xlink:href="#ArialMT-32"/>
      </g>
     </g>
    </g>
    <g id="xtick_3">
     <g id="line2d_7">
      <path clip-path="url(#p7ff5b81e1d)" d="
M250.56 388.8
L250.56 43.2" style="fill:none;stroke:#000000;stroke-dasharray:1.000000,3.000000;stroke-dashoffset:0.0;stroke-width:0.5;"/>
     </g>
     <g id="line2d_8">
      <g>
       <use style="stroke:#000000;stroke-width:0.5;" x="250.56" xlink:href="#m93b0483c22" y="388.8"/>
      </g>
     </g>
     <g id="line2d_9">
      <g>
       <use style="stroke:#000000;stroke-width:0.5;" x="250.56" xlink:href="#m741efc42ff" y="43.2"/>
      </g>
     </g>
     <g id="text_3">
      <!-- 0.4 -->
      <defs>
       <path d="
M32.3281 0
L32.3281 17.1406
L1.26562 17.1406
L1.26562 25.2031
L33.9375 71.5781
L41.1094 71.5781
L41.1094 25.2031
L50.7812 25.2031
L50.7812 17.1406
L41.1094 17.1406
L41.1094 0
z

M32.3281 25.2031
L32.3281 57.4688
L9.90625 25.2031
z
" id="ArialMT-34"/>
      </defs>
      <g transform="translate(242.7590625 401.389375)scale(0.12 -0.12)">
       <use xlink:href="#ArialMT-30"/>
       <use x="55.615234375" xlink:href="#ArialMT-2e"/>
       <use x="83.3984375" xlink:href="#ArialMT-34"/>
      </g>
     </g>
    </g>
    <g id="xtick_4">
     <g id="line2d_10">
      <path clip-path="url(#p7ff5b81e1d)" d="
M339.84 388.8
L339.84 43.2" style="fill:none;stroke:#000000;stroke-dasharray:1.000000,3.000000;stroke-dashoffset:0.0;stroke-width:0.5;"/>
     </g>
     <g id="line2d_11">
      <g>
       <use style="stroke:#000000;stroke-width:0.5;" x="339.84" xlink:href="#m93b0483c22" y="388.8"/>
      </g>
     </g>
     <g id="line2d_12">
      <g>
       <use style="stroke:#000000;stroke-width:0.5;" x="339.84" xlink:href="#m741efc42ff" y="43.2"/>
      </g>
     </g>
     <g id="text_4">
      <!-- 0.6 -->
      <defs>
       <path d="
M49.75 54.0469
L41.0156 53.375
Q39.8438 58.5469 37.7031 60.8906
Q34.125 64.6562 28.9062 64.6562
Q24.7031 64.6562 21.5312 62.3125
Q17.3906 59.2812 14.9844 53.4688
Q12.5938 47.6562 12.5 36.9219
Q15.6719 41.75 20.2656 44.0938
Q24.8594 46.4375 29.8906 46.4375
Q38.6719 46.4375 44.8438 39.9688
Q51.0312 33.5 51.0312 23.25
Q51.0312 16.5 48.125 10.7188
Q45.2188 4.9375 40.1406 1.85938
Q35.0625 -1.21875 28.6094 -1.21875
Q17.625 -1.21875 10.6875 6.85938
Q3.76562 14.9375 3.76562 33.5
Q3.76562 54.25 11.4219 63.6719
Q18.1094 71.875 29.4375 71.875
Q37.8906 71.875 43.2812 67.1406
Q48.6875 62.4062 49.75 54.0469
M13.875 23.1875
Q13.875 18.6562 15.7969 14.5
Q17.7188 10.3594 21.1875 8.17188
Q24.6562 6 28.4688 6
Q34.0312 6 38.0312 10.4844
Q42.0469 14.9844 42.0469 22.7031
Q42.0469 30.125 38.0781 34.3906
Q34.125 38.6719 28.125 38.6719
Q22.1719 38.6719 18.0156 34.3906
Q13.875 30.125 13.875 23.1875" id="ArialMT-36"/>
      </defs>
      <g transform="translate(332.0240625 401.389375)scale(0.12 -0.12)">
       <use xlink:href="#ArialMT-30"/>
       <use x="55.615234375" xlink:href="#ArialMT-2e"/>
       <use x="83.3984375" xlink:href="#ArialMT-36"/>
      </g>
     </g>
    </g>
    <g id="xtick_5">
     <g id="line2d_13">
      <path clip-path="url(#p7ff5b81e1d)" d="
M429.12 388.8
L429.12 43.2" style="fill:none;stroke:#000000;stroke-dasharray:1.000000,3.000000;stroke-dashoffset:0.0;stroke-width:0.5;"/>
     </g>
     <g id="line2d_14">
      <g>
       <use style="stroke:#000000;stroke-width:0.5;" x="429.12" xlink:href="#m93b0483c22" y="388.8"/>
      </g>
     </g>
     <g id="line2d_15">
      <g>
       <use style="stroke:#000000;stroke-width:0.5;" x="429.12" xlink:href="#m741efc42ff" y="43.2"/>
      </g>
     </g>
     <g id="text_5">
      <!-- 0.8 -->
      <defs>
       <path d="
M17.6719 38.8125
Q12.2031 40.8281 9.5625 44.5312
Q6.9375 48.25 6.9375 53.4219
Q6.9375 61.2344 12.5469 66.5469
Q18.1719 71.875 27.4844 71.875
Q36.8594 71.875 42.5781 66.4219
Q48.2969 60.9844 48.2969 53.1719
Q48.2969 48.1875 45.6719 44.5
Q43.0625 40.8281 37.75 38.8125
Q44.3438 36.6719 47.7812 31.875
Q51.2188 27.0938 51.2188 20.4531
Q51.2188 11.2812 44.7188 5.03125
Q38.2344 -1.21875 27.6406 -1.21875
Q17.0469 -1.21875 10.5469 5.04688
Q4.04688 11.3281 4.04688 20.7031
Q4.04688 27.6875 7.59375 32.3906
Q11.1406 37.1094 17.6719 38.8125
M15.9219 53.7188
Q15.9219 48.6406 19.1875 45.4062
Q22.4688 42.1875 27.6875 42.1875
Q32.7656 42.1875 36.0156 45.375
Q39.2656 48.5781 39.2656 53.2188
Q39.2656 58.0625 35.9062 61.3594
Q32.5625 64.6562 27.5938 64.6562
Q22.5625 64.6562 19.2344 61.4219
Q15.9219 58.2031 15.9219 53.7188
M13.0938 20.6562
Q13.0938 16.8906 14.875 13.375
Q16.6562 9.85938 20.1719 7.92188
Q23.6875 6 27.7344 6
Q34.0312 6 38.125 10.0469
Q42.2344 14.1094 42.2344 20.3594
Q42.2344 26.7031 38.0156 30.8594
Q33.7969 35.0156 27.4375 35.0156
Q21.2344 35.0156 17.1562 30.9062
Q13.0938 26.8125 13.0938 20.6562" id="ArialMT-38"/>
      </defs>
      <g transform="translate(421.2928125 401.389375)scale(0.12 -0.12)">
       <use xlink:href="#ArialMT-30"/>
       <use x="55.615234375" xlink:href="#ArialMT-2e"/>
       <use x="83.3984375" xlink:href="#ArialMT-38"/>
      </g>
     </g>
    </g>
    <g id="xtick_6">
     <g id="line2d_16">
      <path clip-path="url(#p7ff5b81e1d)" d="
M518.4 388.8
L518.4 43.2" style="fill:none;stroke:#000000;stroke-dasharray:1.000000,3.000000;stroke-dashoffset:0.0;stroke-width:0.5;"/>
     </g>
     <g id="line2d_17">
      <g>
       <use style="stroke:#000000;stroke-width:0.5;" x="518.4" xlink:href="#m93b0483c22" y="388.8"/>
      </g>
     </g>
     <g id="line2d_18">
      <g>
       <use style="stroke:#000000;stroke-width:0.5;" x="518.4" xlink:href="#m741efc42ff" y="43.2"/>
      </g>
     </g>
     <g id="text_6">
      <!-- 1.0 -->
      <defs>
       <path d="
M37.25 0
L28.4688 0
L28.4688 56
Q25.2969 52.9844 20.1406 49.9531
Q14.9844 46.9219 10.8906 45.4062
L10.8906 53.9062
Q18.2656 57.375 23.7812 62.2969
Q29.2969 67.2344 31.5938 71.875
L37.25 71.875
z
" id="ArialMT-31"/>
      </defs>
      <g transform="translate(511.0003125 401.389375)scale(0.12 -0.12)">
       <use xlink:href="#ArialMT-31"/>
       <use x="55.615234375" xlink:href="#ArialMT-2e"/>
       <use x="83.3984375" xlink:href="#ArialMT-30"/>
      </g>
     </g>
    </g>
    <g id="text_7">
     <!-- t sim -->
     <defs>
      <path d="
M25.7812 7.85938
L27.0469 0.09375
Q23.3438 -0.6875 20.4062 -0.6875
Q15.625 -0.6875 12.9844 0.828125
Q10.3594 2.34375 9.28125 4.8125
Q8.20312 7.28125 8.20312 15.1875
L8.20312 45.0156
L1.76562 45.0156
L1.76562 51.8594
L8.20312 51.8594
L8.20312 64.7031
L16.9375 69.9688
L16.9375 51.8594
L25.7812 51.8594
L25.7812 45.0156
L16.9375 45.0156
L16.9375 14.7031
Q16.9375 10.9375 17.4062 9.85938
Q17.875 8.79688 18.9219 8.15625
Q19.9688 7.51562 21.9219 7.51562
Q23.3906 7.51562 25.7812 7.85938" id="ArialMT-74"/>
      <path d="
M6.64062 61.4688
L6.64062 71.5781
L15.4375 71.5781
L15.4375 61.4688
z

M6.64062 0
L6.64062 51.8594
L15.4375 51.8594
L15.4375 0
z
" id="ArialMT-69"/>
      <path d="
M3.07812 15.4844
L11.7656 16.8438
Q12.5 11.625 15.8438 8.84375
Q19.1875 6.0625 25.2031 6.0625
Q31.25 6.0625 34.1719 8.51562
Q37.1094 10.9844 37.1094 14.3125
Q37.1094 17.2812 34.5156 19
Q32.7188 20.1719 25.5312 21.9688
Q15.875 24.4219 12.1406 26.2031
Q8.40625 27.9844 6.46875 31.125
Q4.54688 34.2812 4.54688 38.0938
Q4.54688 41.5469 6.125 44.5
Q7.71875 47.4688 10.4531 49.4219
Q12.5 50.9219 16.0312 51.9688
Q19.5781 53.0312 23.6406 53.0312
Q29.7344 53.0312 34.3438 51.2656
Q38.9688 49.5156 41.1562 46.5
Q43.3594 43.5 44.1875 38.4844
L35.5938 37.3125
Q35.0156 41.3125 32.2031 43.5469
Q29.3906 45.7969 24.2656 45.7969
Q18.2188 45.7969 15.625 43.7969
Q13.0312 41.7969 13.0312 39.1094
Q13.0312 37.4062 14.1094 36.0312
Q15.1875 34.625 17.4844 33.6875
Q18.7969 33.2031 25.25 31.4531
Q34.5781 28.9531 38.25 27.3594
Q41.9375 25.7812 44.0312 22.75
Q46.1406 19.7344 46.1406 15.2344
Q46.1406 10.8438 43.5781 6.95312
Q41.0156 3.07812 36.1719 0.953125
Q31.3438 -1.17188 25.25 -1.17188
Q15.1406 -1.17188 9.84375 3.03125
Q4.54688 7.23438 3.07812 15.4844" id="ArialMT-73"/>
      <path d="
M6.59375 0
L6.59375 51.8594
L14.4531 51.8594
L14.4531 44.5781
Q16.8906 48.3906 20.9375 50.7031
Q25 53.0312 30.1719 53.0312
Q35.9375 53.0312 39.625 50.6406
Q43.3125 48.25 44.8281 43.9531
Q50.9844 53.0312 60.8438 53.0312
Q68.5625 53.0312 72.7031 48.75
Q76.8594 44.4844 76.8594 35.5938
L76.8594 0
L68.1094 0
L68.1094 32.6719
Q68.1094 37.9375 67.25 40.25
Q66.4062 42.5781 64.1562 43.9844
Q61.9219 45.4062 58.8906 45.4062
Q53.4219 45.4062 49.7969 41.7656
Q46.1875 38.1406 46.1875 30.125
L46.1875 0
L37.4062 0
L37.4062 33.6875
Q37.4062 39.5469 35.25 42.4688
Q33.1094 45.4062 28.2188 45.4062
Q24.5156 45.4062 21.3594 43.4531
Q18.2188 41.5 16.7969 37.7344
Q15.375 33.9844 15.375 26.9062
L15.375 0
z
" id="ArialMT-6d"/>
      <path id="ArialMT-20"/>
     </defs>
     <g transform="translate(282.9215625 417.36375)scale(0.12 -0.12)">
      <use xlink:href="#ArialMT-74"/>
      <use x="27.783203125" xlink:href="#ArialMT-20"/>
      <use x="55.56640625" xlink:href="#ArialMT-73"/>
      <use x="105.56640625" xlink:href="#ArialMT-69"/>
      <use x="127.783203125" xlink:href="#ArialMT-6d"/>
     </g>
    </g>
   </g>
   <g id="matplotlib.axis_2">
    <g id="ytick_1">
     <g id="line2d_19">
      <path clip-path="url(#p7ff5b81e1d)" d="
M72 388.8
L518.4 388.8" style="fill:none;stroke:#000000;stroke-dasharray:1.000000,3.000000;stroke-dashoffset:0.0;stroke-width:0.5;"/>
     </g>
     <g id="line2d_20">
      <defs>
       <path d="
M0 0
L4 0" id="m728421d6d4" style="stroke:#000000;stroke-width:0.5;"/>
      </defs>
      <g>
       <use style="stroke:#000000;stroke-width:0.5;" x="72.0" xlink:href="#m728421d6d4" y="388.8"/>
      </g>
     </g>
     <g id="line2d_21">
      <defs>
       <path d="
M0 0
L-4 0" id="mcb0005524f" style="stroke:#000000;stroke-width:0.5;"/>
      </defs>
      <g>
       <use style="stroke:#000000;stroke-width:0.5;" x="518.4" xlink:href="#mcb0005524f" y="388.8"/>
      </g>
     </g>
     <g id="text_8">
      <!-- 0 -->
      <g transform="translate(62.399375 391.9021875)scale(0.12 -0.12)">
       <use xlink:href="#ArialMT-30"/>
      </g>
     </g>
    </g>
    <g id="ytick_2">
     <g id="line2d_22">
      <path clip-path="url(#p7ff5b81e1d)" d="
M72 339.429
L518.4 339.429" style="fill:none;stroke:#000000;stroke-dasharray:1.000000,3.000000;stroke-dashoffset:0.0;stroke-width:0.5;"/>
     </g>
     <g id="line2d_23">
      <g>
       <use style="stroke:#000000;stroke-width:0.5;" x="72.0" xlink:href="#m728421d6d4" y="339.428571429"/>
      </g>
     </g>
     <g id="line2d_24">
      <g>
       <use style="stroke:#000000;stroke-width:0.5;" x="518.4" xlink:href="#mcb0005524f" y="339.428571429"/>
      </g>
     </g>
     <g id="text_9">
      <!-- 10 -->
      <g transform="translate(56.534375 342.530758929)scale(0.12 -0.12)">
       <use xlink:href="#ArialMT-31"/>
       <use x="55.615234375" xlink:href="#ArialMT-30"/>
      </g>
     </g>
    </g>
    <g id="ytick_3">
     <g id="line2d_25">
      <path clip-path="url(#p7ff5b81e1d)" d="
M72 290.057
L518.4 290.057" style="fill:none;stroke:#000000;stroke-dasharray:1.000000,3.000000;stroke-dashoffset:0.0;stroke-width:0.5;"/>
     </g>
     <g id="line2d_26">
      <g>
       <use style="stroke:#000000;stroke-width:0.5;" x="72.0" xlink:href="#m728421d6d4" y="290.057142857"/>
      </g>
     </g>
     <g id="line2d_27">
      <g>
       <use style="stroke:#000000;stroke-width:0.5;" x="518.4" xlink:href="#mcb0005524f" y="290.057142857"/>
      </g>
     </g>
     <g id="text_10">
      <!-- 20 -->
      <g transform="translate(55.58 293.159330357)scale(0.12 -0.12)">
       <use xlink:href="#ArialMT-32"/>
       <use x="55.615234375" xlink:href="#ArialMT-30"/>
      </g>
     </g>
    </g>
    <g id="ytick_4">
     <g id="line2d_28">
      <path clip-path="url(#p7ff5b81e1d)" d="
M72 240.686
L518.4 240.686" style="fill:none;stroke:#000000;stroke-dasharray:1.000000,3.000000;stroke-dashoffset:0.0;stroke-width:0.5;"/>
     </g>
     <g id="line2d_29">
      <g>
       <use style="stroke:#000000;stroke-width:0.5;" x="72.0" xlink:href="#m728421d6d4" y="240.685714286"/>
      </g>
     </g>
     <g id="line2d_30">
      <g>
       <use style="stroke:#000000;stroke-width:0.5;" x="518.4" xlink:href="#mcb0005524f" y="240.685714286"/>
      </g>
     </g>
     <g id="text_11">
      <!-- 30 -->
      <defs>
       <path d="
M4.20312 18.8906
L12.9844 20.0625
Q14.5 12.5938 18.1406 9.29688
Q21.7812 6 27 6
Q33.2031 6 37.4688 10.2969
Q41.75 14.5938 41.75 20.9531
Q41.75 27 37.7969 30.9219
Q33.8438 34.8594 27.7344 34.8594
Q25.25 34.8594 21.5312 33.8906
L22.5156 41.6094
Q23.3906 41.5 23.9219 41.5
Q29.5469 41.5 34.0312 44.4219
Q38.5312 47.3594 38.5312 53.4688
Q38.5312 58.2969 35.25 61.4688
Q31.9844 64.6562 26.8125 64.6562
Q21.6875 64.6562 18.2656 61.4219
Q14.8438 58.2031 13.875 51.7656
L5.07812 53.3281
Q6.6875 62.1562 12.3906 67.0156
Q18.1094 71.875 26.6094 71.875
Q32.4688 71.875 37.3906 69.3594
Q42.3281 66.8438 44.9375 62.5
Q47.5625 58.1562 47.5625 53.2656
Q47.5625 48.6406 45.0625 44.8281
Q42.5781 41.0156 37.7031 38.7656
Q44.0469 37.3125 47.5625 32.6875
Q51.0781 28.0781 51.0781 21.1406
Q51.0781 11.7656 44.2344 5.25
Q37.4062 -1.26562 26.9531 -1.26562
Q17.5312 -1.26562 11.2969 4.34375
Q5.07812 9.96875 4.20312 18.8906" id="ArialMT-33"/>
      </defs>
      <g transform="translate(55.731875 243.787901786)scale(0.12 -0.12)">
       <use xlink:href="#ArialMT-33"/>
       <use x="55.615234375" xlink:href="#ArialMT-30"/>
      </g>
     </g>
    </g>
    <g id="ytick_5">
     <g id="line2d_31">
      <path clip-path="url(#p7ff5b81e1d)" d="
M72 191.314
L518.4 191.314" style="fill:none;stroke:#000000;stroke-dasharray:1.000000,3.000000;stroke-dashoffset:0.0;stroke-width:0.5;"/>
     </g>
     <g id="line2d_32">
      <g>
       <use style="stroke:#000000;stroke-width:0.5;" x="72.0" xlink:href="#m728421d6d4" y="191.314285714"/>
      </g>
     </g>
     <g id="line2d_33">
      <g>
       <use style="stroke:#000000;stroke-width:0.5;" x="518.4" xlink:href="#mcb0005524f" y="191.314285714"/>
      </g>
     </g>
     <g id="text_12">
      <!-- 40 -->
      <g transform="translate(55.379375 194.416473214)scale(0.12 -0.12)">
       <use xlink:href="#ArialMT-34"/>
       <use x="55.615234375" xlink:href="#ArialMT-30"/>
      </g>
     </g>
    </g>
    <g id="ytick_6">
     <g id="line2d_34">
      <path clip-path="url(#p7ff5b81e1d)" d="
M72 141.943
L518.4 141.943" style="fill:none;stroke:#000000;stroke-dasharray:1.000000,3.000000;stroke-dashoffset:0.0;stroke-width:0.5;"/>
     </g>
     <g id="line2d_35">
      <g>
       <use style="stroke:#000000;stroke-width:0.5;" x="72.0" xlink:href="#m728421d6d4" y="141.942857143"/>
      </g>
     </g>
     <g id="line2d_36">
      <g>
       <use style="stroke:#000000;stroke-width:0.5;" x="518.4" xlink:href="#mcb0005524f" y="141.942857143"/>
      </g>
     </g>
     <g id="text_13">
      <!-- 50 -->
      <defs>
       <path d="
M4.15625 18.75
L13.375 19.5312
Q14.4062 12.7969 18.1406 9.39062
Q21.875 6 27.1562 6
Q33.5 6 37.8906 10.7812
Q42.2812 15.5781 42.2812 23.4844
Q42.2812 31 38.0625 35.3438
Q33.8438 39.7031 27 39.7031
Q22.75 39.7031 19.3281 37.7656
Q15.9219 35.8438 13.9688 32.7656
L5.71875 33.8438
L12.6406 70.6094
L48.25 70.6094
L48.25 62.2031
L19.6719 62.2031
L15.8281 42.9688
Q22.2656 47.4688 29.3438 47.4688
Q38.7188 47.4688 45.1562 40.9688
Q51.6094 34.4688 51.6094 24.2656
Q51.6094 14.5469 45.9531 7.46875
Q39.0625 -1.21875 27.1562 -1.21875
Q17.3906 -1.21875 11.2031 4.25
Q5.03125 9.71875 4.15625 18.75" id="ArialMT-35"/>
      </defs>
      <g transform="translate(55.72625 145.045044643)scale(0.12 -0.12)">
       <use xlink:href="#ArialMT-35"/>
       <use x="55.615234375" xlink:href="#ArialMT-30"/>
      </g>
     </g>
    </g>
    <g id="ytick_7">
     <g id="line2d_37">
      <path clip-path="url(#p7ff5b81e1d)" d="
M72 92.5714
L518.4 92.5714" style="fill:none;stroke:#000000;stroke-dasharray:1.000000,3.000000;stroke-dashoffset:0.0;stroke-width:0.5;"/>
     </g>
     <g id="line2d_38">
      <g>
       <use style="stroke:#000000;stroke-width:0.5;" x="72.0" xlink:href="#m728421d6d4" y="92.5714285714"/>
      </g>
     </g>
     <g id="line2d_39">
      <g>
       <use style="stroke:#000000;stroke-width:0.5;" x="518.4" xlink:href="#mcb0005524f" y="92.5714285714"/>
      </g>
     </g>
     <g id="text_14">
      <!-- 60 -->
      <g transform="translate(55.679375 95.6736160714)scale(0.12 -0.12)">
       <use xlink:href="#ArialMT-36"/>
       <use x="55.615234375" xlink:href="#ArialMT-30"/>
      </g>
     </g>
    </g>
    <g id="ytick_8">
     <g id="line2d_40">
      <path clip-path="url(#p7ff5b81e1d)" d="
M72 43.2
L518.4 43.2" style="fill:none;stroke:#000000;stroke-dasharray:1.000000,3.000000;stroke-dashoffset:0.0;stroke-width:0.5;"/>
     </g>
     <g id="line2d_41">
      <g>
       <use style="stroke:#000000;stroke-width:0.5;" x="72.0" xlink:href="#m728421d6d4" y="43.2"/>
      </g>
     </g>
     <g id="line2d_42">
      <g>
       <use style="stroke:#000000;stroke-width:0.5;" x="518.4" xlink:href="#mcb0005524f" y="43.2"/>
      </g>
     </g>
     <g id="text_15">
      <!-- 70 -->
      <defs>
       <path d="
M4.73438 62.2031
L4.73438 70.6562
L51.0781 70.6562
L51.0781 63.8125
Q44.2344 56.5469 37.5156 44.4844
Q30.8125 32.4219 27.1562 19.6719
Q24.5156 10.6875 23.7812 0
L14.75 0
Q14.8906 8.45312 18.0625 20.4062
Q21.2344 32.375 27.1719 43.4844
Q33.1094 54.5938 39.7969 62.2031
z
" id="ArialMT-37"/>
      </defs>
      <g transform="translate(55.795625 46.3021875)scale(0.12 -0.12)">
       <use xlink:href="#ArialMT-37"/>
       <use x="55.615234375" xlink:href="#ArialMT-30"/>
      </g>
     </g>
    </g>
    <g id="text_16">
     <!-- number of passengers -->
     <defs>
      <path d="
M14.7031 0
L6.54688 0
L6.54688 71.5781
L15.3281 71.5781
L15.3281 46.0469
Q20.9062 53.0312 29.5469 53.0312
Q34.3281 53.0312 38.5938 51.0938
Q42.875 49.1719 45.625 45.6719
Q48.3906 42.1875 49.9531 37.25
Q51.5156 32.3281 51.5156 26.7031
Q51.5156 13.375 44.9219 6.09375
Q38.3281 -1.17188 29.1094 -1.17188
Q19.9219 -1.17188 14.7031 6.5
z

M14.5938 26.3125
Q14.5938 17 17.1406 12.8438
Q21.2969 6.0625 28.375 6.0625
Q34.125 6.0625 38.3281 11.0625
Q42.5312 16.0625 42.5312 25.9844
Q42.5312 36.1406 38.5 40.9688
Q34.4688 45.7969 28.7656 45.7969
Q23 45.7969 18.7969 40.7969
Q14.5938 35.7969 14.5938 26.3125" id="ArialMT-62"/>
      <path d="
M40.4375 6.39062
Q35.5469 2.25 31.0312 0.53125
Q26.5156 -1.17188 21.3438 -1.17188
Q12.7969 -1.17188 8.20312 3
Q3.60938 7.17188 3.60938 13.6719
Q3.60938 17.4844 5.34375 20.625
Q7.07812 23.7812 9.89062 25.6875
Q12.7031 27.5938 16.2188 28.5625
Q18.7969 29.25 24.0312 29.8906
Q34.6719 31.1562 39.7031 32.9062
Q39.75 34.7188 39.75 35.2031
Q39.75 40.5781 37.25 42.7812
Q33.8906 45.75 27.25 45.75
Q21.0469 45.75 18.0938 43.5781
Q15.1406 41.4062 13.7188 35.8906
L5.125 37.0625
Q6.29688 42.5781 8.98438 45.9688
Q11.6719 49.3594 16.75 51.1875
Q21.8281 53.0312 28.5156 53.0312
Q35.1562 53.0312 39.2969 51.4688
Q43.4531 49.9062 45.4062 47.5312
Q47.3594 45.1719 48.1406 41.5469
Q48.5781 39.3125 48.5781 33.4531
L48.5781 21.7344
Q48.5781 9.46875 49.1406 6.21875
Q49.7031 2.98438 51.375 0
L42.1875 0
Q40.8281 2.73438 40.4375 6.39062
M39.7031 26.0312
Q34.9062 24.0781 25.3438 22.7031
Q19.9219 21.9219 17.6719 20.9375
Q15.4375 19.9688 14.2031 18.0938
Q12.9844 16.2188 12.9844 13.9219
Q12.9844 10.4062 15.6406 8.0625
Q18.3125 5.71875 23.4375 5.71875
Q28.5156 5.71875 32.4688 7.9375
Q36.4219 10.1562 38.2812 14.0156
Q39.7031 17 39.7031 22.7969
z
" id="ArialMT-61"/>
      <path d="
M4.98438 -4.29688
L13.5312 -5.5625
Q14.0625 -9.51562 16.5 -11.3281
Q19.7812 -13.7656 25.4375 -13.7656
Q31.5469 -13.7656 34.8594 -11.3281
Q38.1875 -8.89062 39.3594 -4.5
Q40.0469 -1.8125 39.9844 6.78125
Q34.2344 0 25.6406 0
Q14.9375 0 9.07812 7.71875
Q3.21875 15.4375 3.21875 26.2188
Q3.21875 33.6406 5.90625 39.9062
Q8.59375 46.1875 13.6875 49.6094
Q18.7969 53.0312 25.6875 53.0312
Q34.8594 53.0312 40.8281 45.6094
L40.8281 51.8594
L48.9219 51.8594
L48.9219 7.03125
Q48.9219 -5.07812 46.4531 -10.125
Q44 -15.1875 38.6406 -18.1094
Q33.2969 -21.0469 25.4844 -21.0469
Q16.2188 -21.0469 10.5 -16.875
Q4.78125 -12.7031 4.98438 -4.29688
M12.25 26.8594
Q12.25 16.6562 16.2969 11.9688
Q20.3594 7.28125 26.4688 7.28125
Q32.5156 7.28125 36.6094 11.9375
Q40.7188 16.6094 40.7188 26.5625
Q40.7188 36.0781 36.5 40.9062
Q32.2812 45.75 26.3125 45.75
Q20.4531 45.75 16.3438 40.9844
Q12.25 36.2344 12.25 26.8594" id="ArialMT-67"/>
      <path d="
M8.6875 0
L8.6875 45.0156
L0.921875 45.0156
L0.921875 51.8594
L8.6875 51.8594
L8.6875 57.375
Q8.6875 62.5938 9.625 65.1406
Q10.8906 68.5625 14.0781 70.6719
Q17.2812 72.7969 23.0469 72.7969
Q26.7656 72.7969 31.25 71.9219
L29.9375 64.2656
Q27.2031 64.75 24.75 64.75
Q20.75 64.75 19.0938 63.0312
Q17.4375 61.3281 17.4375 56.6406
L17.4375 51.8594
L27.5469 51.8594
L27.5469 45.0156
L17.4375 45.0156
L17.4375 0
z
" id="ArialMT-66"/>
      <path d="
M42.0938 16.7031
L51.1719 15.5781
Q49.0312 7.625 43.2188 3.21875
Q37.4062 -1.17188 28.375 -1.17188
Q17 -1.17188 10.3281 5.82812
Q3.65625 12.8438 3.65625 25.4844
Q3.65625 38.5781 10.3906 45.7969
Q17.1406 53.0312 27.875 53.0312
Q38.2812 53.0312 44.875 45.9531
Q51.4688 38.875 51.4688 26.0312
Q51.4688 25.25 51.4219 23.6875
L12.75 23.6875
Q13.2344 15.1406 17.5781 10.5938
Q21.9219 6.0625 28.4219 6.0625
Q33.25 6.0625 36.6719 8.59375
Q40.0938 11.1406 42.0938 16.7031
M13.2344 30.9062
L42.1875 30.9062
Q41.6094 37.4531 38.875 40.7188
Q34.6719 45.7969 27.9844 45.7969
Q21.9219 45.7969 17.7969 41.75
Q13.6719 37.7031 13.2344 30.9062" id="ArialMT-65"/>
      <path d="
M40.5781 0
L40.5781 7.625
Q34.5156 -1.17188 24.125 -1.17188
Q19.5312 -1.17188 15.5469 0.578125
Q11.5781 2.34375 9.64062 5
Q7.71875 7.67188 6.9375 11.5312
Q6.39062 14.1094 6.39062 19.7344
L6.39062 51.8594
L15.1875 51.8594
L15.1875 23.0938
Q15.1875 16.2188 15.7188 13.8125
Q16.5469 10.3594 19.2344 8.375
Q21.9219 6.39062 25.875 6.39062
Q29.8281 6.39062 33.2969 8.42188
Q36.7656 10.4531 38.2031 13.9375
Q39.6562 17.4375 39.6562 24.0781
L39.6562 51.8594
L48.4375 51.8594
L48.4375 0
z
" id="ArialMT-75"/>
      <path d="
M6.59375 -19.875
L6.59375 51.8594
L14.5938 51.8594
L14.5938 45.125
Q17.4375 49.0781 21 51.0469
Q24.5625 53.0312 29.6406 53.0312
Q36.2812 53.0312 41.3594 49.6094
Q46.4375 46.1875 49.0156 39.9531
Q51.6094 33.7344 51.6094 26.3125
Q51.6094 18.3594 48.75 11.9844
Q45.9062 5.60938 40.4531 2.21875
Q35.0156 -1.17188 29 -1.17188
Q24.6094 -1.17188 21.1094 0.6875
Q17.625 2.54688 15.375 5.375
L15.375 -19.875
z

M14.5469 25.6406
Q14.5469 15.625 18.5938 10.8438
Q22.6562 6.0625 28.4219 6.0625
Q34.2812 6.0625 38.4531 11.0156
Q42.625 15.9688 42.625 26.375
Q42.625 36.2812 38.5469 41.2031
Q34.4688 46.1406 28.8125 46.1406
Q23.1875 46.1406 18.8594 40.8906
Q14.5469 35.6406 14.5469 25.6406" id="ArialMT-70"/>
      <path d="
M6.5 0
L6.5 51.8594
L14.4062 51.8594
L14.4062 44
Q17.4375 49.5156 20 51.2656
Q22.5625 53.0312 25.6406 53.0312
Q30.0781 53.0312 34.6719 50.2031
L31.6406 42.0469
Q28.4219 43.9531 25.2031 43.9531
Q22.3125 43.9531 20.0156 42.2188
Q17.7188 40.4844 16.75 37.4062
Q15.2812 32.7188 15.2812 27.1562
L15.2812 0
z
" id="ArialMT-72"/>
      <path d="
M3.32812 25.9219
Q3.32812 40.3281 11.3281 47.2656
Q18.0156 53.0312 27.6406 53.0312
Q38.3281 53.0312 45.1094 46.0156
Q51.9062 39.0156 51.9062 26.6562
Q51.9062 16.6562 48.9062 10.9062
Q45.9062 5.17188 40.1562 2
Q34.4219 -1.17188 27.6406 -1.17188
Q16.75 -1.17188 10.0312 5.8125
Q3.32812 12.7969 3.32812 25.9219
M12.3594 25.9219
Q12.3594 15.9688 16.7031 11.0156
Q21.0469 6.0625 27.6406 6.0625
Q34.1875 6.0625 38.5312 11.0312
Q42.875 16.0156 42.875 26.2188
Q42.875 35.8438 38.5 40.7969
Q34.125 45.75 27.6406 45.75
Q21.0469 45.75 16.7031 40.8125
Q12.3594 35.8906 12.3594 25.9219" id="ArialMT-6f"/>
      <path d="
M6.59375 0
L6.59375 51.8594
L14.5 51.8594
L14.5 44.4844
Q20.2188 53.0312 31 53.0312
Q35.6875 53.0312 39.625 51.3438
Q43.5625 49.6562 45.5156 46.9219
Q47.4688 44.1875 48.25 40.4375
Q48.7344 37.9844 48.7344 31.8906
L48.7344 0
L39.9375 0
L39.9375 31.5469
Q39.9375 36.9219 38.9062 39.5781
Q37.8906 42.2344 35.2812 43.8125
Q32.6719 45.4062 29.1562 45.4062
Q23.5312 45.4062 19.4531 41.8438
Q15.375 38.2812 15.375 28.3281
L15.375 0
z
" id="ArialMT-6e"/>
     </defs>
     <g transform="translate(47.85375 275.4646875)rotate(-90.0)scale(0.12 -0.12)">
      <use xlink:href="#ArialMT-6e"/>
      <use x="55.615234375" xlink:href="#ArialMT-75"/>
      <use x="111.23046875" xlink:href="#ArialMT-6d"/>
      <use x="194.53125" xlink:href="#ArialMT-62"/>
      <use x="250.146484375" xlink:href="#ArialMT-65"/>
      <use x="305.76171875" xlink:href="#ArialMT-72"/>
      <use x="339.0625" xlink:href="#ArialMT-20"/>
      <use x="366.845703125" xlink:href="#ArialMT-6f"/>
      <use x="422.4609375" xlink:href="#ArialMT-66"/>
      <use x="450.244140625" xlink:href="#ArialMT-20"/>
      <use x="478.02734375" xlink:href="#ArialMT-70"/>
      <use x="533.642578125" xlink:href="#ArialMT-61"/>
      <use x="589.2578125" xlink:href="#ArialMT-73"/>
      <use x="639.2578125" xlink:href="#ArialMT-73"/>
      <use x="689.2578125" xlink:href="#ArialMT-65"/>
      <use x="744.873046875" xlink:href="#ArialMT-6e"/>
      <use x="800.48828125" xlink:href="#ArialMT-67"/>
      <use x="856.103515625" xlink:href="#ArialMT-65"/>
      <use x="911.71875" xlink:href="#ArialMT-72"/>
      <use x="945.01953125" xlink:href="#ArialMT-73"/>
     </g>
    </g>
   </g>
   <g id="patch_203">
    <path d="
M72 43.2
L518.4 43.2" style="fill:none;stroke:#000000;"/>
   </g>
   <g id="patch_204">
    <path d="
M518.4 388.8
L518.4 43.2" style="fill:none;stroke:#000000;"/>
   </g>
   <g id="patch_205">
    <path d="
M72 388.8
L518.4 388.8" style="fill:none;stroke:#000000;"/>
   </g>
   <g id="patch_206">
    <path d="
M72 388.8
L72 43.2" style="fill:none;stroke:#000000;"/>
   </g>
   <g id="text_17">
    <!-- Queue popolation for day 2 -->
    <defs>
     <path d="
M6.39062 0
L6.39062 71.5781
L15.1875 71.5781
L15.1875 0
z
" id="ArialMT-6c"/>
     <path d="
M61.9688 7.67188
Q68.5625 3.125 74.125 1.03125
L71.3438 -5.5625
Q63.625 -2.78125 55.9531 3.21875
Q48 -1.21875 38.375 -1.21875
Q28.6562 -1.21875 20.75 3.46875
Q12.8438 8.15625 8.5625 16.6406
Q4.29688 25.1406 4.29688 35.7969
Q4.29688 46.3906 8.59375 55.0781
Q12.8906 63.7656 20.8281 68.3125
Q28.7656 72.8594 38.5781 72.8594
Q48.4844 72.8594 56.4375 68.1406
Q64.4062 63.4219 68.5781 54.9531
Q72.75 46.4844 72.75 35.8438
Q72.75 27 70.0625 19.9375
Q67.3906 12.8906 61.9688 7.67188
M41.1094 19.7812
Q49.3125 17.4844 54.6406 12.9375
Q62.9844 20.5625 62.9844 35.8438
Q62.9844 44.5312 60.0312 51.0156
Q57.0781 57.5156 51.3906 61.1094
Q45.7031 64.7031 38.625 64.7031
Q28.0312 64.7031 21.0469 57.4531
Q14.0625 50.2031 14.0625 35.7969
Q14.0625 21.8281 20.9688 14.3594
Q27.875 6.89062 38.625 6.89062
Q43.7031 6.89062 48.1875 8.79688
Q43.75 11.6719 38.8125 12.8906
z
" id="ArialMT-51"/>
     <path d="
M6.20312 -19.9688
L5.21875 -11.7188
Q8.10938 -12.5 10.25 -12.5
Q13.1875 -12.5 14.9375 -11.5156
Q16.7031 -10.5469 17.8281 -8.79688
Q18.6562 -7.46875 20.5156 -2.25
Q20.75 -1.51562 21.2969 -0.09375
L1.60938 51.8594
L11.0781 51.8594
L21.875 21.8281
Q23.9688 16.1094 25.6406 9.8125
Q27.1562 15.875 29.25 21.625
L40.3281 51.8594
L49.125 51.8594
L29.3906 -0.875
Q26.2188 -9.42188 24.4688 -12.6406
Q22.125 -17 19.0938 -19.0156
Q16.0625 -21.0469 11.8594 -21.0469
Q9.32812 -21.0469 6.20312 -19.9688" id="ArialMT-79"/>
     <path d="
M40.2344 0
L40.2344 6.54688
Q35.2969 -1.17188 25.7344 -1.17188
Q19.5312 -1.17188 14.3281 2.25
Q9.125 5.67188 6.26562 11.7969
Q3.42188 17.9219 3.42188 25.875
Q3.42188 33.6406 6 39.9688
Q8.59375 46.2969 13.7656 49.6562
Q18.9531 53.0312 25.3438 53.0312
Q30.0312 53.0312 33.6875 51.0469
Q37.3594 49.0781 39.6562 45.9062
L39.6562 71.5781
L48.3906 71.5781
L48.3906 0
z

M12.4531 25.875
Q12.4531 15.9219 16.6406 10.9844
Q20.8438 6.0625 26.5625 6.0625
Q32.3281 6.0625 36.3438 10.7656
Q40.375 15.4844 40.375 25.1406
Q40.375 35.7969 36.2656 40.7656
Q32.1719 45.75 26.1719 45.75
Q20.3125 45.75 16.375 40.9688
Q12.4531 36.1875 12.4531 25.875" id="ArialMT-64"/>
    </defs>
    <g transform="translate(208.722375 38.2)scale(0.144 -0.144)">
     <use xlink:href="#ArialMT-51"/>
     <use x="77.783203125" xlink:href="#ArialMT-75"/>
     <use x="133.3984375" xlink:href="#ArialMT-65"/>
     <use x="189.013671875" xlink:href="#ArialMT-75"/>
     <use x="244.62890625" xlink:href="#ArialMT-65"/>
     <use x="300.244140625" xlink:href="#ArialMT-20"/>
     <use x="328.02734375" xlink:href="#ArialMT-70"/>
     <use x="383.642578125" xlink:href="#ArialMT-6f"/>
     <use x="439.2578125" xlink:href="#ArialMT-70"/>
     <use x="494.873046875" xlink:href="#ArialMT-6f"/>
     <use x="550.48828125" xlink:href="#ArialMT-6c"/>
     <use x="572.705078125" xlink:href="#ArialMT-61"/>
     <use x="628.3203125" xlink:href="#ArialMT-74"/>
     <use x="656.103515625" xlink:href="#ArialMT-69"/>
     <use x="678.3203125" xlink:href="#ArialMT-6f"/>
     <use x="733.935546875" xlink:href="#ArialMT-6e"/>
     <use x="789.55078125" xlink:href="#ArialMT-20"/>
     <use x="817.333984375" xlink:href="#ArialMT-66"/>
     <use x="845.1171875" xlink:href="#ArialMT-6f"/>
     <use x="900.732421875" xlink:href="#ArialMT-72"/>
     <use x="934.033203125" xlink:href="#ArialMT-20"/>
     <use x="961.81640625" xlink:href="#ArialMT-64"/>
     <use x="1017.43164062" xlink:href="#ArialMT-61"/>
     <use x="1073.046875" xlink:href="#ArialMT-79"/>
     <use x="1123.046875" xlink:href="#ArialMT-20"/>
     <use x="1150.83007812" xlink:href="#ArialMT-32"/>
    </g>
   </g>
  </g>
 </g>
 <defs>
  <clipPath id="p7ff5b81e1d">
   <rect height="345.6" width="446.4" x="72.0" y="43.2"/>
  </clipPath>
 </defs>
</svg>
