<?xml version="1.0" encoding="utf-8" standalone="no"?>
<!DOCTYPE svg PUBLIC "-//W3C//DTD SVG 1.1//EN"
  "http://www.w3.org/Graphics/SVG/1.1/DTD/svg11.dtd">
<!-- Created with matplotlib (http://matplotlib.org/) -->
<svg height="432pt" version="1.1" viewBox="0 0 576 432" width="576pt" xmlns="http://www.w3.org/2000/svg" xmlns:xlink="http://www.w3.org/1999/xlink">
 <defs>
  <style type="text/css">
*{stroke-linecap:butt;stroke-linejoin:round;}
  </style>
 </defs>
 <g id="figure_1">
  <g id="patch_1">
   <path d="
M0 432
L576 432
L576 0
L0 0
z
" style="fill:#ffffff;"/>
  </g>
  <g id="axes_1">
   <g id="patch_2">
    <path d="
M72 388.8
L518.4 388.8
L518.4 43.2
L72 43.2
z
" style="fill:#ffffff;"/>
   </g>
   <g id="patch_3">
    <path clip-path="url(#p7ff5b81e1d)" d="
M72 388.8
L74.2088 388.8
L74.2088 314.743
L72 314.743
z
" style="stroke:#000000;"/>
   </g>
   <g id="patch_4">
    <path clip-path="url(#p7ff5b81e1d)" d="
M74.2088 388.8
L76.4176 388.8
L76.4176 349.303
L74.2088 349.303
z
" style="stroke:#000000;"/>
   </g>
   <g id="patch_5">
    <path clip-path="url(#p7ff5b81e1d)" d="
M76.4176 388.8
L78.6263 388.8
L78.6263 319.68
L76.4176 319.68
z
" style="stroke:#000000;"/>
   </g>
   <g id="patch_6">
    <path clip-path="url(#p7ff5b81e1d)" d="
M78.6263 388.8
L80.8351 388.8
L80.8351 290.057
L78.6263 290.057
z
" style="stroke:#000000;"/>
   </g>
   <g id="patch_7">
    <path clip-path="url(#p7ff5b81e1d)" d="
M80.8351 388.8
L83.0439 388.8
L83.0439 285.12
L80.8351 285.12
z
" style="stroke:#000000;"/>
   </g>
   <g id="patch_8">
    <path clip-path="url(#p7ff5b81e1d)" d="
M83.0439 388.8
L85.2527 388.8
L85.2527 196.251
L83.0439 196.251
z
" style="stroke:#000000;"/>
   </g>
   <g id="patch_9">
    <path clip-path="url(#p7ff5b81e1d)" d="
M85.2527 388.8
L87.4614 388.8
L87.4614 235.749
L85.2527 235.749
z
" style="stroke:#000000;"/>
   </g>
   <g id="patch_10">
    <path clip-path="url(#p7ff5b81e1d)" d="
M87.4614 388.8
L89.6702 388.8
L89.6702 235.749
L87.4614 235.749
z
" style="stroke:#000000;"/>
   </g>
   <g id="patch_11">
    <path clip-path="url(#p7ff5b81e1d)" d="
M89.6702 388.8
L91.879 388.8
L91.879 344.366
L89.6702 344.366
z
" style="stroke:#000000;"/>
   </g>
   <g id="patch_12">
    <path clip-path="url(#p7ff5b81e1d)" d="
M91.879 388.8
L94.0878 388.8
L94.0878 344.366
L91.879 344.366
z
" style="stroke:#000000;"/>
   </g>
   <g id="patch_13">
    <path clip-path="url(#p7ff5b81e1d)" d="
M94.0878 388.8
L96.2965 388.8
L96.2965 329.554
L94.0878 329.554
z
" style="stroke:#000000;"/>
   </g>
   <g id="patch_14">
    <path clip-path="url(#p7ff5b81e1d)" d="
M96.2965 388.8
L98.5053 388.8
L98.5053 216
L96.2965 216
z
" style="stroke:#000000;"/>
   </g>
   <g id="patch_15">
    <path clip-path="url(#p7ff5b81e1d)" d="
M98.5053 388.8
L100.714 388.8
L100.714 290.057
L98.5053 290.057
z
" style="stroke:#000000;"/>
   </g>
   <g id="patch_16">
    <path clip-path="url(#p7ff5b81e1d)" d="
M100.714 388.8
L102.923 388.8
L102.923 245.623
L100.714 245.623
z
" style="stroke:#000000;"/>
   </g>
   <g id="patch_17">
    <path clip-path="url(#p7ff5b81e1d)" d="
M102.923 388.8
L105.132 388.8
L105.132 196.251
L102.923 196.251
z
" style="stroke:#000000;"/>
   </g>
   <g id="patch_18">
    <path clip-path="url(#p7ff5b81e1d)" d="
M105.132 388.8
L107.34 388.8
L107.34 176.503
L105.132 176.503
z
" style="stroke:#000000;"/>
   </g>
   <g id="patch_19">
    <path clip-path="url(#p7ff5b81e1d)" d="
M107.34 388.8
L109.549 388.8
L109.549 250.56
L107.34 250.56
z
" style="stroke:#000000;"/>
   </g>
   <g id="patch_20">
    <path clip-path="url(#p7ff5b81e1d)" d="
M109.549 388.8
L111.758 388.8
L111.758 220.937
L109.549 220.937
z
" style="stroke:#000000;"/>
   </g>
   <g id="patch_21">
    <path clip-path="url(#p7ff5b81e1d)" d="
M111.758 388.8
L113.967 388.8
L113.967 220.937
L111.758 220.937
z
" style="stroke:#000000;"/>
   </g>
   <g id="patch_22">
    <path clip-path="url(#p7ff5b81e1d)" d="
M113.967 388.8
L116.176 388.8
L116.176 151.817
L113.967 151.817
z
" style="stroke:#000000;"/>
   </g>
   <g id="patch_23">
    <path clip-path="url(#p7ff5b81e1d)" d="
M116.176 388.8
L118.384 388.8
L118.384 216
L116.176 216
z
" style="stroke:#000000;"/>
   </g>
   <g id="patch_24">
    <path clip-path="url(#p7ff5b81e1d)" d="
M118.384 388.8
L120.593 388.8
L120.593 211.063
L118.384 211.063
z
" style="stroke:#000000;"/>
   </g>
   <g id="patch_25">
    <path clip-path="url(#p7ff5b81e1d)" d="
M120.593 388.8
L122.802 388.8
L122.802 225.874
L120.593 225.874
z
" style="stroke:#000000;"/>
   </g>
   <g id="patch_26">
    <path clip-path="url(#p7ff5b81e1d)" d="
M122.802 388.8
L125.011 388.8
L125.011 127.131
L122.802 127.131
z
" style="stroke:#000000;"/>
   </g>
   <g id="patch_27">
    <path clip-path="url(#p7ff5b81e1d)" d="
M125.011 388.8
L127.219 388.8
L127.219 225.874
L125.011 225.874
z
" style="stroke:#000000;"/>
   </g>
   <g id="patch_28">
    <path clip-path="url(#p7ff5b81e1d)" d="
M127.219 388.8
L129.428 388.8
L129.428 201.189
L127.219 201.189
z
" style="stroke:#000000;"/>
   </g>
   <g id="patch_29">
    <path clip-path="url(#p7ff5b81e1d)" d="
M129.428 388.8
L131.637 388.8
L131.637 285.12
L129.428 285.12
z
" style="stroke:#000000;"/>
   </g>
   <g id="patch_30">
    <path clip-path="url(#p7ff5b81e1d)" d="
M131.637 388.8
L133.846 388.8
L133.846 270.309
L131.637 270.309
z
" style="stroke:#000000;"/>
   </g>
   <g id="patch_31">
    <path clip-path="url(#p7ff5b81e1d)" d="
M133.846 388.8
L136.054 388.8
L136.054 299.931
L133.846 299.931
z
" style="stroke:#000000;"/>
   </g>
   <g id="patch_32">
    <path clip-path="url(#p7ff5b81e1d)" d="
M136.054 388.8
L138.263 388.8
L138.263 373.989
L136.054 373.989
z
" style="stroke:#000000;"/>
   </g>
   <g id="patch_33">
    <path clip-path="url(#p7ff5b81e1d)" d="
M138.263 388.8
L140.472 388.8
L140.472 334.491
L138.263 334.491
z
" style="stroke:#000000;"/>
   </g>
   <g id="patch_34">
    <path clip-path="url(#p7ff5b81e1d)" d="
M140.472 388.8
L142.681 388.8
L142.681 388.8
L140.472 388.8
z
" style="stroke:#000000;"/>
   </g>
   <g id="patch_35">
    <path clip-path="url(#p7ff5b81e1d)" d="
M142.681 388.8
L144.89 388.8
L144.89 383.863
L142.681 383.863
z
" style="stroke:#000000;"/>
   </g>
   <g id="patch_36">
    <path clip-path="url(#p7ff5b81e1d)" d="
M144.89 388.8
L147.098 388.8
L147.098 354.24
L144.89 354.24
z
" style="stroke:#000000;"/>
   </g>
   <g id="patch_37">
    <path clip-path="url(#p7ff5b81e1d)" d="
M147.098 388.8
L149.307 388.8
L149.307 388.8
L147.098 388.8
z
" style="stroke:#000000;"/>
   </g>
   <g id="patch_38">
    <path clip-path="url(#p7ff5b81e1d)" d="
M149.307 388.8
L151.516 388.8
L151.516 388.8
L149.307 388.8
z
" style="stroke:#000000;"/>
   </g>
   <g id="patch_39">
    <path clip-path="url(#p7ff5b81e1d)" d="
M151.516 388.8
L153.725 388.8
L153.725 378.926
L151.516 378.926
z
" style="stroke:#000000;"/>
   </g>
   <g id="patch_40">
    <path clip-path="url(#p7ff5b81e1d)" d="
M153.725 388.8
L155.933 388.8
L155.933 383.863
L153.725 383.863
z
" style="stroke:#000000;"/>
   </g>
   <g id="patch_41">
    <path clip-path="url(#p7ff5b81e1d)" d="
M155.933 388.8
L158.142 388.8
L158.142 349.303
L155.933 349.303
z
" style="stroke:#000000;"/>
   </g>
   <g id="patch_42">
    <path clip-path="url(#p7ff5b81e1d)" d="
M158.142 388.8
L160.351 388.8
L160.351 354.24
L158.142 354.24
z
" style="stroke:#000000;"/>
   </g>
   <g id="patch_43">
    <path clip-path="url(#p7ff5b81e1d)" d="
M160.351 388.8
L162.56 388.8
L162.56 309.806
L160.351 309.806
z
" style="stroke:#000000;"/>
   </g>
   <g id="patch_44">
    <path clip-path="url(#p7ff5b81e1d)" d="
M162.56 388.8
L164.769 388.8
L164.769 294.994
L162.56 294.994
z
" style="stroke:#000000;"/>
   </g>
   <g id="patch_45">
    <path clip-path="url(#p7ff5b81e1d)" d="
M164.769 388.8
L166.977 388.8
L166.977 319.68
L164.769 319.68
z
" style="stroke:#000000;"/>
   </g>
   <g id="patch_46">
    <path clip-path="url(#p7ff5b81e1d)" d="
M166.977 388.8
L169.186 388.8
L169.186 285.12
L166.977 285.12
z
" style="stroke:#000000;"/>
   </g>
   <g id="patch_47">
    <path clip-path="url(#p7ff5b81e1d)" d="
M169.186 388.8
L171.395 388.8
L171.395 329.554
L169.186 329.554
z
" style="stroke:#000000;"/>
   </g>
   <g id="patch_48">
    <path clip-path="url(#p7ff5b81e1d)" d="
M171.395 388.8
L173.604 388.8
L173.604 299.931
L171.395 299.931
z
" style="stroke:#000000;"/>
   </g>
   <g id="patch_49">
    <path clip-path="url(#p7ff5b81e1d)" d="
M173.604 388.8
L175.812 388.8
L175.812 334.491
L173.604 334.491
z
" style="stroke:#000000;"/>
   </g>
   <g id="patch_50">
    <path clip-path="url(#p7ff5b81e1d)" d="
M175.812 388.8
L178.021 388.8
L178.021 304.869
L175.812 304.869
z
" style="stroke:#000000;"/>
   </g>
   <g id="patch_51">
    <path clip-path="url(#p7ff5b81e1d)" d="
M178.021 388.8
L180.23 388.8
L180.23 290.057
L178.021 290.057
z
" style="stroke:#000000;"/>
   </g>
   <g id="patch_52">
    <path clip-path="url(#p7ff5b81e1d)" d="
M180.23 388.8
L182.439 388.8
L182.439 285.12
L180.23 285.12
z
" style="stroke:#000000;"/>
   </g>
   <g id="patch_53">
    <path clip-path="url(#p7ff5b81e1d)" d="
M182.439 388.8
L184.648 388.8
L184.648 329.554
L182.439 329.554
z
" style="stroke:#000000;"/>
   </g>
   <g id="patch_54">
    <path clip-path="url(#p7ff5b81e1d)" d="
M184.648 388.8
L186.856 388.8
L186.856 334.491
L184.648 334.491
z
" style="stroke:#000000;"/>
   </g>
   <g id="patch_55">
    <path clip-path="url(#p7ff5b81e1d)" d="
M186.856 388.8
L189.065 388.8
L189.065 373.989
L186.856 373.989
z
" style="stroke:#000000;"/>
   </g>
   <g id="patch_56">
    <path clip-path="url(#p7ff5b81e1d)" d="
M189.065 388.8
L191.274 388.8
L191.274 344.366
L189.065 344.366
z
" style="stroke:#000000;"/>
   </g>
   <g id="patch_57">
    <path clip-path="url(#p7ff5b81e1d)" d="
M191.274 388.8
L193.483 388.8
L193.483 314.743
L191.274 314.743
z
" style="stroke:#000000;"/>
   </g>
   <g id="patch_58">
    <path clip-path="url(#p7ff5b81e1d)" d="
M193.483 388.8
L195.691 388.8
L195.691 329.554
L193.483 329.554
z
" style="stroke:#000000;"/>
   </g>
   <g id="patch_59">
    <path clip-path="url(#p7ff5b81e1d)" d="
M195.691 388.8
L197.9 388.8
L197.9 304.869
L195.691 304.869
z
" style="stroke:#000000;"/>
   </g>
   <g id="patch_60">
    <path clip-path="url(#p7ff5b81e1d)" d="
M197.9 388.8
L200.109 388.8
L200.109 191.314
L197.9 191.314
z
" style="stroke:#000000;"/>
   </g>
   <g id="patch_61">
    <path clip-path="url(#p7ff5b81e1d)" d="
M200.109 388.8
L202.318 388.8
L202.318 290.057
L200.109 290.057
z
" style="stroke:#000000;"/>
   </g>
   <g id="patch_62">
    <path clip-path="url(#p7ff5b81e1d)" d="
M202.318 388.8
L204.527 388.8
L204.527 314.743
L202.318 314.743
z
" style="stroke:#000000;"/>
   </g>
   <g id="patch_63">
    <path clip-path="url(#p7ff5b81e1d)" d="
M204.527 388.8
L206.735 388.8
L206.735 314.743
L204.527 314.743
z
" style="stroke:#000000;"/>
   </g>
   <g id="patch_64">
    <path clip-path="url(#p7ff5b81e1d)" d="
M206.735 388.8
L208.944 388.8
L208.944 299.931
L206.735 299.931
z
" style="stroke:#000000;"/>
   </g>
   <g id="patch_65">
    <path clip-path="url(#p7ff5b81e1d)" d="
M208.944 388.8
L211.153 388.8
L211.153 260.434
L208.944 260.434
z
" style="stroke:#000000;"/>
   </g>
   <g id="patch_66">
    <path clip-path="url(#p7ff5b81e1d)" d="
M211.153 388.8
L213.362 388.8
L213.362 290.057
L211.153 290.057
z
" style="stroke:#000000;"/>
   </g>
   <g id="patch_67">
    <path clip-path="url(#p7ff5b81e1d)" d="
M213.362 388.8
L215.57 388.8
L215.57 275.246
L213.362 275.246
z
" style="stroke:#000000;"/>
   </g>
   <g id="patch_68">
    <path clip-path="url(#p7ff5b81e1d)" d="
M215.57 388.8
L217.779 388.8
L217.779 294.994
L215.57 294.994
z
" style="stroke:#000000;"/>
   </g>
   <g id="patch_69">
    <path clip-path="url(#p7ff5b81e1d)" d="
M217.779 388.8
L219.988 388.8
L219.988 294.994
L217.779 294.994
z
" style="stroke:#000000;"/>
   </g>
   <g id="patch_70">
    <path clip-path="url(#p7ff5b81e1d)" d="
M219.988 388.8
L222.197 388.8
L222.197 290.057
L219.988 290.057
z
" style="stroke:#000000;"/>
   </g>
   <g id="patch_71">
    <path clip-path="url(#p7ff5b81e1d)" d="
M222.197 388.8
L224.405 388.8
L224.405 334.491
L222.197 334.491
z
" style="stroke:#000000;"/>
   </g>
   <g id="patch_72">
    <path clip-path="url(#p7ff5b81e1d)" d="
M224.405 388.8
L226.614 388.8
L226.614 280.183
L224.405 280.183
z
" style="stroke:#000000;"/>
   </g>
   <g id="patch_73">
    <path clip-path="url(#p7ff5b81e1d)" d="
M226.614 388.8
L228.823 388.8
L228.823 354.24
L226.614 354.24
z
" style="stroke:#000000;"/>
   </g>
   <g id="patch_74">
    <path clip-path="url(#p7ff5b81e1d)" d="
M228.823 388.8
L231.032 388.8
L231.032 285.12
L228.823 285.12
z
" style="stroke:#000000;"/>
   </g>
   <g id="patch_75">
    <path clip-path="url(#p7ff5b81e1d)" d="
M231.032 388.8
L233.241 388.8
L233.241 339.429
L231.032 339.429
z
" style="stroke:#000000;"/>
   </g>
   <g id="patch_76">
    <path clip-path="url(#p7ff5b81e1d)" d="
M233.241 388.8
L235.449 388.8
L235.449 329.554
L233.241 329.554
z
" style="stroke:#000000;"/>
   </g>
   <g id="patch_77">
    <path clip-path="url(#p7ff5b81e1d)" d="
M235.449 388.8
L237.658 388.8
L237.658 369.051
L235.449 369.051
z
" style="stroke:#000000;"/>
   </g>
   <g id="patch_78">
    <path clip-path="url(#p7ff5b81e1d)" d="
M237.658 388.8
L239.867 388.8
L239.867 329.554
L237.658 329.554
z
" style="stroke:#000000;"/>
   </g>
   <g id="patch_79">
    <path clip-path="url(#p7ff5b81e1d)" d="
M239.867 388.8
L242.076 388.8
L242.076 329.554
L239.867 329.554
z
" style="stroke:#000000;"/>
   </g>
   <g id="patch_80">
    <path clip-path="url(#p7ff5b81e1d)" d="
M242.076 388.8
L244.284 388.8
L244.284 314.743
L242.076 314.743
z
" style="stroke:#000000;"/>
   </g>
   <g id="patch_81">
    <path clip-path="url(#p7ff5b81e1d)" d="
M244.284 388.8
L246.493 388.8
L246.493 324.617
L244.284 324.617
z
" style="stroke:#000000;"/>
   </g>
   <g id="patch_82">
    <path clip-path="url(#p7ff5b81e1d)" d="
M246.493 388.8
L248.702 388.8
L248.702 359.177
L246.493 359.177
z
" style="stroke:#000000;"/>
   </g>
   <g id="patch_83">
    <path clip-path="url(#p7ff5b81e1d)" d="
M248.702 388.8
L250.911 388.8
L250.911 329.554
L248.702 329.554
z
" style="stroke:#000000;"/>
   </g>
   <g id="patch_84">
    <path clip-path="url(#p7ff5b81e1d)" d="
M250.911 388.8
L253.12 388.8
L253.12 359.177
L250.911 359.177
z
" style="stroke:#000000;"/>
   </g>
   <g id="patch_85">
    <path clip-path="url(#p7ff5b81e1d)" d="
M253.12 388.8
L255.328 388.8
L255.328 309.806
L253.12 309.806
z
" style="stroke:#000000;"/>
   </g>
   <g id="patch_86">
    <path clip-path="url(#p7ff5b81e1d)" d="
M255.328 388.8
L257.537 388.8
L257.537 97.5086
L255.328 97.5086
z
" style="stroke:#000000;"/>
   </g>
   <g id="patch_87">
    <path clip-path="url(#p7ff5b81e1d)" d="
M257.537 388.8
L259.746 388.8
L259.746 206.126
L257.537 206.126
z
" style="stroke:#000000;"/>
   </g>
   <g id="patch_88">
    <path clip-path="url(#p7ff5b81e1d)" d="
M259.746 388.8
L261.955 388.8
L261.955 240.686
L259.746 240.686
z
" style="stroke:#000000;"/>
   </g>
   <g id="patch_89">
    <path clip-path="url(#p7ff5b81e1d)" d="
M261.955 388.8
L264.163 388.8
L264.163 319.68
L261.955 319.68
z
" style="stroke:#000000;"/>
   </g>
   <g id="patch_90">
    <path clip-path="url(#p7ff5b81e1d)" d="
M264.163 388.8
L266.372 388.8
L266.372 285.12
L264.163 285.12
z
" style="stroke:#000000;"/>
   </g>
   <g id="patch_91">
    <path clip-path="url(#p7ff5b81e1d)" d="
M266.372 388.8
L268.581 388.8
L268.581 314.743
L266.372 314.743
z
" style="stroke:#000000;"/>
   </g>
   <g id="patch_92">
    <path clip-path="url(#p7ff5b81e1d)" d="
M268.581 388.8
L270.79 388.8
L270.79 270.309
L268.581 270.309
z
" style="stroke:#000000;"/>
   </g>
   <g id="patch_93">
    <path clip-path="url(#p7ff5b81e1d)" d="
M270.79 388.8
L272.999 388.8
L272.999 334.491
L270.79 334.491
z
" style="stroke:#000000;"/>
   </g>
   <g id="patch_94">
    <path clip-path="url(#p7ff5b81e1d)" d="
M272.999 388.8
L275.207 388.8
L275.207 275.246
L272.999 275.246
z
" style="stroke:#000000;"/>
   </g>
   <g id="patch_95">
    <path clip-path="url(#p7ff5b81e1d)" d="
M275.207 388.8
L277.416 388.8
L277.416 240.686
L275.207 240.686
z
" style="stroke:#000000;"/>
   </g>
   <g id="patch_96">
    <path clip-path="url(#p7ff5b81e1d)" d="
M277.416 388.8
L279.625 388.8
L279.625 270.309
L277.416 270.309
z
" style="stroke:#000000;"/>
   </g>
   <g id="patch_97">
    <path clip-path="url(#p7ff5b81e1d)" d="
M279.625 388.8
L281.834 388.8
L281.834 275.246
L279.625 275.246
z
" style="stroke:#000000;"/>
   </g>
   <g id="patch_98">
    <path clip-path="url(#p7ff5b81e1d)" d="
M281.834 388.8
L284.042 388.8
L284.042 171.566
L281.834 171.566
z
" style="stroke:#000000;"/>
   </g>
   <g id="patch_99">
    <path clip-path="url(#p7ff5b81e1d)" d="
M284.042 388.8
L286.251 388.8
L286.251 176.503
L284.042 176.503
z
" style="stroke:#000000;"/>
   </g>
   <g id="patch_100">
    <path clip-path="url(#p7ff5b81e1d)" d="
M286.251 388.8
L288.46 388.8
L288.46 97.5086
L286.251 97.5086
z
" style="stroke:#000000;"/>
   </g>
   <g id="patch_101">
    <path clip-path="url(#p7ff5b81e1d)" d="
M288.46 388.8
L290.669 388.8
L290.669 290.057
L288.46 290.057
z
" style="stroke:#000000;"/>
   </g>
   <g id="patch_102">
    <path clip-path="url(#p7ff5b81e1d)" d="
M290.669 388.8
L292.878 388.8
L292.878 176.503
L290.669 176.503
z
" style="stroke:#000000;"/>
   </g>
   <g id="patch_103">
    <path clip-path="url(#p7ff5b81e1d)" d="
M292.878 388.8
L295.086 388.8
L295.086 156.754
L292.878 156.754
z
" style="stroke:#000000;"/>
   </g>
   <g id="patch_104">
    <path clip-path="url(#p7ff5b81e1d)" d="
M295.086 388.8
L297.295 388.8
L297.295 137.006
L295.086 137.006
z
" style="stroke:#000000;"/>
   </g>
   <g id="patch_105">
    <path clip-path="url(#p7ff5b81e1d)" d="
M297.295 388.8
L299.504 388.8
L299.504 137.006
L297.295 137.006
z
" style="stroke:#000000;"/>
   </g>
   <g id="patch_106">
    <path clip-path="url(#p7ff5b81e1d)" d="
M299.504 388.8
L301.713 388.8
L301.713 112.32
L299.504 112.32
z
" style="stroke:#000000;"/>
   </g>
   <g id="patch_107">
    <path clip-path="url(#p7ff5b81e1d)" d="
M301.713 388.8
L303.921 388.8
L303.921 48.1371
L301.713 48.1371
z
" style="stroke:#000000;"/>
   </g>
   <g id="patch_108">
    <path clip-path="url(#p7ff5b81e1d)" d="
M303.921 388.8
L306.13 388.8
L306.13 107.383
L303.921 107.383
z
" style="stroke:#000000;"/>
   </g>
   <g id="patch_109">
    <path clip-path="url(#p7ff5b81e1d)" d="
M306.13 388.8
L308.339 388.8
L308.339 112.32
L306.13 112.32
z
" style="stroke:#000000;"/>
   </g>
   <g id="patch_110">
    <path clip-path="url(#p7ff5b81e1d)" d="
M308.339 388.8
L310.548 388.8
L310.548 107.383
L308.339 107.383
z
" style="stroke:#000000;"/>
   </g>
   <g id="patch_111">
    <path clip-path="url(#p7ff5b81e1d)" d="
M310.548 388.8
L312.757 388.8
L312.757 141.943
L310.548 141.943
z
" style="stroke:#000000;"/>
   </g>
   <g id="patch_112">
    <path clip-path="url(#p7ff5b81e1d)" d="
M312.757 388.8
L314.965 388.8
L314.965 156.754
L312.757 156.754
z
" style="stroke:#000000;"/>
   </g>
   <g id="patch_113">
    <path clip-path="url(#p7ff5b81e1d)" d="
M314.965 388.8
L317.174 388.8
L317.174 161.691
L314.965 161.691
z
" style="stroke:#000000;"/>
   </g>
   <g id="patch_114">
    <path clip-path="url(#p7ff5b81e1d)" d="
M317.174 388.8
L319.383 388.8
L319.383 176.503
L317.174 176.503
z
" style="stroke:#000000;"/>
   </g>
   <g id="patch_115">
    <path clip-path="url(#p7ff5b81e1d)" d="
M319.383 388.8
L321.592 388.8
L321.592 285.12
L319.383 285.12
z
" style="stroke:#000000;"/>
   </g>
   <g id="patch_116">
    <path clip-path="url(#p7ff5b81e1d)" d="
M321.592 388.8
L323.8 388.8
L323.8 250.56
L321.592 250.56
z
" style="stroke:#000000;"/>
   </g>
   <g id="patch_117">
    <path clip-path="url(#p7ff5b81e1d)" d="
M323.8 388.8
L326.009 388.8
L326.009 275.246
L323.8 275.246
z
" style="stroke:#000000;"/>
   </g>
   <g id="patch_118">
    <path clip-path="url(#p7ff5b81e1d)" d="
M326.009 388.8
L328.218 388.8
L328.218 294.994
L326.009 294.994
z
" style="stroke:#000000;"/>
   </g>
   <g id="patch_119">
    <path clip-path="url(#p7ff5b81e1d)" d="
M328.218 388.8
L330.427 388.8
L330.427 319.68
L328.218 319.68
z
" style="stroke:#000000;"/>
   </g>
   <g id="patch_120">
    <path clip-path="url(#p7ff5b81e1d)" d="
M330.427 388.8
L332.635 388.8
L332.635 329.554
L330.427 329.554
z
" style="stroke:#000000;"/>
   </g>
   <g id="patch_121">
    <path clip-path="url(#p7ff5b81e1d)" d="
M332.635 388.8
L334.844 388.8
L334.844 250.56
L332.635 250.56
z
" style="stroke:#000000;"/>
   </g>
   <g id="patch_122">
    <path clip-path="url(#p7ff5b81e1d)" d="
M334.844 388.8
L337.053 388.8
L337.053 304.869
L334.844 304.869
z
" style="stroke:#000000;"/>
   </g>
   <g id="patch_123">
    <path clip-path="url(#p7ff5b81e1d)" d="
M337.053 388.8
L339.262 388.8
L339.262 299.931
L337.053 299.931
z
" style="stroke:#000000;"/>
   </g>
   <g id="patch_124">
    <path clip-path="url(#p7ff5b81e1d)" d="
M339.262 388.8
L341.471 388.8
L341.471 319.68
L339.262 319.68
z
" style="stroke:#000000;"/>
   </g>
   <g id="patch_125">
    <path clip-path="url(#p7ff5b81e1d)" d="
M341.471 388.8
L343.679 388.8
L343.679 324.617
L341.471 324.617
z
" style="stroke:#000000;"/>
   </g>
   <g id="patch_126">
    <path clip-path="url(#p7ff5b81e1d)" d="
M343.679 388.8
L345.888 388.8
L345.888 304.869
L343.679 304.869
z
" style="stroke:#000000;"/>
   </g>
   <g id="patch_127">
    <path clip-path="url(#p7ff5b81e1d)" d="
M345.888 388.8
L348.097 388.8
L348.097 339.429
L345.888 339.429
z
" style="stroke:#000000;"/>
   </g>
   <g id="patch_128">
    <path clip-path="url(#p7ff5b81e1d)" d="
M348.097 388.8
L350.306 388.8
L350.306 349.303
L348.097 349.303
z
" style="stroke:#000000;"/>
   </g>
   <g id="patch_129">
    <path clip-path="url(#p7ff5b81e1d)" d="
M350.306 388.8
L352.514 388.8
L352.514 388.8
L350.306 388.8
z
" style="stroke:#000000;"/>
   </g>
   <g id="patch_130">
    <path clip-path="url(#p7ff5b81e1d)" d="
M352.514 388.8
L354.723 388.8
L354.723 339.429
L352.514 339.429
z
" style="stroke:#000000;"/>
   </g>
   <g id="patch_131">
    <path clip-path="url(#p7ff5b81e1d)" d="
M354.723 388.8
L356.932 388.8
L356.932 309.806
L354.723 309.806
z
" style="stroke:#000000;"/>
   </g>
   <g id="patch_132">
    <path clip-path="url(#p7ff5b81e1d)" d="
M356.932 388.8
L359.141 388.8
L359.141 369.051
L356.932 369.051
z
" style="stroke:#000000;"/>
   </g>
   <g id="patch_133">
    <path clip-path="url(#p7ff5b81e1d)" d="
M359.141 388.8
L361.35 388.8
L361.35 349.303
L359.141 349.303
z
" style="stroke:#000000;"/>
   </g>
   <g id="patch_134">
    <path clip-path="url(#p7ff5b81e1d)" d="
M361.35 388.8
L363.558 388.8
L363.558 151.817
L361.35 151.817
z
" style="stroke:#000000;"/>
   </g>
   <g id="patch_135">
    <path clip-path="url(#p7ff5b81e1d)" d="
M363.558 388.8
L365.767 388.8
L365.767 265.371
L363.558 265.371
z
" style="stroke:#000000;"/>
   </g>
   <g id="patch_136">
    <path clip-path="url(#p7ff5b81e1d)" d="
M365.767 388.8
L367.976 388.8
L367.976 216
L365.767 216
z
" style="stroke:#000000;"/>
   </g>
   <g id="patch_137">
    <path clip-path="url(#p7ff5b81e1d)" d="
M367.976 388.8
L370.185 388.8
L370.185 314.743
L367.976 314.743
z
" style="stroke:#000000;"/>
   </g>
   <g id="patch_138">
    <path clip-path="url(#p7ff5b81e1d)" d="
M370.185 388.8
L372.393 388.8
L372.393 334.491
L370.185 334.491
z
" style="stroke:#000000;"/>
   </g>
   <g id="patch_139">
    <path clip-path="url(#p7ff5b81e1d)" d="
M372.393 388.8
L374.602 388.8
L374.602 280.183
L372.393 280.183
z
" style="stroke:#000000;"/>
   </g>
   <g id="patch_140">
    <path clip-path="url(#p7ff5b81e1d)" d="
M374.602 388.8
L376.811 388.8
L376.811 270.309
L374.602 270.309
z
" style="stroke:#000000;"/>
   </g>
   <g id="patch_141">
    <path clip-path="url(#p7ff5b81e1d)" d="
M376.811 388.8
L379.02 388.8
L379.02 339.429
L376.811 339.429
z
" style="stroke:#000000;"/>
   </g>
   <g id="patch_142">
    <path clip-path="url(#p7ff5b81e1d)" d="
M379.02 388.8
L381.229 388.8
L381.229 285.12
L379.02 285.12
z
" style="stroke:#000000;"/>
   </g>
   <g id="patch_143">
    <path clip-path="url(#p7ff5b81e1d)" d="
M381.229 388.8
L383.437 388.8
L383.437 334.491
L381.229 334.491
z
" style="stroke:#000000;"/>
   </g>
   <g id="patch_144">
    <path clip-path="url(#p7ff5b81e1d)" d="
M383.437 388.8
L385.646 388.8
L385.646 364.114
L383.437 364.114
z
" style="stroke:#000000;"/>
   </g>
   <g id="patch_145">
    <path clip-path="url(#p7ff5b81e1d)" d="
M385.646 388.8
L387.855 388.8
L387.855 339.429
L385.646 339.429
z
" style="stroke:#000000;"/>
   </g>
   <g id="patch_146">
    <path clip-path="url(#p7ff5b81e1d)" d="
M387.855 388.8
L390.064 388.8
L390.064 344.366
L387.855 344.366
z
" style="stroke:#000000;"/>
   </g>
   <g id="patch_147">
    <path clip-path="url(#p7ff5b81e1d)" d="
M390.064 388.8
L392.272 388.8
L392.272 373.989
L390.064 373.989
z
" style="stroke:#000000;"/>
   </g>
   <g id="patch_148">
    <path clip-path="url(#p7ff5b81e1d)" d="
M392.272 388.8
L394.481 388.8
L394.481 359.177
L392.272 359.177
z
" style="stroke:#000000;"/>
   </g>
   <g id="patch_149">
    <path clip-path="url(#p7ff5b81e1d)" d="
M394.481 388.8
L396.69 388.8
L396.69 378.926
L394.481 378.926
z
" style="stroke:#000000;"/>
   </g>
   <g id="patch_150">
    <path clip-path="url(#p7ff5b81e1d)" d="
M396.69 388.8
L398.899 388.8
L398.899 319.68
L396.69 319.68
z
" style="stroke:#000000;"/>
   </g>
   <g id="patch_151">
    <path clip-path="url(#p7ff5b81e1d)" d="
M398.899 388.8
L401.108 388.8
L401.108 309.806
L398.899 309.806
z
" style="stroke:#000000;"/>
   </g>
   <g id="patch_152">
    <path clip-path="url(#p7ff5b81e1d)" d="
M401.108 388.8
L403.316 388.8
L403.316 378.926
L401.108 378.926
z
" style="stroke:#000000;"/>
   </g>
   <g id="patch_153">
    <path clip-path="url(#p7ff5b81e1d)" d="
M403.316 388.8
L405.525 388.8
L405.525 373.989
L403.316 373.989
z
" style="stroke:#000000;"/>
   </g>
   <g id="patch_154">
    <path clip-path="url(#p7ff5b81e1d)" d="
M405.525 388.8
L407.734 388.8
L407.734 349.303
L405.525 349.303
z
" style="stroke:#000000;"/>
   </g>
   <g id="patch_155">
    <path clip-path="url(#p7ff5b81e1d)" d="
M407.734 388.8
L409.943 388.8
L409.943 324.617
L407.734 324.617
z
" style="stroke:#000000;"/>
   </g>
   <g id="patch_156">
    <path clip-path="url(#p7ff5b81e1d)" d="
M409.943 388.8
L412.151 388.8
L412.151 364.114
L409.943 364.114
z
" style="stroke:#000000;"/>
   </g>
   <g id="patch_157">
    <path clip-path="url(#p7ff5b81e1d)" d="
M412.151 388.8
L414.36 388.8
L414.36 339.429
L412.151 339.429
z
" style="stroke:#000000;"/>
   </g>
   <g id="patch_158">
    <path clip-path="url(#p7ff5b81e1d)" d="
M414.36 388.8
L416.569 388.8
L416.569 235.749
L414.36 235.749
z
" style="stroke:#000000;"/>
   </g>
   <g id="patch_159">
    <path clip-path="url(#p7ff5b81e1d)" d="
M416.569 388.8
L418.778 388.8
L418.778 117.257
L416.569 117.257
z
" style="stroke:#000000;"/>
   </g>
   <g id="patch_160">
    <path clip-path="url(#p7ff5b81e1d)" d="
M418.778 388.8
L420.987 388.8
L420.987 285.12
L418.778 285.12
z
" style="stroke:#000000;"/>
   </g>
   <g id="patch_161">
    <path clip-path="url(#p7ff5b81e1d)" d="
M420.987 388.8
L423.195 388.8
L423.195 319.68
L420.987 319.68
z
" style="stroke:#000000;"/>
   </g>
   <g id="patch_162">
    <path clip-path="url(#p7ff5b81e1d)" d="
M423.195 388.8
L425.404 388.8
L425.404 97.5086
L423.195 97.5086
z
" style="stroke:#000000;"/>
   </g>
   <g id="patch_163">
    <path clip-path="url(#p7ff5b81e1d)" d="
M425.404 388.8
L427.613 388.8
L427.613 186.377
L425.404 186.377
z
" style="stroke:#000000;"/>
   </g>
   <g id="patch_164">
    <path clip-path="url(#p7ff5b81e1d)" d="
M427.613 388.8
L429.822 388.8
L429.822 211.063
L427.613 211.063
z
" style="stroke:#000000;"/>
   </g>
   <g id="patch_165">
    <path clip-path="url(#p7ff5b81e1d)" d="
M429.822 388.8
L432.03 388.8
L432.03 220.937
L429.822 220.937
z
" style="stroke:#000000;"/>
   </g>
   <g id="patch_166">
    <path clip-path="url(#p7ff5b81e1d)" d="
M432.03 388.8
L434.239 388.8
L434.239 235.749
L432.03 235.749
z
" style="stroke:#000000;"/>
   </g>
   <g id="patch_167">
    <path clip-path="url(#p7ff5b81e1d)" d="
M434.239 388.8
L436.448 388.8
L436.448 334.491
L434.239 334.491
z
" style="stroke:#000000;"/>
   </g>
   <g id="patch_168">
    <path clip-path="url(#p7ff5b81e1d)" d="
M436.448 388.8
L438.657 388.8
L438.657 314.743
L436.448 314.743
z
" style="stroke:#000000;"/>
   </g>
   <g id="patch_169">
    <path clip-path="url(#p7ff5b81e1d)" d="
M438.657 388.8
L440.865 388.8
L440.865 280.183
L438.657 280.183
z
" style="stroke:#000000;"/>
   </g>
   <g id="patch_170">
    <path clip-path="url(#p7ff5b81e1d)" d="
M440.865 388.8
L443.074 388.8
L443.074 216
L440.865 216
z
" style="stroke:#000000;"/>
   </g>
   <g id="patch_171">
    <path clip-path="url(#p7ff5b81e1d)" d="
M443.074 388.8
L445.283 388.8
L445.283 359.177
L443.074 359.177
z
" style="stroke:#000000;"/>
   </g>
   <g id="patch_172">
    <path clip-path="url(#p7ff5b81e1d)" d="
M445.283 388.8
L447.492 388.8
L447.492 349.303
L445.283 349.303
z
" style="stroke:#000000;"/>
   </g>
   <g id="patch_173">
    <path clip-path="url(#p7ff5b81e1d)" d="
M447.492 388.8
L449.701 388.8
L449.701 339.429
L447.492 339.429
z
" style="stroke:#000000;"/>
   </g>
   <g id="patch_174">
    <path clip-path="url(#p7ff5b81e1d)" d="
M449.701 388.8
L451.909 388.8
L451.909 304.869
L449.701 304.869
z
" style="stroke:#000000;"/>
   </g>
   <g id="patch_175">
    <path clip-path="url(#p7ff5b81e1d)" d="
M451.909 388.8
L454.118 388.8
L454.118 359.177
L451.909 359.177
z
" style="stroke:#000000;"/>
   </g>
   <g id="patch_176">
    <path clip-path="url(#p7ff5b81e1d)" d="
M454.118 388.8
L456.327 388.8
L456.327 369.051
L454.118 369.051
z
" style="stroke:#000000;"/>
   </g>
   <g id="patch_177">
    <path clip-path="url(#p7ff5b81e1d)" d="
M456.327 388.8
L458.536 388.8
L458.536 359.177
L456.327 359.177
z
" style="stroke:#000000;"/>
   </g>
   <g id="patch_178">
    <path clip-path="url(#p7ff5b81e1d)" d="
M458.536 388.8
L460.744 388.8
L460.744 349.303
L458.536 349.303
z
" style="stroke:#000000;"/>
   </g>
   <g id="patch_179">
    <path clip-path="url(#p7ff5b81e1d)" d="
M460.744 388.8
L462.953 388.8
L462.953 369.051
L460.744 369.051
z
" style="stroke:#000000;"/>
   </g>
   <g id="patch_180">
    <path clip-path="url(#p7ff5b81e1d)" d="
M462.953 388.8
L465.162 388.8
L465.162 299.931
L462.953 299.931
z
" style="stroke:#000000;"/>
   </g>
   <g id="patch_181">
    <path clip-path="url(#p7ff5b81e1d)" d="
M465.162 388.8
L467.371 388.8
L467.371 314.743
L465.162 314.743
z
" style="stroke:#000000;"/>
   </g>
   <g id="patch_182">
    <path clip-path="url(#p7ff5b81e1d)" d="
M467.371 388.8
L469.58 388.8
L469.58 339.429
L467.371 339.429
z
" style="stroke:#000000;"/>
   </g>
   <g id="patch_183">
    <path clip-path="url(#p7ff5b81e1d)" d="
M469.58 388.8
L471.788 388.8
L471.788 359.177
L469.58 359.177
z
" style="stroke:#000000;"/>
   </g>
   <g id="patch_184">
    <path clip-path="url(#p7ff5b81e1d)" d="
M471.788 388.8
L473.997 388.8
L473.997 334.491
L471.788 334.491
z
" style="stroke:#000000;"/>
   </g>
   <g id="patch_185">
    <path clip-path="url(#p7ff5b81e1d)" d="
M473.997 388.8
L476.206 388.8
L476.206 290.057
L473.997 290.057
z
" style="stroke:#000000;"/>
   </g>
   <g id="patch_186">
    <path clip-path="url(#p7ff5b81e1d)" d="
M476.206 388.8
L478.415 388.8
L478.415 265.371
L476.206 265.371
z
" style="stroke:#000000;"/>
   </g>
   <g id="patch_187">
    <path clip-path="url(#p7ff5b81e1d)" d="
M478.415 388.8
L480.623 388.8
L480.623 344.366
L478.415 344.366
z
" style="stroke:#000000;"/>
   </g>
   <g id="patch_188">
    <path clip-path="url(#p7ff5b81e1d)" d="
M480.623 388.8
L482.832 388.8
L482.832 299.931
L480.623 299.931
z
" style="stroke:#000000;"/>
   </g>
   <g id="patch_189">
    <path clip-path="url(#p7ff5b81e1d)" d="
M482.832 388.8
L485.041 388.8
L485.041 334.491
L482.832 334.491
z
" style="stroke:#000000;"/>
   </g>
   <g id="patch_190">
    <path clip-path="url(#p7ff5b81e1d)" d="
M485.041 388.8
L487.25 388.8
L487.25 304.869
L485.041 304.869
z
" style="stroke:#000000;"/>
   </g>
   <g id="patch_191">
    <path clip-path="url(#p7ff5b81e1d)" d="
M487.25 388.8
L489.459 388.8
L489.459 359.177
L487.25 359.177
z
" style="stroke:#000000;"/>
   </g>
   <g id="patch_192">
    <path clip-path="url(#p7ff5b81e1d)" d="
M489.459 388.8
L491.667 388.8
L491.667 299.931
L489.459 299.931
z
" style="stroke:#000000;"/>
   </g>
   <g id="patch_193">
    <path clip-path="url(#p7ff5b81e1d)" d="
M491.667 388.8
L493.876 388.8
L493.876 344.366
L491.667 344.366
z
" style="stroke:#000000;"/>
   </g>
   <g id="patch_194">
    <path clip-path="url(#p7ff5b81e1d)" d="
M493.876 388.8
L496.085 388.8
L496.085 329.554
L493.876 329.554
z
" style="stroke:#000000;"/>
   </g>
   <g id="patch_195">
    <path clip-path="url(#p7ff5b81e1d)" d="
M496.085 388.8
L498.294 388.8
L498.294 329.554
L496.085 329.554
z
" style="stroke:#000000;"/>
   </g>
   <g id="patch_196">
    <path clip-path="url(#p7ff5b81e1d)" d="
M498.294 388.8
L500.502 388.8
L500.502 359.177
L498.294 359.177
z
" style="stroke:#000000;"/>
   </g>
   <g id="patch_197">
    <path clip-path="url(#p7ff5b81e1d)" d="
M500.502 388.8
L502.711 388.8
L502.711 383.863
L500.502 383.863
z
" style="stroke:#000000;"/>
   </g>
   <g id="patch_198">
    <path clip-path="url(#p7ff5b81e1d)" d="
M502.711 388.8
L504.92 388.8
L504.92 181.44
L502.711 181.44
z
" style="stroke:#000000;"/>
   </g>
   <g id="patch_199">
    <path clip-path="url(#p7ff5b81e1d)" d="
M504.92 388.8
L507.129 388.8
L507.129 324.617
L504.92 324.617
z
" style="stroke:#000000;"/>
   </g>
   <g id="patch_200">
    <path clip-path="url(#p7ff5b81e1d)" d="
M507.129 388.8
L509.338 388.8
L509.338 388.8
L507.129 388.8
z
" style="stroke:#000000;"/>
   </g>
   <g id="patch_201">
    <path clip-path="url(#p7ff5b81e1d)" d="
M509.338 388.8
L511.546 388.8
L511.546 373.989
L509.338 373.989
z
" style="stroke:#000000;"/>
   </g>
   <g id="patch_202">
    <path clip-path="url(#p7ff5b81e1d)" d="
M511.546 388.8
L513.755 388.8
L513.755 373.989
L511.546 373.989
z
" style="stroke:#000000;"/>
   </g>
   <g id="matplotlib.axis_1">
    <g id="xtick_1">
     <g id="line2d_1">
      <path clip-path="url(#p7ff5b81e1d)" d="
M72 388.8
L72 43.2" style="fill:none;stroke:#000000;stroke-dasharray:1.000000,3.000000;stroke-dashoffset:0.0;stroke-width:0.5;"/>
     </g>
     <g id="line2d_2">
      <defs>
       <path d="
M0 0
L0 -4" id="m93b0483c22" style="stroke:#000000;stroke-width:0.5;"/>
      </defs>
      <g>
       <use style="stroke:#000000;stroke-width:0.5;" x="72.0" xlink:href="#m93b0483c22" y="388.8"/>
      </g>
     </g>
     <g id="line2d_3">
      <defs>
       <path d="
M0 0
L0 4" id="m741efc42ff" style="stroke:#000000;stroke-width:0.5;"/>
      </defs>
      <g>
       <use style="stroke:#000000;stroke-width:0.5;" x="72.0" xlink:href="#m741efc42ff" y="43.2"/>
      </g>
     </g>
     <g id="text_1">
      <!-- 0.0 -->
      <defs>
       <path d="
M4.15625 35.2969
Q4.15625 48 6.76562 55.7344
Q9.375 63.4844 14.5156 67.6719
Q19.6719 71.875 27.4844 71.875
Q33.25 71.875 37.5938 69.5469
Q41.9375 67.2344 44.7656 62.8594
Q47.6094 58.5 49.2188 52.2188
Q50.8281 45.9531 50.8281 35.2969
Q50.8281 22.7031 48.2344 14.9688
Q45.6562 7.23438 40.5 3
Q35.3594 -1.21875 27.4844 -1.21875
Q17.1406 -1.21875 11.2344 6.20312
Q4.15625 15.1406 4.15625 35.2969
M13.1875 35.2969
Q13.1875 17.6719 17.3125 11.8281
Q21.4375 6 27.4844 6
Q33.5469 6 37.6719 11.8594
Q41.7969 17.7188 41.7969 35.2969
Q41.7969 52.9844 37.6719 58.7812
Q33.5469 64.5938 27.3906 64.5938
Q21.3438 64.5938 17.7188 59.4688
Q13.1875 52.9375 13.1875 35.2969" id="ArialMT-30"/>
       <path d="
M9.07812 0
L9.07812 10.0156
L19.0938 10.0156
L19.0938 0
z
" id="ArialMT-2e"/>
      </defs>
      <g transform="translate(64.19625 401.389375)scale(0.12 -0.12)">
       <use xlink:href="#ArialMT-30"/>
       <use x="55.615234375" xlink:href="#ArialMT-2e"/>
       <use x="83.3984375" xlink:href="#ArialMT-30"/>
      </g>
     </g>
    </g>
    <g id="xtick_2">
     <g id="line2d_4">
      <path clip-path="url(#p7ff5b81e1d)" d="
M161.28 388.8
L161.28 43.2" style="fill:none;stroke:#000000;stroke-dasharray:1.000000,3.000000;stroke-dashoffset:0.0;stroke-width:0.5;"/>
     </g>
     <g id="line2d_5">
      <g>
       <use style="stroke:#000000;stroke-width:0.5;" x="161.28" xlink:href="#m93b0483c22" y="388.8"/>
      </g>
     </g>
     <g id="line2d_6">
      <g>
       <use style="stroke:#000000;stroke-width:0.5;" x="161.28" xlink:href="#m741efc42ff" y="43.2"/>
      </g>
     </g>
     <g id="text_2">
      <!-- 0.2 -->
      <defs>
       <path d="
M50.3438 8.45312
L50.3438 0
L3.03125 0
Q2.9375 3.17188 4.04688 6.10938
Q5.85938 10.9375 9.82812 15.625
Q13.8125 20.3125 21.3438 26.4688
Q33.0156 36.0312 37.1094 41.625
Q41.2188 47.2188 41.2188 52.2031
Q41.2188 57.4219 37.4688 61
Q33.7344 64.5938 27.7344 64.5938
Q21.3906 64.5938 17.5781 60.7812
Q13.7656 56.9844 13.7188 50.25
L4.6875 51.1719
Q5.60938 61.2812 11.6562 66.5781
Q17.7188 71.875 27.9375 71.875
Q38.2344 71.875 44.2344 66.1562
Q50.25 60.4531 50.25 52
Q50.25 47.7031 48.4844 43.5469
Q46.7344 39.4062 42.6562 34.8125
Q38.5781 30.2188 29.1094 22.2188
Q21.1875 15.5781 18.9375 13.2031
Q16.7031 10.8438 15.2344 8.45312
z
" id="ArialMT-32"/>
      </defs>
      <g transform="translate(153.5053125 401.389375)scale(0.12 -0.12)">
       <use xlink:href="#ArialMT-30"/>
       <use x="55.615234375" xlink:href="#ArialMT-2e"/>
       <use x="83.3984375" xlink:href="#ArialMT-32"/>
      </g>
     </g>
    </g>
    <g id="xtick_3">
     <g id="line2d_7">
      <path clip-path="url(#p7ff5b81e1d)" d="
M250.56 388.8
L250.56 43.2" style="fill:none;stroke:#000000;stroke-dasharray:1.000000,3.000000;stroke-dashoffset:0.0;stroke-width:0.5;"/>
     </g>
     <g id="line2d_8">
      <g>
       <use style="stroke:#000000;stroke-width:0.5;" x="250.56" xlink:href="#m93b0483c22" y="388.8"/>
      </g>
     </g>
     <g id="line2d_9">
      <g>
       <use style="stroke:#000000;stroke-width:0.5;" x="250.56" xlink:href="#m741efc42ff" y="43.2"/>
      </g>
     </g>
     <g id="text_3">
      <!-- 0.4 -->
      <defs>
       <path d="
M32.3281 0
L32.3281 17.1406
L1.26562 17.1406
L1.26562 25.2031
L33.9375 71.5781
L41.1094 71.5781
L41.1094 25.2031
L50.7812 25.2031
L50.7812 17.1406
L41.1094 17.1406
L41.1094 0
z

M32.3281 25.2031
L32.3281 57.4688
L9.90625 25.2031
z
" id="ArialMT-34"/>
      </defs>
      <g transform="translate(242.7590625 401.389375)scale(0.12 -0.12)">
       <use xlink:href="#ArialMT-30"/>
       <use x="55.615234375" xlink:href="#ArialMT-2e"/>
       <use x="83.3984375" xlink:href="#ArialMT-34"/>
      </g>
     </g>
    </g>
    <g id="xtick_4">
     <g id="line2d_10">
      <path clip-path="url(#p7ff5b81e1d)" d="
M339.84 388.8
L339.84 43.2" style="fill:none;stroke:#000000;stroke-dasharray:1.000000,3.000000;stroke-dashoffset:0.0;stroke-width:0.5;"/>
     </g>
     <g id="line2d_11">
      <g>
       <use style="stroke:#000000;stroke-width:0.5;" x="339.84" xlink:href="#m93b0483c22" y="388.8"/>
      </g>
     </g>
     <g id="line2d_12">
      <g>
       <use style="stroke:#000000;stroke-width:0.5;" x="339.84" xlink:href="#m741efc42ff" y="43.2"/>
      </g>
     </g>
     <g id="text_4">
      <!-- 0.6 -->
      <defs>
       <path d="
M49.75 54.0469
L41.0156 53.375
Q39.8438 58.5469 37.7031 60.8906
Q34.125 64.6562 28.9062 64.6562
Q24.7031 64.6562 21.5312 62.3125
Q17.3906 59.2812 14.9844 53.4688
Q12.5938 47.6562 12.5 36.9219
Q15.6719 41.75 20.2656 44.0938
Q24.8594 46.4375 29.8906 46.4375
Q38.6719 46.4375 44.8438 39.9688
Q51.0312 33.5 51.0312 23.25
Q51.0312 16.5 48.125 10.7188
Q45.2188 4.9375 40.1406 1.85938
Q35.0625 -1.21875 28.6094 -1.21875
Q17.625 -1.21875 10.6875 6.85938
Q3.76562 14.9375 3.76562 33.5
Q3.76562 54.25 11.4219 63.6719
Q18.1094 71.875 29.4375 71.875
Q37.8906 71.875 43.2812 67.1406
Q48.6875 62.4062 49.75 54.0469
M13.875 23.1875
Q13.875 18.6562 15.7969 14.5
Q17.7188 10.3594 21.1875 8.17188
Q24.6562 6 28.4688 6
Q34.0312 6 38.0312 10.4844
Q42.0469 14.9844 42.0469 22.7031
Q42.0469 30.125 38.0781 34.3906
Q34.125 38.6719 28.125 38.6719
Q22.1719 38.6719 18.0156 34.3906
Q13.875 30.125 13.875 23.1875" id="ArialMT-36"/>
      </defs>
      <g transform="translate(332.0240625 401.389375)scale(0.12 -0.12)">
       <use xlink:href="#ArialMT-30"/>
       <use x="55.615234375" xlink:href="#ArialMT-2e"/>
       <use x="83.3984375" xlink:href="#ArialMT-36"/>
      </g>
     </g>
    </g>
    <g id="xtick_5">
     <g id="line2d_13">
      <path clip-path="url(#p7ff5b81e1d)" d="
M429.12 388.8
L429.12 43.2" style="fill:none;stroke:#000000;stroke-dasharray:1.000000,3.000000;stroke-dashoffset:0.0;stroke-width:0.5;"/>
     </g>
     <g id="line2d_14">
      <g>
       <use style="stroke:#000000;stroke-width:0.5;" x="429.12" xlink:href="#m93b0483c22" y="388.8"/>
      </g>
     </g>
     <g id="line2d_15">
      <g>
       <use style="stroke:#000000;stroke-width:0.5;" x="429.12" xlink:href="#m741efc42ff" y="43.2"/>
      </g>
     </g>
     <g id="text_5">
      <!-- 0.8 -->
      <defs>
       <path d="
M17.6719 38.8125
Q12.2031 40.8281 9.5625 44.5312
Q6.9375 48.25 6.9375 53.4219
Q6.9375 61.2344 12.5469 66.5469
Q18.1719 71.875 27.4844 71.875
Q36.8594 71.875 42.5781 66.4219
Q48.2969 60.9844 48.2969 53.1719
Q48.2969 48.1875 45.6719 44.5
Q43.0625 40.8281 37.75 38.8125
Q44.3438 36.6719 47.7812 31.875
Q51.2188 27.0938 51.2188 20.4531
Q51.2188 11.2812 44.7188 5.03125
Q38.2344 -1.21875 27.6406 -1.21875
Q17.0469 -1.21875 10.5469 5.04688
Q4.04688 11.3281 4.04688 20.7031
Q4.04688 27.6875 7.59375 32.3906
Q11.1406 37.1094 17.6719 38.8125
M15.9219 53.7188
Q15.9219 48.6406 19.1875 45.4062
Q22.4688 42.1875 27.6875 42.1875
Q32.7656 42.1875 36.0156 45.375
Q39.2656 48.5781 39.2656 53.2188
Q39.2656 58.0625 35.9062 61.3594
Q32.5625 64.6562 27.5938 64.6562
Q22.5625 64.6562 19.2344 61.4219
Q15.9219 58.2031 15.9219 53.7188
M13.0938 20.6562
Q13.0938 16.8906 14.875 13.375
Q16.6562 9.85938 20.1719 7.92188
Q23.6875 6 27.7344 6
Q34.0312 6 38.125 10.0469
Q42.2344 14.1094 42.2344 20.3594
Q42.2344 26.7031 38.0156 30.8594
Q33.7969 35.0156 27.4375 35.0156
Q21.2344 35.0156 17.1562 30.9062
Q13.0938 26.8125 13.0938 20.6562" id="ArialMT-38"/>
      </defs>
      <g transform="translate(421.2928125 401.389375)scale(0.12 -0.12)">
       <use xlink:href="#ArialMT-30"/>
       <use x="55.615234375" xlink:href="#ArialMT-2e"/>
       <use x="83.3984375" xlink:href="#ArialMT-38"/>
      </g>
     </g>
    </g>
    <g id="xtick_6">
     <g id="line2d_16">
      <path clip-path="url(#p7ff5b81e1d)" d="
M518.4 388.8
L518.4 43.2" style="fill:none;stroke:#000000;stroke-dasharray:1.000000,3.000000;stroke-dashoffset:0.0;stroke-width:0.5;"/>
     </g>
     <g id="line2d_17">
      <g>
       <use style="stroke:#000000;stroke-width:0.5;" x="518.4" xlink:href="#m93b0483c22" y="388.8"/>
      </g>
     </g>
     <g id="line2d_18">
      <g>
       <use style="stroke:#000000;stroke-width:0.5;" x="518.4" xlink:href="#m741efc42ff" y="43.2"/>
      </g>
     </g>
     <g id="text_6">
      <!-- 1.0 -->
      <defs>
       <path d="
M37.25 0
L28.4688 0
L28.4688 56
Q25.2969 52.9844 20.1406 49.9531
Q14.9844 46.9219 10.8906 45.4062
L10.8906 53.9062
Q18.2656 57.375 23.7812 62.2969
Q29.2969 67.2344 31.5938 71.875
L37.25 71.875
z
" id="ArialMT-31"/>
      </defs>
      <g transform="translate(511.0003125 401.389375)scale(0.12 -0.12)">
       <use xlink:href="#ArialMT-31"/>
       <use x="55.615234375" xlink:href="#ArialMT-2e"/>
       <use x="83.3984375" xlink:href="#ArialMT-30"/>
      </g>
     </g>
    </g>
    <g id="text_7">
     <!-- t sim -->
     <defs>
      <path d="
M25.7812 7.85938
L27.0469 0.09375
Q23.3438 -0.6875 20.4062 -0.6875
Q15.625 -0.6875 12.9844 0.828125
Q10.3594 2.34375 9.28125 4.8125
Q8.20312 7.28125 8.20312 15.1875
L8.20312 45.0156
L1.76562 45.0156
L1.76562 51.8594
L8.20312 51.8594
L8.20312 64.7031
L16.9375 69.9688
L16.9375 51.8594
L25.7812 51.8594
L25.7812 45.0156
L16.9375 45.0156
L16.9375 14.7031
Q16.9375 10.9375 17.4062 9.85938
Q17.875 8.79688 18.9219 8.15625
Q19.9688 7.51562 21.9219 7.51562
Q23.3906 7.51562 25.7812 7.85938" id="ArialMT-74"/>
      <path d="
M6.64062 61.4688
L6.64062 71.5781
L15.4375 71.5781
L15.4375 61.4688
z

M6.64062 0
L6.64062 51.8594
L15.4375 51.8594
L15.4375 0
z
" id="ArialMT-69"/>
      <path d="
M3.07812 15.4844
L11.7656 16.8438
Q12.5 11.625 15.8438 8.84375
Q19.1875 6.0625 25.2031 6.0625
Q31.25 6.0625 34.1719 8.51562
Q37.1094 10.9844 37.1094 14.3125
Q37.1094 17.2812 34.5156 19
Q32.7188 20.1719 25.5312 21.9688
Q15.875 24.4219 12.1406 26.2031
Q8.40625 27.9844 6.46875 31.125
Q4.54688 34.2812 4.54688 38.0938
Q4.54688 41.5469 6.125 44.5
Q7.71875 47.4688 10.4531 49.4219
Q12.5 50.9219 16.0312 51.9688
Q19.5781 53.0312 23.6406 53.0312
Q29.7344 53.0312 34.3438 51.2656
Q38.9688 49.5156 41.1562 46.5
Q43.3594 43.5 44.1875 38.4844
L35.5938 37.3125
Q35.0156 41.3125 32.2031 43.5469
Q29.3906 45.7969 24.2656 45.7969
Q18.2188 45.7969 15.625 43.7969
Q13.0312 41.7969 13.0312 39.1094
Q13.0312 37.4062 14.1094 36.0312
Q15.1875 34.625 17.4844 33.6875
Q18.7969 33.2031 25.25 31.4531
Q34.5781 28.9531 38.25 27.3594
Q41.9375 25.7812 44.0312 22.75
Q46.1406 19.7344 46.1406 15.2344
Q46.1406 10.8438 43.5781 6.95312
Q41.0156 3.07812 36.1719 0.953125
Q31.3438 -1.17188 25.25 -1.17188
Q15.1406 -1.17188 9.84375 3.03125
Q4.54688 7.23438 3.07812 15.4844" id="ArialMT-73"/>
      <path d="
M6.59375 0
L6.59375 51.8594
L14.4531 51.8594
L14.4531 44.5781
Q16.8906 48.3906 20.9375 50.7031
Q25 53.0312 30.1719 53.0312
Q35.9375 53.0312 39.625 50.6406
Q43.3125 48.25 44.8281 43.9531
Q50.9844 53.0312 60.8438 53.0312
Q68.5625 53.0312 72.7031 48.75
Q76.8594 44.4844 76.8594 35.5938
L76.8594 0
L68.1094 0
L68.1094 32.6719
Q68.1094 37.9375 67.25 40.25
Q66.4062 42.5781 64.1562 43.9844
Q61.9219 45.4062 58.8906 45.4062
Q53.4219 45.4062 49.7969 41.7656
Q46.1875 38.1406 46.1875 30.125
L46.1875 0
L37.4062 0
L37.4062 33.6875
Q37.4062 39.5469 35.25 42.4688
Q33.1094 45.4062 28.2188 45.4062
Q24.5156 45.4062 21.3594 43.4531
Q18.2188 41.5 16.7969 37.7344
Q15.375 33.9844 15.375 26.9062
L15.375 0
z
" id="ArialMT-6d"/>
      <path id="ArialMT-20"/>
     </defs>
     <g transform="translate(282.9215625 417.36375)scale(0.12 -0.12)">
      <use xlink:href="#ArialMT-74"/>
      <use x="27.783203125" xlink:href="#ArialMT-20"/>
      <use x="55.56640625" xlink:href="#ArialMT-73"/>
      <use x="105.56640625" xlink:href="#ArialMT-69"/>
      <use x="127.783203125" xlink:href="#ArialMT-6d"/>
     </g>
    </g>
   </g>
   <g id="matplotlib.axis_2">
    <g id="ytick_1">
     <g id="line2d_19">
      <path clip-path="url(#p7ff5b81e1d)" d="
M72 388.8
L518.4 388.8" style="fill:none;stroke:#000000;stroke-dasharray:1.000000,3.000000;stroke-dashoffset:0.0;stroke-width:0.5;"/>
     </g>
     <g id="line2d_20">
      <defs>
       <path d="
M0 0
L4 0" id="m728421d6d4" style="stroke:#000000;stroke-width:0.5;"/>
      </defs>
      <g>
       <use style="stroke:#000000;stroke-width:0.5;" x="72.0" xlink:href="#m728421d6d4" y="388.8"/>
      </g>
     </g>
     <g id="line2d_21">
      <defs>
       <path d="
M0 0
L-4 0" id="mcb0005524f" style="stroke:#000000;stroke-width:0.5;"/>
      </defs>
      <g>
       <use style="stroke:#000000;stroke-width:0.5;" x="518.4" xlink:href="#mcb0005524f" y="388.8"/>
      </g>
     </g>
     <g id="text_8">
      <!-- 0 -->
      <g transform="translate(62.399375 391.9021875)scale(0.12 -0.12)">
       <use xlink:href="#ArialMT-30"/>
      </g>
     </g>
    </g>
    <g id="ytick_2">
     <g id="line2d_22">
      <path clip-path="url(#p7ff5b81e1d)" d="
M72 339.429
L518.4 339.429" style="fill:none;stroke:#000000;stroke-dasharray:1.000000,3.000000;stroke-dashoffset:0.0;stroke-width:0.5;"/>
     </g>
     <g id="line2d_23">
      <g>
       <use style="stroke:#000000;stroke-width:0.5;" x="72.0" xlink:href="#m728421d6d4" y="339.428571429"/>
      </g>
     </g>
     <g id="line2d_24">
      <g>
       <use style="stroke:#000000;stroke-width:0.5;" x="518.4" xlink:href="#mcb0005524f" y="339.428571429"/>
      </g>
     </g>
     <g id="text_9">
      <!-- 10 -->
      <g transform="translate(56.534375 342.530758929)scale(0.12 -0.12)">
       <use xlink:href="#ArialMT-31"/>
       <use x="55.615234375" xlink:href="#ArialMT-30"/>
      </g>
     </g>
    </g>
    <g id="ytick_3">
     <g id="line2d_25">
      <path clip-path="url(#p7ff5b81e1d)" d="
M72 290.057
L518.4 290.057" style="fill:none;stroke:#000000;stroke-dasharray:1.000000,3.000000;stroke-dashoffset:0.0;stroke-width:0.5;"/>
     </g>
     <g id="line2d_26">
      <g>
       <use style="stroke:#000000;stroke-width:0.5;" x="72.0" xlink:href="#m728421d6d4" y="290.057142857"/>
      </g>
     </g>
     <g id="line2d_27">
      <g>
       <use style="stroke:#000000;stroke-width:0.5;" x="518.4" xlink:href="#mcb0005524f" y="290.057142857"/>
      </g>
     </g>
     <g id="text_10">
      <!-- 20 -->
      <g transform="translate(55.58 293.159330357)scale(0.12 -0.12)">
       <use xlink:href="#ArialMT-32"/>
       <use x="55.615234375" xlink:href="#ArialMT-30"/>
      </g>
     </g>
    </g>
    <g id="ytick_4">
     <g id="line2d_28">
      <path clip-path="url(#p7ff5b81e1d)" d="
M72 240.686
L518.4 240.686" style="fill:none;stroke:#000000;stroke-dasharray:1.000000,3.000000;stroke-dashoffset:0.0;stroke-width:0.5;"/>
     </g>
     <g id="line2d_29">
      <g>
       <use style="stroke:#000000;stroke-width:0.5;" x="72.0" xlink:href="#m728421d6d4" y="240.685714286"/>
      </g>
     </g>
     <g id="line2d_30">
      <g>
       <use style="stroke:#000000;stroke-width:0.5;" x="518.4" xlink:href="#mcb0005524f" y="240.685714286"/>
      </g>
     </g>
     <g id="text_11">
      <!-- 30 -->
      <defs>
       <path d="
M4.20312 18.8906
L12.9844 20.0625
Q14.5 12.5938 18.1406 9.29688
Q21.7812 6 27 6
Q33.2031 6 37.4688 10.2969
Q41.75 14.5938 41.75 20.9531
Q41.75 27 37.7969 30.9219
Q33.8438 34.8594 27.7344 34.8594
Q25.25 34.8594 21.5312 33.8906
L22.5156 41.6094
Q23.3906 41.5 23.9219 41.5
Q29.5469 41.5 34.0312 44.4219
Q38.5312 47.3594 38.5312 53.4688
Q38.5312 58.2969 35.25 61.4688
Q31.9844 64.6562 26.8125 64.6562
Q21.6875 64.6562 18.2656 61.4219
Q14.8438 58.2031 13.875 51.7656
L5.07812 53.3281
Q6.6875 62.1562 12.3906 67.0156
Q18.1094 71.875 26.6094 71.875
Q32.4688 71.875 37.3906 69.3594
Q42.3281 66.8438 44.9375 62.5
Q47.5625 58.1562 47.5625 53.2656
Q47.5625 48.6406 45.0625 44.8281
Q42.5781 41.0156 37.7031 38.7656
Q44.0469 37.3125 47.5625 32.6875
Q51.0781 28.0781 51.0781 21.1406
Q51.0781 11.7656 44.2344 5.25
Q37.4062 -1.26562 26.9531 -1.26562
Q17.5312 -1.26562 11.2969 4.34375
Q5.07812 9.96875 4.20312 18.8906" id="ArialMT-33"/>
      </defs>
      <g transform="translate(55.731875 243.787901786)scale(0.12 -0.12)">
       <use xlink:href="#ArialMT-33"/>
       <use x="55.615234375" xlink:href="#ArialMT-30"/>
      </g>
     </g>
    </g>
    <g id="ytick_5">
     <g id="line2d_31">
      <path clip-path="url(#p7ff5b81e1d)" d="
M72 191.314
L518.4 191.314" style="fill:none;stroke:#000000;stroke-dasharray:1.000000,3.000000;stroke-dashoffset:0.0;stroke-width:0.5;"/>
     </g>
     <g id="line2d_32">
      <g>
       <use style="stroke:#000000;stroke-width:0.5;" x="72.0" xlink:href="#m728421d6d4" y="191.314285714"/>
      </g>
     </g>
     <g id="line2d_33">
      <g>
       <use style="stroke:#000000;stroke-width:0.5;" x="518.4" xlink:href="#mcb0005524f" y="191.314285714"/>
      </g>
     </g>
     <g id="text_12">
      <!-- 40 -->
      <g transform="translate(55.379375 194.416473214)scale(0.12 -0.12)">
       <use xlink:href="#ArialMT-34"/>
       <use x="55.615234375" xlink:href="#ArialMT-30"/>
      </g>
     </g>
    </g>
    <g id="ytick_6">
     <g id="line2d_34">
      <path clip-path="url(#p7ff5b81e1d)" d="
M72 141.943
L518.4 141.943" style="fill:none;stroke:#000000;stroke-dasharray:1.000000,3.000000;stroke-dashoffset:0.0;stroke-width:0.5;"/>
     </g>
     <g id="line2d_35">
      <g>
       <use style="stroke:#000000;stroke-width:0.5;" x="72.0" xlink:href="#m728421d6d4" y="141.942857143"/>
      </g>
     </g>
     <g id="line2d_36">
      <g>
       <use style="stroke:#000000;stroke-width:0.5;" x="518.4" xlink:href="#mcb0005524f" y="141.942857143"/>
      </g>
     </g>
     <g id="text_13">
      <!-- 50 -->
      <defs>
       <path d="
M4.15625 18.75
L13.375 19.5312
Q14.4062 12.7969 18.1406 9.39062
Q21.875 6 27.1562 6
Q33.5 6 37.8906 10.7812
Q42.2812 15.5781 42.2812 23.4844
Q42.2812 31 38.0625 35.3438
Q33.8438 39.7031 27 39.7031
Q22.75 39.7031 19.3281 37.7656
Q15.9219 35.8438 13.9688 32.7656
L5.71875 33.8438
L12.6406 70.6094
L48.25 70.6094
L48.25 62.2031
L19.6719 62.2031
L15.8281 42.9688
Q22.2656 47.4688 29.3438 47.4688
Q38.7188 47.4688 45.1562 40.9688
Q51.6094 34.4688 51.6094 24.2656
Q51.6094 14.5469 45.9531 7.46875
Q39.0625 -1.21875 27.1562 -1.21875
Q17.3906 -1.21875 11.2031 4.25
Q5.03125 9.71875 4.15625 18.75" id="ArialMT-35"/>
      </defs>
      <g transform="translate(55.72625 145.045044643)scale(0.12 -0.12)">
       <use xlink:href="#ArialMT-35"/>
       <use x="55.615234375" xlink:href="#ArialMT-30"/>
      </g>
     </g>
    </g>
    <g id="ytick_7">
     <g id="line2d_37">
      <path clip-path="url(#p7ff5b81e1d)" d="
M72 92.5714
L518.4 92.5714" style="fill:none;stroke:#000000;stroke-dasharray:1.000000,3.000000;stroke-dashoffset:0.0;stroke-width:0.5;"/>
     </g>
     <g id="line2d_38">
      <g>
       <use style="stroke:#000000;stroke-width:0.5;" x="72.0" xlink:href="#m728421d6d4" y="92.5714285714"/>
      </g>
     </g>
     <g id="line2d_39">
      <g>
       <use style="stroke:#000000;stroke-width:0.5;" x="518.4" xlink:href="#mcb0005524f" y="92.5714285714"/>
      </g>
     </g>
     <g id="text_14">
      <!-- 60 -->
      <g transform="translate(55.679375 95.6736160714)scale(0.12 -0.12)">
       <use xlink:href="#ArialMT-36"/>
       <use x="55.615234375" xlink:href="#ArialMT-30"/>
      </g>
     </g>
    </g>
    <g id="ytick_8">
     <g id="line2d_40">
      <path clip-path="url(#p7ff5b81e1d)" d="
M72 43.2
L518.4 43.2" style="fill:none;stroke:#000000;stroke-dasharray:1.000000,3.000000;stroke-dashoffset:0.0;stroke-width:0.5;"/>
     </g>
     <g id="line2d_41">
      <g>
       <use style="stroke:#000000;stroke-width:0.5;" x="72.0" xlink:href="#m728421d6d4" y="43.2"/>
      </g>
     </g>
     <g id="line2d_42">
      <g>
       <use style="stroke:#000000;stroke-width:0.5;" x="518.4" xlink:href="#mcb0005524f" y="43.2"/>
      </g>
     </g>
     <g id="text_15">
      <!-- 70 -->
      <defs>
       <path d="
M4.73438 62.2031
L4.73438 70.6562
L51.0781 70.6562
L51.0781 63.8125
Q44.2344 56.5469 37.5156 44.4844
Q30.8125 32.4219 27.1562 19.6719
Q24.5156 10.6875 23.7812 0
L14.75 0
Q14.8906 8.45312 18.0625 20.4062
Q21.2344 32.375 27.1719 43.4844
Q33.1094 54.5938 39.7969 62.2031
z
" id="ArialMT-37"/>
      </defs>
      <g transform="translate(55.795625 46.3021875)scale(0.12 -0.12)">
       <use xlink:href="#ArialMT-37"/>
       <use x="55.615234375" xlink:href="#ArialMT-30"/>
      </g>
     </g>
    </g>
    <g id="text_16">
     <!-- number of passengers -->
     <defs>
      <path d="
M14.7031 0
L6.54688 0
L6.54688 71.5781
L15.3281 71.5781
L15.3281 46.0469
Q20.9062 53.0312 29.5469 53.0312
Q34.3281 53.0312 38.5938 51.0938
Q42.875 49.1719 45.625 45.6719
Q48.3906 42.1875 49.9531 37.25
Q51.5156 32.3281 51.5156 26.7031
Q51.5156 13.375 44.9219 6.09375
Q38.3281 -1.17188 29.1094 -1.17188
Q19.9219 -1.17188 14.7031 6.5
z

M14.5938 26.3125
Q14.5938 17 17.1406 12.8438
Q21.2969 6.0625 28.375 6.0625
Q34.125 6.0625 38.3281 11.0625
Q42.5312 16.0625 42.5312 25.9844
Q42.5312 36.1406 38.5 40.9688
Q34.4688 45.7969 28.7656 45.7969
Q23 45.7969 18.7969 40.7969
Q14.5938 35.7969 14.5938 26.3125" id="ArialMT-62"/>
      <path d="
M40.4375 6.39062
Q35.5469 2.25 31.0312 0.53125
Q26.5156 -1.17188 21.3438 -1.17188
Q12.7969 -1.17188 8.20312 3
Q3.60938 7.17188 3.60938 13.6719
Q3.60938 17.4844 5.34375 20.625
Q7.07812 23.7812 9.89062 25.6875
Q12.7031 27.5938 16.2188 28.5625
Q18.7969 29.25 24.0312 29.8906
Q34.6719 31.1562 39.7031 32.9062
Q39.75 34.7188 39.75 35.2031
Q39.75 40.5781 37.25 42.7812
Q33.8906 45.75 27.25 45.75
Q21.0469 45.75 18.0938 43.5781
Q15.1406 41.4062 13.7188 35.8906
L5.125 37.0625
Q6.29688 42.5781 8.98438 45.9688
Q11.6719 49.3594 16.75 51.1875
Q21.8281 53.0312 28.5156 53.0312
Q35.1562 53.0312 39.2969 51.4688
Q43.4531 49.9062 45.4062 47.5312
Q47.3594 45.1719 48.1406 41.5469
Q48.5781 39.3125 48.5781 33.4531
L48.5781 21.7344
Q48.5781 9.46875 49.1406 6.21875
Q49.7031 2.98438 51.375 0
L42.1875 0
Q40.8281 2.73438 40.4375 6.39062
M39.7031 26.0312
Q34.9062 24.0781 25.3438 22.7031
Q19.9219 21.9219 17.6719 20.9375
Q15.4375 19.9688 14.2031 18.0938
Q12.9844 16.2188 12.9844 13.9219
Q12.9844 10.4062 15.6406 8.0625
Q18.3125 5.71875 23.4375 5.71875
Q28.5156 5.71875 32.4688 7.9375
Q36.4219 10.1562 38.2812 14.0156
Q39.7031 17 39.7031 22.7969
z
" id="ArialMT-61"/>
      <path d="
M4.98438 -4.29688
L13.5312 -5.5625
Q14.0625 -9.51562 16.5 -11.3281
Q19.7812 -13.7656 25.4375 -13.7656
Q31.5469 -13.7656 34.8594 -11.3281
Q38.1875 -8.89062 39.3594 -4.5
Q40.0469 -1.8125 39.9844 6.78125
Q34.2344 0 25.6406 0
Q14.9375 0 9.07812 7.71875
Q3.21875 15.4375 3.21875 26.2188
Q3.21875 33.6406 5.90625 39.9062
Q8.59375 46.1875 13.6875 49.6094
Q18.7969 53.0312 25.6875 53.0312
Q34.8594 53.0312 40.8281 45.6094
L40.8281 51.8594
L48.9219 51.8594
L48.9219 7.03125
Q48.9219 -5.07812 46.4531 -10.125
Q44 -15.1875 38.6406 -18.1094
Q33.2969 -21.0469 25.4844 -21.0469
Q16.2188 -21.0469 10.5 -16.875
Q4.78125 -12.7031 4.98438 -4.29688
M12.25 26.8594
Q12.25 16.6562 16.2969 11.9688
Q20.3594 7.28125 26.4688 7.28125
Q32.5156 7.28125 36.6094 11.9375
Q40.7188 16.6094 40.7188 26.5625
Q40.7188 36.0781 36.5 40.9062
Q32.2812 45.75 26.3125 45.75
Q20.4531 45.75 16.3438 40.9844
Q12.25 36.2344 12.25 26.8594" id="ArialMT-67"/>
      <path d="
M8.6875 0
L8.6875 45.0156
L0.921875 45.0156
L0.921875 51.8594
L8.6875 51.8594
L8.6875 57.375
Q8.6875 62.5938 9.625 65.1406
Q10.8906 68.5625 14.0781 70.6719
Q17.2812 72.7969 23.0469 72.7969
Q26.7656 72.7969 31.25 71.9219
L29.9375 64.2656
Q27.2031 64.75 24.75 64.75
Q20.75 64.75 19.0938 63.0312
Q17.4375 61.3281 17.4375 56.6406
L17.4375 51.8594
L27.5469 51.8594
L27.5469 45.0156
L17.4375 45.0156
L17.4375 0
z
" id="ArialMT-66"/>
      <path d="
M42.0938 16.7031
L51.1719 15.5781
Q49.0312 7.625 43.2188 3.21875
Q37.4062 -1.17188 28.375 -1.17188
Q17 -1.17188 10.3281 5.82812
Q3.65625 12.8438 3.65625 25.4844
Q3.65625 38.5781 10.3906 45.7969
Q17.1406 53.0312 27.875 53.0312
Q38.2812 53.0312 44.875 45.9531
Q51.4688 38.875 51.4688 26.0312
Q51.4688 25.25 51.4219 23.6875
L12.75 23.6875
Q13.2344 15.1406 17.5781 10.5938
Q21.9219 6.0625 28.4219 6.0625
Q33.25 6.0625 36.6719 8.59375
Q40.0938 11.1406 42.0938 16.7031
M13.2344 30.9062
L42.1875 30.9062
Q41.6094 37.4531 38.875 40.7188
Q34.6719 45.7969 27.9844 45.7969
Q21.9219 45.7969 17.7969 41.75
Q13.6719 37.7031 13.2344 30.9062" id="ArialMT-65"/>
      <path d="
M40.5781 0
L40.5781 7.625
Q34.5156 -1.17188 24.125 -1.17188
Q19.5312 -1.17188 15.5469 0.578125
Q11.5781 2.34375 9.64062 5
Q7.71875 7.67188 6.9375 11.5312
Q6.39062 14.1094 6.39062 19.7344
L6.39062 51.8594
L15.1875 51.8594
L15.1875 23.0938
Q15.1875 16.2188 15.7188 13.8125
Q16.5469 10.3594 19.2344 8.375
Q21.9219 6.39062 25.875 6.39062
Q29.8281 6.39062 33.2969 8.42188
Q36.7656 10.4531 38.2031 13.9375
Q39.6562 17.4375 39.6562 24.0781
L39.6562 51.8594
L48.4375 51.8594
L48.4375 0
z
" id="ArialMT-75"/>
      <path d="
M6.59375 -19.875
L6.59375 51.8594
L14.5938 51.8594
L14.5938 45.125
Q17.4375 49.0781 21 51.0469
Q24.5625 53.0312 29.6406 53.0312
Q36.2812 53.0312 41.3594 49.6094
Q46.4375 46.1875 49.0156 39.9531
Q51.6094 33.7344 51.6094 26.3125
Q51.6094 18.3594 48.75 11.9844
Q45.9062 5.60938 40.4531 2.21875
Q35.0156 -1.17188 29 -1.17188
Q24.6094 -1.17188 21.1094 0.6875
Q17.625 2.54688 15.375 5.375
L15.375 -19.875
z

M14.5469 25.6406
Q14.5469 15.625 18.5938 10.8438
Q22.6562 6.0625 28.4219 6.0625
Q34.2812 6.0625 38.4531 11.0156
Q42.625 15.9688 42.625 26.375
Q42.625 36.2812 38.5469 41.2031
Q34.4688 46.1406 28.8125 46.1406
Q23.1875 46.1406 18.8594 40.8906
Q14.5469 35.6406 14.5469 25.6406" id="ArialMT-70"/>
      <path d="
M6.5 0
L6.5 51.8594
L14.4062 51.8594
L14.4062 44
Q17.4375 49.5156 20 51.2656
Q22.5625 53.0312 25.6406 53.0312
Q30.0781 53.0312 34.6719 50.2031
L31.6406 42.0469
Q28.4219 43.9531 25.2031 43.9531
Q22.3125 43.9531 20.0156 42.2188
Q17.7188 40.4844 16.75 37.4062
Q15.2812 32.7188 15.2812 27.1562
L15.2812 0
z
" id="ArialMT-72"/>
      <path d="
M3.32812 25.9219
Q3.32812 40.3281 11.3281 47.2656
Q18.0156 53.0312 27.6406 53.0312
Q38.3281 53.0312 45.1094 46.0156
Q51.9062 39.0156 51.9062 26.6562
Q51.9062 16.6562 48.9062 10.9062
Q45.9062 5.17188 40.1562 2
Q34.4219 -1.17188 27.6406 -1.17188
Q16.75 -1.17188 10.0312 5.8125
Q3.32812 12.7969 3.32812 25.9219
M12.3594 25.9219
Q12.3594 15.9688 16.7031 11.0156
Q21.0469 6.0625 27.6406 6.0625
Q34.1875 6.0625 38.5312 11.0312
Q42.875 16.0156 42.875 26.2188
Q42.875 35.8438 38.5 40.7969
Q34.125 45.75 27.6406 45.75
Q21.0469 45.75 16.7031 40.8125
Q12.3594 35.8906 12.3594 25.9219" id="ArialMT-6f"/>
      <path d="
M6.59375 0
L6.59375 51.8594
L14.5 51.8594
L14.5 44.4844
Q20.2188 53.0312 31 53.0312
Q35.6875 53.0312 39.625 51.3438
Q43.5625 49.6562 45.5156 46.9219
Q47.4688 44.1875 48.25 40.4375
Q48.7344 37.9844 48.7344 31.8906
L48.7344 0
L39.9375 0
L39.9375 31.5469
Q39.9375 36.9219 38.9062 39.5781
Q37.8906 42.2344 35.2812 43.8125
Q32.6719 45.4062 29.1562 45.4062
Q23.5312 45.4062 19.4531 41.8438
Q15.375 38.2812 15.375 28.3281
L15.375 0
z
" id="ArialMT-6e"/>
     </defs>
     <g transform="translate(47.85375 275.4646875)rotate(-90.0)scale(0.12 -0.12)">
      <use xlink:href="#ArialMT-6e"/>
      <use x="55.615234375" xlink:href="#ArialMT-75"/>
      <use x="111.23046875" xlink:href="#ArialMT-6d"/>
      <use x="194.53125" xlink:href="#ArialMT-62"/>
      <use x="250.146484375" xlink:href="#ArialMT-65"/>
      <use x="305.76171875" xlink:href="#ArialMT-72"/>
      <use x="339.0625" xlink:href="#ArialMT-20"/>
      <use x="366.845703125" xlink:href="#ArialMT-6f"/>
      <use x="422.4609375" xlink:href="#ArialMT-66"/>
      <use x="450.244140625" xlink:href="#ArialMT-20"/>
      <use x="478.02734375" xlink:href="#ArialMT-70"/>
      <use x="533.642578125" xlink:href="#ArialMT-61"/>
      <use x="589.2578125" xlink:href="#ArialMT-73"/>
      <use x="639.2578125" xlink:href="#ArialMT-73"/>
      <use x="689.2578125" xlink:href="#ArialMT-65"/>
      <use x="744.873046875" xlink:href="#ArialMT-6e"/>
      <use x="800.48828125" xlink:href="#ArialMT-67"/>
      <use x="856.103515625" xlink:href="#ArialMT-65"/>
      <use x="911.71875" xlink:href="#ArialMT-72"/>
      <use x="945.01953125" xlink:href="#ArialMT-73"/>
     </g>
    </g>
   </g>
   <g id="patch_203">
    <path d="
M72 43.2
L518.4 43.2" style="fill:none;stroke:#000000;"/>
   </g>
   <g id="patch_204">
    <path d="
M518.4 388.8
L518.4 43.2" style="fill:none;stroke:#000000;"/>
   </g>
   <g id="patch_205">
    <path d="
M72 388.8
L518.4 388.8" style="fill:none;stroke:#000000;"/>
   </g>
   <g id="patch_206">
    <path d="
M72 388.8
L72 43.2" style="fill:none;stroke:#000000;"/>
   </g>
   <g id="text_17">
    <!-- Queue popolation for day 5 -->
    <defs>
     <path d="
M6.39062 0
L6.39062 71.5781
L15.1875 71.5781
L15.1875 0
z
" id="ArialMT-6c"/>
     <path d="
M61.9688 7.67188
Q68.5625 3.125 74.125 1.03125
L71.3438 -5.5625
Q63.625 -2.78125 55.9531 3.21875
Q48 -1.21875 38.375 -1.21875
Q28.6562 -1.21875 20.75 3.46875
Q12.8438 8.15625 8.5625 16.6406
Q4.29688 25.1406 4.29688 35.7969
Q4.29688 46.3906 8.59375 55.0781
Q12.8906 63.7656 20.8281 68.3125
Q28.7656 72.8594 38.5781 72.8594
Q48.4844 72.8594 56.4375 68.1406
Q64.4062 63.4219 68.5781 54.9531
Q72.75 46.4844 72.75 35.8438
Q72.75 27 70.0625 19.9375
Q67.3906 12.8906 61.9688 7.67188
M41.1094 19.7812
Q49.3125 17.4844 54.6406 12.9375
Q62.9844 20.5625 62.9844 35.8438
Q62.9844 44.5312 60.0312 51.0156
Q57.0781 57.5156 51.3906 61.1094
Q45.7031 64.7031 38.625 64.7031
Q28.0312 64.7031 21.0469 57.4531
Q14.0625 50.2031 14.0625 35.7969
Q14.0625 21.8281 20.9688 14.3594
Q27.875 6.89062 38.625 6.89062
Q43.7031 6.89062 48.1875 8.79688
Q43.75 11.6719 38.8125 12.8906
z
" id="ArialMT-51"/>
     <path d="
M6.20312 -19.9688
L5.21875 -11.7188
Q8.10938 -12.5 10.25 -12.5
Q13.1875 -12.5 14.9375 -11.5156
Q16.7031 -10.5469 17.8281 -8.79688
Q18.6562 -7.46875 20.5156 -2.25
Q20.75 -1.51562 21.2969 -0.09375
L1.60938 51.8594
L11.0781 51.8594
L21.875 21.8281
Q23.9688 16.1094 25.6406 9.8125
Q27.1562 15.875 29.25 21.625
L40.3281 51.8594
L49.125 51.8594
L29.3906 -0.875
Q26.2188 -9.42188 24.4688 -12.6406
Q22.125 -17 19.0938 -19.0156
Q16.0625 -21.0469 11.8594 -21.0469
Q9.32812 -21.0469 6.20312 -19.9688" id="ArialMT-79"/>
     <path d="
M40.2344 0
L40.2344 6.54688
Q35.2969 -1.17188 25.7344 -1.17188
Q19.5312 -1.17188 14.3281 2.25
Q9.125 5.67188 6.26562 11.7969
Q3.42188 17.9219 3.42188 25.875
Q3.42188 33.6406 6 39.9688
Q8.59375 46.2969 13.7656 49.6562
Q18.9531 53.0312 25.3438 53.0312
Q30.0312 53.0312 33.6875 51.0469
Q37.3594 49.0781 39.6562 45.9062
L39.6562 71.5781
L48.3906 71.5781
L48.3906 0
z

M12.4531 25.875
Q12.4531 15.9219 16.6406 10.9844
Q20.8438 6.0625 26.5625 6.0625
Q32.3281 6.0625 36.3438 10.7656
Q40.375 15.4844 40.375 25.1406
Q40.375 35.7969 36.2656 40.7656
Q32.1719 45.75 26.1719 45.75
Q20.3125 45.75 16.375 40.9688
Q12.4531 36.1875 12.4531 25.875" id="ArialMT-64"/>
    </defs>
    <g transform="translate(208.63125 38.2)scale(0.144 -0.144)">
     <use xlink:href="#ArialMT-51"/>
     <use x="77.783203125" xlink:href="#ArialMT-75"/>
     <use x="133.3984375" xlink:href="#ArialMT-65"/>
     <use x="189.013671875" xlink:href="#ArialMT-75"/>
     <use x="244.62890625" xlink:href="#ArialMT-65"/>
     <use x="300.244140625" xlink:href="#ArialMT-20"/>
     <use x="328.02734375" xlink:href="#ArialMT-70"/>
     <use x="383.642578125" xlink:href="#ArialMT-6f"/>
     <use x="439.2578125" xlink:href="#ArialMT-70"/>
     <use x="494.873046875" xlink:href="#ArialMT-6f"/>
     <use x="550.48828125" xlink:href="#ArialMT-6c"/>
     <use x="572.705078125" xlink:href="#ArialMT-61"/>
     <use x="628.3203125" xlink:href="#ArialMT-74"/>
     <use x="656.103515625" xlink:href="#ArialMT-69"/>
     <use x="678.3203125" xlink:href="#ArialMT-6f"/>
     <use x="733.935546875" xlink:href="#ArialMT-6e"/>
     <use x="789.55078125" xlink:href="#ArialMT-20"/>
     <use x="817.333984375" xlink:href="#ArialMT-66"/>
     <use x="845.1171875" xlink:href="#ArialMT-6f"/>
     <use x="900.732421875" xlink:href="#ArialMT-72"/>
     <use x="934.033203125" xlink:href="#ArialMT-20"/>
     <use x="961.81640625" xlink:href="#ArialMT-64"/>
     <use x="1017.43164062" xlink:href="#ArialMT-61"/>
     <use x="1073.046875" xlink:href="#ArialMT-79"/>
     <use x="1123.046875" xlink:href="#ArialMT-20"/>
     <use x="1150.83007812" xlink:href="#ArialMT-35"/>
    </g>
   </g>
  </g>
 </g>
 <defs>
  <clipPath id="p7ff5b81e1d">
   <rect height="345.6" width="446.4" x="72.0" y="43.2"/>
  </clipPath>
 </defs>
</svg>
