<?xml version="1.0" encoding="utf-8" standalone="no"?>
<!DOCTYPE svg PUBLIC "-//W3C//DTD SVG 1.1//EN"
  "http://www.w3.org/Graphics/SVG/1.1/DTD/svg11.dtd">
<!-- Created with matplotlib (http://matplotlib.org/) -->
<svg height="432pt" version="1.1" viewBox="0 0 576 432" width="576pt" xmlns="http://www.w3.org/2000/svg" xmlns:xlink="http://www.w3.org/1999/xlink">
 <defs>
  <style type="text/css">
*{stroke-linecap:butt;stroke-linejoin:round;}
  </style>
 </defs>
 <g id="figure_1">
  <g id="patch_1">
   <path d="
M0 432
L576 432
L576 0
L0 0
z
" style="fill:#ffffff;"/>
  </g>
  <g id="axes_1">
   <g id="patch_2">
    <path d="
M72 388.8
L518.4 388.8
L518.4 43.2
L72 43.2
z
" style="fill:#ffffff;"/>
   </g>
   <g id="line2d_1">
    <path clip-path="url(#p7ff5b81e1d)" d="
M72 378.093
L72.8932 374.576
L73.7865 370.111
L74.6797 364.515
L75.573 357.596
L76.4662 349.156
L77.5828 336.174
L78.6993 320.188
L79.8159 300.962
L81.1558 273.511
L82.719 235.836
L84.7288 180.858
L87.6318 101.185
L88.7484 75.8844
L89.6416 59.8811
L90.3116 51.0329
L90.9815 45.3499
L91.4281 43.5075
L91.6514 43.2084
L91.8747 43.3396
L92.098 43.9116
L92.5447 46.4157
L92.9913 50.7873
L93.4379 57.0769
L94.1079 70.1748
L94.7778 87.6909
L95.671 117.787
L96.5643 155.16
L97.6808 210.907
L99.244 301.785
L100.584 386.252
L100.807 388.8
L518.4 388.8
L518.4 388.8" style="fill:none;stroke:#8000ff;stroke-linecap:square;"/>
   </g>
   <g id="line2d_2">
    <path clip-path="url(#p7ff5b81e1d)" d="
M100.624 388.8
L100.624 43.2084" style="fill:none;stroke:#8000ff;stroke-linecap:square;"/>
   </g>
   <g id="line2d_3">
    <path clip-path="url(#p7ff5b81e1d)" d="
M72 388.8
L82.4956 388.694
L84.9521 388.471
L86.7386 388.086
L88.0784 387.557
L89.195 386.865
L90.0882 386.074
L90.9815 385.003
L91.8747 383.566
L92.768 381.664
L93.6612 379.177
L94.5545 375.964
L95.4477 371.867
L96.341 366.707
L97.2342 360.295
L98.1275 352.434
L99.244 340.274
L100.361 325.197
L101.477 306.936
L102.817 280.645
L104.157 249.732
L105.943 202.612
L109.963 92.8967
L111.08 69.2271
L111.973 54.9811
L112.643 47.7036
L113.089 44.6976
L113.536 43.2944
L113.759 43.2245
L113.983 43.5906
L114.206 44.4027
L114.653 47.4012
L115.099 52.2823
L115.769 63.2296
L116.439 78.5913
L117.332 105.895
L118.226 140.676
L119.342 193.645
L120.682 268.464
L122.692 388.8
L518.4 388.8
L518.4 388.8" style="fill:none;stroke:#6629fe;stroke-linecap:square;"/>
   </g>
   <g id="line2d_4">
    <path clip-path="url(#p7ff5b81e1d)" d="
M122.612 388.8
L122.612 43.2245" style="fill:none;stroke:#6629fe;stroke-linecap:square;"/>
   </g>
   <g id="line2d_5">
    <path clip-path="url(#p7ff5b81e1d)" d="
M72 388.8
L104.38 388.699
L107.06 388.453
L108.623 388.116
L109.963 387.608
L111.08 386.941
L111.973 386.179
L112.866 385.144
L113.759 383.755
L114.653 381.913
L115.546 379.5
L116.439 376.379
L117.332 372.393
L118.226 367.366
L119.119 361.11
L120.012 353.427
L121.129 341.521
L122.245 326.728
L123.362 308.771
L124.478 287.501
L125.818 257.676
L127.381 217.698
L132.517 80.1891
L133.411 63.1975
L134.081 53.452
L134.751 46.7471
L135.197 44.1604
L135.421 43.4721
L135.644 43.2034
L135.867 43.3658
L136.09 43.9696
L136.537 46.5394
L136.984 50.9787
L137.654 61.2476
L138.324 75.9248
L139.217 102.333
L140.11 136.274
L141.227 188.325
L142.566 262.326
L144.8 388.8
L518.4 388.8
L518.4 388.8" style="fill:none;stroke:#4c50fc;stroke-linecap:square;"/>
   </g>
   <g id="line2d_6">
    <path clip-path="url(#p7ff5b81e1d)" d="
M144.6 388.8
L144.6 43.2034" style="fill:none;stroke:#4c50fc;stroke-linecap:square;"/>
   </g>
   <g id="line2d_7">
    <path clip-path="url(#p7ff5b81e1d)" d="
M72 388.8
L126.488 388.693
L128.944 388.469
L130.731 388.081
L132.071 387.549
L133.187 386.853
L134.081 386.058
L134.974 384.98
L135.867 383.537
L136.76 381.626
L137.654 379.127
L138.547 375.899
L139.44 371.784
L140.333 366.604
L141.227 360.168
L142.12 352.28
L143.236 340.08
L144.353 324.959
L145.47 306.651
L146.809 280.303
L148.149 249.338
L149.936 202.169
L153.955 92.5212
L155.072 68.9321
L155.965 54.7717
L156.635 47.5698
L157.082 44.6193
L157.528 43.2752
L157.752 43.2361
L157.975 43.6337
L158.198 44.4781
L158.645 47.5428
L159.092 52.4921
L159.761 63.544
L160.431 79.0111
L161.325 106.452
L162.218 141.362
L163.334 194.47
L164.674 269.413
L166.684 388.8
L518.4 388.8
L518.4 388.8" style="fill:none;stroke:#3079f7;stroke-linecap:square;"/>
   </g>
   <g id="line2d_8">
    <path clip-path="url(#p7ff5b81e1d)" d="
M166.588 388.8
L166.588 43.2361" style="fill:none;stroke:#3079f7;stroke-linecap:square;"/>
   </g>
   <g id="line2d_9">
    <path clip-path="url(#p7ff5b81e1d)" d="
M72 388.8
L148.373 388.699
L151.052 388.451
L152.616 388.112
L153.955 387.601
L155.072 386.93
L155.965 386.163
L156.858 385.122
L157.752 383.726
L158.645 381.875
L159.538 379.451
L160.431 376.316
L161.325 372.313
L162.218 367.266
L163.111 360.986
L164.004 353.276
L165.121 341.33
L166.238 326.494
L167.354 308.49
L168.471 287.173
L169.811 257.294
L171.374 217.266
L176.51 79.8508
L177.403 62.9332
L178.073 53.2554
L178.743 46.6278
L179.19 44.0975
L179.413 43.4388
L179.636 43.2006
L179.86 43.3941
L180.083 44.0299
L180.529 46.6654
L180.976 51.1726
L181.646 61.5457
L182.316 76.3283
L183.209 102.874
L184.102 136.945
L185.219 189.139
L186.559 263.267
L188.569 388.289
L188.792 388.8
L518.4 388.8
L518.4 388.8" style="fill:none;stroke:#169bf2;stroke-linecap:square;"/>
   </g>
   <g id="line2d_10">
    <path clip-path="url(#p7ff5b81e1d)" d="
M188.577 388.8
L188.577 43.2006" style="fill:none;stroke:#169bf2;stroke-linecap:square;"/>
   </g>
   <g id="line2d_11">
    <path clip-path="url(#p7ff5b81e1d)" d="
M72 388.8
L170.48 388.693
L172.937 388.466
L174.723 388.076
L176.063 387.541
L177.18 386.84
L178.073 386.041
L178.966 384.958
L179.86 383.507
L180.753 381.586
L181.646 379.076
L182.539 375.834
L183.433 371.702
L184.326 366.501
L185.219 360.041
L186.112 352.124
L187.229 339.885
L188.345 324.72
L189.462 306.366
L190.802 279.961
L192.142 248.944
L193.928 201.725
L197.948 92.1466
L199.064 68.6386
L199.958 54.5639
L200.628 47.4379
L201.074 44.543
L201.521 43.2582
L201.744 43.2499
L201.967 43.6791
L202.191 44.5557
L202.637 47.6868
L203.084 52.7044
L203.754 63.8609
L204.424 79.4333
L205.317 107.012
L206.21 142.05
L207.327 195.297
L208.667 270.363
L210.677 388.8
L518.4 388.8
L518.4 388.8" style="fill:none;stroke:#07bbea;stroke-linecap:square;"/>
   </g>
   <g id="line2d_12">
    <path clip-path="url(#p7ff5b81e1d)" d="
M210.565 388.8
L210.565 43.2499" style="fill:none;stroke:#07bbea;stroke-linecap:square;"/>
   </g>
   <g id="line2d_13">
    <path clip-path="url(#p7ff5b81e1d)" d="
M72 388.8
L192.365 388.698
L194.821 388.481
L196.608 388.107
L197.948 387.593
L199.064 386.918
L199.958 386.147
L200.851 385.101
L201.744 383.697
L202.637 381.837
L203.531 379.402
L204.424 376.253
L205.317 372.233
L206.21 367.165
L207.104 360.861
L207.997 353.124
L209.113 341.14
L210.23 326.259
L211.346 308.209
L212.463 286.844
L213.803 256.911
L215.366 216.835
L220.502 79.5137
L221.395 62.6704
L222.065 53.0605
L222.735 46.5104
L223.182 44.0368
L223.405 43.4077
L223.629 43.2
L223.852 43.4248
L224.075 44.0925
L224.522 46.7938
L224.968 51.3689
L225.638 61.8463
L226.308 76.7343
L227.202 103.418
L228.095 137.619
L229.211 189.954
L230.551 264.21
L232.561 388.8
L518.4 388.8
L518.4 388.8" style="fill:none;stroke:#20d5e1;stroke-linecap:square;"/>
   </g>
   <g id="line2d_14">
    <path clip-path="url(#p7ff5b81e1d)" d="
M232.553 388.8
L232.553 43.2" style="fill:none;stroke:#20d5e1;stroke-linecap:square;"/>
   </g>
   <g id="line2d_15">
    <path clip-path="url(#p7ff5b81e1d)" d="
M72 388.8
L214.473 388.692
L216.929 388.464
L218.492 388.137
L219.832 387.643
L220.949 386.993
L221.842 386.249
L222.735 385.239
L223.629 383.882
L224.522 382.08
L225.415 379.718
L226.308 376.66
L227.202 372.749
L228.095 367.813
L228.988 361.663
L229.881 354.102
L230.998 342.369
L232.114 327.771
L233.231 310.024
L234.348 288.968
L235.687 259.386
L237.251 219.633
L240.377 131.997
L241.94 91.773
L243.057 68.3464
L243.95 54.3578
L244.62 47.3079
L245.067 44.4687
L245.513 43.2433
L245.736 43.2659
L245.96 43.7268
L246.406 46.0019
L246.853 50.137
L247.3 56.1847
L247.97 68.9147
L248.64 86.064
L249.533 115.687
L250.426 152.624
L251.543 207.91
L253.106 298.355
L254.669 388.8
L518.4 388.8
L518.4 388.8" style="fill:none;stroke:#3dead5;stroke-linecap:square;"/>
   </g>
   <g id="line2d_16">
    <path clip-path="url(#p7ff5b81e1d)" d="
M254.541 388.8
L254.541 43.2433" style="fill:none;stroke:#3dead5;stroke-linecap:square;"/>
   </g>
   <g id="line2d_17">
    <path clip-path="url(#p7ff5b81e1d)" d="
M72 388.8
L236.357 388.697
L238.814 388.479
L240.6 388.102
L241.94 387.585
L243.057 386.906
L243.95 386.131
L244.843 385.079
L245.736 383.668
L246.63 381.799
L247.523 379.352
L248.416 376.189
L249.309 372.152
L250.203 367.064
L251.096 360.736
L251.989 352.972
L253.106 340.948
L254.222 326.024
L255.339 307.927
L256.679 281.835
L258.019 251.105
L259.805 204.16
L264.048 89.0026
L265.165 66.2
L266.058 52.8673
L266.728 46.395
L267.174 43.9781
L267.398 43.3787
L267.621 43.2016
L267.844 43.4577
L268.068 44.1574
L268.514 46.9247
L268.961 51.5676
L269.631 62.1495
L270.301 77.1428
L271.194 103.965
L272.087 138.295
L273.204 190.772
L274.544 265.154
L276.553 388.8
L518.4 388.8
L518.4 388.8" style="fill:none;stroke:#56f7ca;stroke-linecap:square;"/>
   </g>
   <g id="line2d_18">
    <path clip-path="url(#p7ff5b81e1d)" d="
M276.53 388.8
L276.53 43.2016" style="fill:none;stroke:#56f7ca;stroke-linecap:square;"/>
   </g>
   <g id="line2d_19">
    <path clip-path="url(#p7ff5b81e1d)" d="
M72 388.8
L258.465 388.691
L260.922 388.462
L262.485 388.132
L263.825 387.635
L264.941 386.981
L265.835 386.234
L266.728 385.218
L267.621 383.854
L268.514 382.043
L269.408 379.67
L270.301 376.598
L271.194 372.671
L272.087 367.714
L272.98 361.541
L273.874 353.953
L274.99 342.182
L276.107 327.54
L277.223 309.746
L278.34 288.643
L279.68 259.007
L281.243 219.204
L286.603 76.6961
L287.496 60.4984
L288.166 51.4747
L288.836 45.5924
L289.282 43.6052
L289.506 43.2306
L289.729 43.2842
L289.952 43.7767
L290.399 46.1172
L290.845 50.3199
L291.292 56.4367
L291.962 69.2718
L292.632 86.526
L293.525 116.285
L294.418 153.347
L295.535 208.765
L297.098 299.334
L298.438 383.709
L298.661 388.8
L518.4 388.8
L518.4 388.8" style="fill:none;stroke:#72febb;stroke-linecap:square;"/>
   </g>
   <g id="line2d_20">
    <path clip-path="url(#p7ff5b81e1d)" d="
M298.518 388.8
L298.518 43.2306" style="fill:none;stroke:#72febb;stroke-linecap:square;"/>
   </g>
   <g id="line2d_21">
    <path clip-path="url(#p7ff5b81e1d)" d="
M72 388.8
L280.35 388.696
L282.806 388.477
L284.593 388.098
L285.933 387.577
L287.049 386.894
L287.942 386.115
L288.836 385.057
L289.729 383.639
L290.622 381.761
L291.515 379.302
L292.409 376.125
L293.302 372.071
L294.195 366.962
L295.088 360.611
L295.982 352.819
L297.098 340.756
L298.215 325.789
L299.331 307.645
L300.671 281.496
L302.011 250.713
L303.797 203.718
L308.04 88.6373
L309.157 65.9197
L310.05 52.6758
L310.72 46.2815
L311.167 43.9215
L311.39 43.3519
L311.613 43.2054
L311.837 43.4928
L312.06 44.2246
L312.507 47.0579
L312.953 51.7689
L313.623 62.4551
L314.293 77.5538
L315.186 104.514
L316.08 138.973
L317.196 191.591
L318.536 266.098
L320.546 388.8
L518.4 388.8
L518.4 388.8" style="fill:none;stroke:#8cfead;stroke-linecap:square;"/>
   </g>
   <g id="line2d_22">
    <path clip-path="url(#p7ff5b81e1d)" d="
M320.506 388.8
L320.506 43.2054" style="fill:none;stroke:#8cfead;stroke-linecap:square;"/>
   </g>
   <g id="line2d_23">
    <path clip-path="url(#p7ff5b81e1d)" d="
M72 388.8
L302.458 388.69
L304.914 388.459
L306.477 388.128
L307.817 387.628
L308.934 386.97
L309.827 386.218
L310.72 385.197
L311.613 383.826
L312.507 382.006
L313.4 379.622
L314.293 376.536
L315.186 372.592
L316.08 367.615
L316.973 361.418
L317.866 353.803
L318.983 341.994
L320.099 327.309
L321.216 309.468
L322.332 288.318
L323.672 258.627
L325.235 218.774
L330.595 76.3702
L331.488 60.2501
L332.158 51.2965
L332.828 45.4938
L333.275 43.5645
L333.498 43.2201
L333.721 43.3047
L333.945 43.829
L334.391 46.2349
L334.838 50.5052
L335.284 56.6911
L335.954 69.6314
L336.624 86.9905
L337.518 116.884
L338.411 154.071
L339.527 209.621
L341.091 300.315
L342.43 384.727
L342.654 388.8
L518.4 388.8
L518.4 388.8" style="fill:none;stroke:#a8f79c;stroke-linecap:square;"/>
   </g>
   <g id="line2d_24">
    <path clip-path="url(#p7ff5b81e1d)" d="
M342.494 388.8
L342.494 43.2201" style="fill:none;stroke:#a8f79c;stroke-linecap:square;"/>
   </g>
   <g id="line2d_25">
    <path clip-path="url(#p7ff5b81e1d)" d="
M72 388.8
L324.342 388.695
L326.799 388.475
L328.585 388.093
L329.925 387.569
L331.042 386.883
L331.935 386.099
L332.828 385.036
L333.721 383.61
L334.615 381.722
L335.508 379.252
L336.401 376.061
L337.294 371.989
L338.187 366.86
L339.081 360.485
L339.974 352.665
L341.091 340.563
L342.207 325.552
L343.324 307.362
L344.664 281.156
L346.003 250.321
L347.79 203.275
L351.81 93.4609
L352.926 69.6713
L353.819 55.298
L354.489 47.9076
L354.936 44.8188
L355.382 43.3273
L355.606 43.2114
L355.829 43.5303
L356.052 44.2942
L356.499 47.1935
L356.946 51.9726
L357.616 62.7633
L358.286 77.9673
L359.179 105.065
L360.072 139.653
L361.189 192.412
L362.528 267.044
L364.538 388.8
L518.4 388.8
L518.4 388.8" style="fill:none;stroke:#c2ea8c;stroke-linecap:square;"/>
   </g>
   <g id="line2d_26">
    <path clip-path="url(#p7ff5b81e1d)" d="
M364.482 388.8
L364.482 43.2114" style="fill:none;stroke:#c2ea8c;stroke-linecap:square;"/>
   </g>
   <g id="line2d_27">
    <path clip-path="url(#p7ff5b81e1d)" d="
M72 388.8
L346.45 388.689
L348.906 388.457
L350.47 388.123
L351.81 387.62
L352.926 386.959
L353.819 386.203
L354.713 385.176
L355.606 383.797
L356.499 381.969
L357.392 379.573
L358.286 376.473
L359.179 372.512
L360.072 367.516
L360.965 361.295
L361.859 353.653
L362.975 341.805
L364.092 327.077
L365.208 309.19
L366.325 287.991
L367.665 258.247
L369.228 218.343
L374.364 80.6981
L375.257 63.5961
L375.927 53.7498
L376.597 46.9295
L377.044 44.2584
L377.267 43.5259
L377.49 43.2118
L377.714 43.3275
L377.937 43.8836
L378.384 46.355
L378.83 50.6929
L379.277 56.948
L379.947 69.9936
L380.617 87.4575
L381.51 117.486
L382.403 154.797
L383.52 210.479
L385.083 301.296
L386.423 385.745
L386.646 388.8
L518.4 388.8
L518.4 388.8" style="fill:none;stroke:#ded579;stroke-linecap:square;"/>
   </g>
   <g id="line2d_28">
    <path clip-path="url(#p7ff5b81e1d)" d="
M386.471 388.8
L386.471 43.2118" style="fill:none;stroke:#ded579;stroke-linecap:square;"/>
   </g>
   <g id="line2d_29">
    <path clip-path="url(#p7ff5b81e1d)" d="
M72 388.8
L368.335 388.695
L370.791 388.472
L372.577 388.088
L373.917 387.561
L375.034 386.871
L375.927 386.083
L376.82 385.014
L377.714 383.581
L378.607 381.684
L379.5 379.202
L380.393 375.997
L381.287 371.907
L382.18 366.758
L383.073 360.358
L383.966 352.511
L385.083 340.37
L386.199 325.315
L387.316 307.078
L388.656 280.815
L389.996 249.928
L391.782 202.832
L395.802 93.084
L396.918 69.3744
L397.812 55.086
L398.482 47.7709
L398.928 44.7374
L399.375 43.3048
L399.598 43.2196
L399.822 43.57
L400.045 44.3661
L400.491 47.3315
L400.938 52.1787
L401.608 63.074
L402.278 78.3833
L403.171 105.618
L404.064 140.336
L405.181 193.234
L406.521 267.992
L408.531 388.8
L518.4 388.8
L518.4 388.8" style="fill:none;stroke:#f9bb66;stroke-linecap:square;"/>
   </g>
   <g id="line2d_30">
    <path clip-path="url(#p7ff5b81e1d)" d="
M408.459 388.8
L408.459 43.2196" style="fill:none;stroke:#f9bb66;stroke-linecap:square;"/>
   </g>
   <g id="line2d_31">
    <path clip-path="url(#p7ff5b81e1d)" d="
M72 388.8
L390.219 388.7
L392.899 388.454
L394.462 388.119
L395.802 387.612
L396.918 386.947
L397.812 386.187
L398.705 385.155
L399.598 383.769
L400.491 381.931
L401.385 379.525
L402.278 376.411
L403.171 372.433
L404.064 367.416
L404.958 361.172
L405.851 353.503
L406.967 341.615
L408.084 326.844
L409.201 308.91
L410.317 287.664
L411.657 257.866
L413.22 217.912
L418.356 80.358
L419.25 63.3296
L419.92 53.5506
L420.589 46.8073
L421.036 44.1924
L421.259 43.4894
L421.483 43.2056
L421.706 43.3525
L421.929 43.9404
L422.376 46.4775
L422.823 50.8831
L423.269 57.2074
L423.939 70.3582
L424.609 87.927
L425.502 118.091
L426.396 155.526
L427.512 211.339
L429.075 302.278
L430.415 386.763
L430.639 388.8
L518.4 388.8
L518.4 388.8" style="fill:none;stroke:#ff9b52;stroke-linecap:square;"/>
   </g>
   <g id="line2d_32">
    <path clip-path="url(#p7ff5b81e1d)" d="
M430.447 388.8
L430.447 43.2056" style="fill:none;stroke:#ff9b52;stroke-linecap:square;"/>
   </g>
   <g id="line2d_33">
    <path clip-path="url(#p7ff5b81e1d)" d="
M72 388.8
L412.327 388.694
L414.783 388.47
L416.57 388.083
L417.91 387.553
L419.026 386.859
L419.92 386.066
L420.813 384.991
L421.706 383.551
L422.599 381.645
L423.493 379.152
L424.386 375.932
L425.279 371.825
L426.172 366.655
L427.066 360.232
L427.959 352.357
L429.075 340.176
L430.192 325.078
L431.308 306.793
L432.648 280.473
L433.988 249.534
L435.775 202.389
L439.794 92.708
L440.911 69.0788
L441.804 54.8757
L442.474 47.6361
L442.921 44.658
L443.367 43.2845
L443.591 43.2301
L443.814 43.6119
L444.037 44.4403
L444.484 47.472
L444.93 52.3873
L445.6 63.3871
L446.27 78.8018
L447.164 106.174
L448.057 141.02
L449.173 194.059
L450.513 268.94
L452.523 388.8
L518.4 388.8
L518.4 388.8" style="fill:none;stroke:#ff793e;stroke-linecap:square;"/>
   </g>
   <g id="line2d_34">
    <path clip-path="url(#p7ff5b81e1d)" d="
M452.435 388.8
L452.435 43.2301" style="fill:none;stroke:#ff793e;stroke-linecap:square;"/>
   </g>
   <g id="line2d_35">
    <path clip-path="url(#p7ff5b81e1d)" d="
M72 388.8
L434.212 388.699
L436.891 388.452
L438.454 388.114
L439.794 387.605
L440.911 386.935
L441.804 386.171
L442.697 385.133
L443.591 383.74
L444.484 381.894
L445.377 379.476
L446.27 376.348
L447.164 372.353
L448.057 367.316
L448.95 361.048
L449.843 353.352
L450.96 341.425
L452.076 326.61
L453.193 308.63
L454.31 287.337
L455.649 257.484
L457.213 217.481
L462.349 80.0191
L463.242 63.0646
L463.912 53.3531
L464.582 46.6869
L465.029 44.1286
L465.252 43.4551
L465.475 43.2017
L465.698 43.3797
L465.922 43.9996
L466.368 46.6023
L466.815 51.0757
L467.485 61.3969
L468.155 76.1271
L469.048 102.605
L469.941 136.611
L471.058 188.733
L472.398 262.799
L474.408 387.782
L474.631 388.8
L518.4 388.8
L518.4 388.8" style="fill:none;stroke:#ff5029;stroke-linecap:square;"/>
   </g>
   <g id="line2d_36">
    <path clip-path="url(#p7ff5b81e1d)" d="
M474.424 388.8
L474.424 43.2017" style="fill:none;stroke:#ff5029;stroke-linecap:square;"/>
   </g>
   <g id="line2d_37">
    <path clip-path="url(#p7ff5b81e1d)" d="
M72 388.8
L456.319 388.693
L458.776 388.468
L460.562 388.078
L461.902 387.545
L463.019 386.846
L463.912 386.05
L464.805 384.969
L465.698 383.522
L466.592 381.606
L467.485 379.101
L468.378 375.867
L469.271 371.743
L470.165 366.552
L471.058 360.104
L471.951 352.202
L473.068 339.982
L474.184 324.839
L475.301 306.508
L476.641 280.131
L477.981 249.14
L479.767 201.946
L483.787 92.333
L484.903 68.7846
L485.796 54.6671
L486.466 47.5033
L486.913 44.5807
L487.36 43.2664
L487.583 43.2427
L487.806 43.6562
L488.03 44.5168
L488.476 47.6148
L488.923 52.5984
L489.593 63.7028
L490.263 79.2228
L491.156 106.733
L492.049 141.707
L493.166 194.885
L494.506 269.889
L496.515 388.8
L518.4 388.8
L518.4 388.8" style="fill:none;stroke:#ff2914;stroke-linecap:square;"/>
   </g>
   <g id="line2d_38">
    <path clip-path="url(#p7ff5b81e1d)" d="
M496.412 388.8
L496.412 43.2427" style="fill:none;stroke:#ff2914;stroke-linecap:square;"/>
   </g>
   <g id="line2d_39">
    <path clip-path="url(#p7ff5b81e1d)" d="
M72 388.8
L478.204 388.698
L480.66 388.483
L482.447 388.109
L483.787 387.597
L484.903 386.924
L485.796 386.155
L486.69 385.112
L487.583 383.712
L488.476 381.856
L489.369 379.426
L490.263 376.284
L491.156 372.273
L492.049 367.215
L492.942 360.923
L493.836 353.2
L494.952 341.235
L496.069 326.376
L497.185 308.349
L498.302 287.008
L499.642 257.102
L501.205 217.05
L506.341 79.6814
L507.234 62.8011
L507.904 53.1573
L508.574 46.5686
L509.021 44.0668
L509.244 43.4229
L509.468 43.2
L509.691 43.4092
L509.914 44.061
L510.361 46.7296
L510.807 51.2708
L511.477 61.6963
L512.147 76.5318
L513.041 103.147
L513.934 137.283
L515.05 189.548
L516.39 263.74
L518.4 388.8
L518.4 388.8" style="fill:none;stroke:#ff0000;stroke-linecap:square;"/>
   </g>
   <g id="line2d_40">
    <path clip-path="url(#p7ff5b81e1d)" d="
M518.4 388.8
L518.4 43.2" style="fill:none;stroke:#ff0000;stroke-linecap:square;"/>
   </g>
   <g id="matplotlib.axis_1">
    <g id="xtick_1">
     <g id="line2d_41">
      <path clip-path="url(#p7ff5b81e1d)" d="
M72 388.8
L72 43.2" style="fill:none;stroke:#000000;stroke-dasharray:1.000000,3.000000;stroke-dashoffset:0.0;stroke-width:0.5;"/>
     </g>
     <g id="line2d_42">
      <defs>
       <path d="
M0 0
L0 -4" id="m93b0483c22" style="stroke:#000000;stroke-width:0.5;"/>
      </defs>
      <g>
       <use style="stroke:#000000;stroke-width:0.5;" x="72.0" xlink:href="#m93b0483c22" y="388.8"/>
      </g>
     </g>
     <g id="line2d_43">
      <defs>
       <path d="
M0 0
L0 4" id="m741efc42ff" style="stroke:#000000;stroke-width:0.5;"/>
      </defs>
      <g>
       <use style="stroke:#000000;stroke-width:0.5;" x="72.0" xlink:href="#m741efc42ff" y="43.2"/>
      </g>
     </g>
     <g id="text_1">
      <!-- 0.0 -->
      <defs>
       <path d="
M4.15625 35.2969
Q4.15625 48 6.76562 55.7344
Q9.375 63.4844 14.5156 67.6719
Q19.6719 71.875 27.4844 71.875
Q33.25 71.875 37.5938 69.5469
Q41.9375 67.2344 44.7656 62.8594
Q47.6094 58.5 49.2188 52.2188
Q50.8281 45.9531 50.8281 35.2969
Q50.8281 22.7031 48.2344 14.9688
Q45.6562 7.23438 40.5 3
Q35.3594 -1.21875 27.4844 -1.21875
Q17.1406 -1.21875 11.2344 6.20312
Q4.15625 15.1406 4.15625 35.2969
M13.1875 35.2969
Q13.1875 17.6719 17.3125 11.8281
Q21.4375 6 27.4844 6
Q33.5469 6 37.6719 11.8594
Q41.7969 17.7188 41.7969 35.2969
Q41.7969 52.9844 37.6719 58.7812
Q33.5469 64.5938 27.3906 64.5938
Q21.3438 64.5938 17.7188 59.4688
Q13.1875 52.9375 13.1875 35.2969" id="ArialMT-30"/>
       <path d="
M9.07812 0
L9.07812 10.0156
L19.0938 10.0156
L19.0938 0
z
" id="ArialMT-2e"/>
      </defs>
      <g transform="translate(64.19625 401.389375)scale(0.12 -0.12)">
       <use xlink:href="#ArialMT-30"/>
       <use x="55.615234375" xlink:href="#ArialMT-2e"/>
       <use x="83.3984375" xlink:href="#ArialMT-30"/>
      </g>
     </g>
    </g>
    <g id="xtick_2">
     <g id="line2d_44">
      <path clip-path="url(#p7ff5b81e1d)" d="
M161.28 388.8
L161.28 43.2" style="fill:none;stroke:#000000;stroke-dasharray:1.000000,3.000000;stroke-dashoffset:0.0;stroke-width:0.5;"/>
     </g>
     <g id="line2d_45">
      <g>
       <use style="stroke:#000000;stroke-width:0.5;" x="161.28" xlink:href="#m93b0483c22" y="388.8"/>
      </g>
     </g>
     <g id="line2d_46">
      <g>
       <use style="stroke:#000000;stroke-width:0.5;" x="161.28" xlink:href="#m741efc42ff" y="43.2"/>
      </g>
     </g>
     <g id="text_2">
      <!-- 0.2 -->
      <defs>
       <path d="
M50.3438 8.45312
L50.3438 0
L3.03125 0
Q2.9375 3.17188 4.04688 6.10938
Q5.85938 10.9375 9.82812 15.625
Q13.8125 20.3125 21.3438 26.4688
Q33.0156 36.0312 37.1094 41.625
Q41.2188 47.2188 41.2188 52.2031
Q41.2188 57.4219 37.4688 61
Q33.7344 64.5938 27.7344 64.5938
Q21.3906 64.5938 17.5781 60.7812
Q13.7656 56.9844 13.7188 50.25
L4.6875 51.1719
Q5.60938 61.2812 11.6562 66.5781
Q17.7188 71.875 27.9375 71.875
Q38.2344 71.875 44.2344 66.1562
Q50.25 60.4531 50.25 52
Q50.25 47.7031 48.4844 43.5469
Q46.7344 39.4062 42.6562 34.8125
Q38.5781 30.2188 29.1094 22.2188
Q21.1875 15.5781 18.9375 13.2031
Q16.7031 10.8438 15.2344 8.45312
z
" id="ArialMT-32"/>
      </defs>
      <g transform="translate(153.5053125 401.389375)scale(0.12 -0.12)">
       <use xlink:href="#ArialMT-30"/>
       <use x="55.615234375" xlink:href="#ArialMT-2e"/>
       <use x="83.3984375" xlink:href="#ArialMT-32"/>
      </g>
     </g>
    </g>
    <g id="xtick_3">
     <g id="line2d_47">
      <path clip-path="url(#p7ff5b81e1d)" d="
M250.56 388.8
L250.56 43.2" style="fill:none;stroke:#000000;stroke-dasharray:1.000000,3.000000;stroke-dashoffset:0.0;stroke-width:0.5;"/>
     </g>
     <g id="line2d_48">
      <g>
       <use style="stroke:#000000;stroke-width:0.5;" x="250.56" xlink:href="#m93b0483c22" y="388.8"/>
      </g>
     </g>
     <g id="line2d_49">
      <g>
       <use style="stroke:#000000;stroke-width:0.5;" x="250.56" xlink:href="#m741efc42ff" y="43.2"/>
      </g>
     </g>
     <g id="text_3">
      <!-- 0.4 -->
      <defs>
       <path d="
M32.3281 0
L32.3281 17.1406
L1.26562 17.1406
L1.26562 25.2031
L33.9375 71.5781
L41.1094 71.5781
L41.1094 25.2031
L50.7812 25.2031
L50.7812 17.1406
L41.1094 17.1406
L41.1094 0
z

M32.3281 25.2031
L32.3281 57.4688
L9.90625 25.2031
z
" id="ArialMT-34"/>
      </defs>
      <g transform="translate(242.7590625 401.389375)scale(0.12 -0.12)">
       <use xlink:href="#ArialMT-30"/>
       <use x="55.615234375" xlink:href="#ArialMT-2e"/>
       <use x="83.3984375" xlink:href="#ArialMT-34"/>
      </g>
     </g>
    </g>
    <g id="xtick_4">
     <g id="line2d_50">
      <path clip-path="url(#p7ff5b81e1d)" d="
M339.84 388.8
L339.84 43.2" style="fill:none;stroke:#000000;stroke-dasharray:1.000000,3.000000;stroke-dashoffset:0.0;stroke-width:0.5;"/>
     </g>
     <g id="line2d_51">
      <g>
       <use style="stroke:#000000;stroke-width:0.5;" x="339.84" xlink:href="#m93b0483c22" y="388.8"/>
      </g>
     </g>
     <g id="line2d_52">
      <g>
       <use style="stroke:#000000;stroke-width:0.5;" x="339.84" xlink:href="#m741efc42ff" y="43.2"/>
      </g>
     </g>
     <g id="text_4">
      <!-- 0.6 -->
      <defs>
       <path d="
M49.75 54.0469
L41.0156 53.375
Q39.8438 58.5469 37.7031 60.8906
Q34.125 64.6562 28.9062 64.6562
Q24.7031 64.6562 21.5312 62.3125
Q17.3906 59.2812 14.9844 53.4688
Q12.5938 47.6562 12.5 36.9219
Q15.6719 41.75 20.2656 44.0938
Q24.8594 46.4375 29.8906 46.4375
Q38.6719 46.4375 44.8438 39.9688
Q51.0312 33.5 51.0312 23.25
Q51.0312 16.5 48.125 10.7188
Q45.2188 4.9375 40.1406 1.85938
Q35.0625 -1.21875 28.6094 -1.21875
Q17.625 -1.21875 10.6875 6.85938
Q3.76562 14.9375 3.76562 33.5
Q3.76562 54.25 11.4219 63.6719
Q18.1094 71.875 29.4375 71.875
Q37.8906 71.875 43.2812 67.1406
Q48.6875 62.4062 49.75 54.0469
M13.875 23.1875
Q13.875 18.6562 15.7969 14.5
Q17.7188 10.3594 21.1875 8.17188
Q24.6562 6 28.4688 6
Q34.0312 6 38.0312 10.4844
Q42.0469 14.9844 42.0469 22.7031
Q42.0469 30.125 38.0781 34.3906
Q34.125 38.6719 28.125 38.6719
Q22.1719 38.6719 18.0156 34.3906
Q13.875 30.125 13.875 23.1875" id="ArialMT-36"/>
      </defs>
      <g transform="translate(332.0240625 401.389375)scale(0.12 -0.12)">
       <use xlink:href="#ArialMT-30"/>
       <use x="55.615234375" xlink:href="#ArialMT-2e"/>
       <use x="83.3984375" xlink:href="#ArialMT-36"/>
      </g>
     </g>
    </g>
    <g id="xtick_5">
     <g id="line2d_53">
      <path clip-path="url(#p7ff5b81e1d)" d="
M429.12 388.8
L429.12 43.2" style="fill:none;stroke:#000000;stroke-dasharray:1.000000,3.000000;stroke-dashoffset:0.0;stroke-width:0.5;"/>
     </g>
     <g id="line2d_54">
      <g>
       <use style="stroke:#000000;stroke-width:0.5;" x="429.12" xlink:href="#m93b0483c22" y="388.8"/>
      </g>
     </g>
     <g id="line2d_55">
      <g>
       <use style="stroke:#000000;stroke-width:0.5;" x="429.12" xlink:href="#m741efc42ff" y="43.2"/>
      </g>
     </g>
     <g id="text_5">
      <!-- 0.8 -->
      <defs>
       <path d="
M17.6719 38.8125
Q12.2031 40.8281 9.5625 44.5312
Q6.9375 48.25 6.9375 53.4219
Q6.9375 61.2344 12.5469 66.5469
Q18.1719 71.875 27.4844 71.875
Q36.8594 71.875 42.5781 66.4219
Q48.2969 60.9844 48.2969 53.1719
Q48.2969 48.1875 45.6719 44.5
Q43.0625 40.8281 37.75 38.8125
Q44.3438 36.6719 47.7812 31.875
Q51.2188 27.0938 51.2188 20.4531
Q51.2188 11.2812 44.7188 5.03125
Q38.2344 -1.21875 27.6406 -1.21875
Q17.0469 -1.21875 10.5469 5.04688
Q4.04688 11.3281 4.04688 20.7031
Q4.04688 27.6875 7.59375 32.3906
Q11.1406 37.1094 17.6719 38.8125
M15.9219 53.7188
Q15.9219 48.6406 19.1875 45.4062
Q22.4688 42.1875 27.6875 42.1875
Q32.7656 42.1875 36.0156 45.375
Q39.2656 48.5781 39.2656 53.2188
Q39.2656 58.0625 35.9062 61.3594
Q32.5625 64.6562 27.5938 64.6562
Q22.5625 64.6562 19.2344 61.4219
Q15.9219 58.2031 15.9219 53.7188
M13.0938 20.6562
Q13.0938 16.8906 14.875 13.375
Q16.6562 9.85938 20.1719 7.92188
Q23.6875 6 27.7344 6
Q34.0312 6 38.125 10.0469
Q42.2344 14.1094 42.2344 20.3594
Q42.2344 26.7031 38.0156 30.8594
Q33.7969 35.0156 27.4375 35.0156
Q21.2344 35.0156 17.1562 30.9062
Q13.0938 26.8125 13.0938 20.6562" id="ArialMT-38"/>
      </defs>
      <g transform="translate(421.2928125 401.389375)scale(0.12 -0.12)">
       <use xlink:href="#ArialMT-30"/>
       <use x="55.615234375" xlink:href="#ArialMT-2e"/>
       <use x="83.3984375" xlink:href="#ArialMT-38"/>
      </g>
     </g>
    </g>
    <g id="xtick_6">
     <g id="line2d_56">
      <path clip-path="url(#p7ff5b81e1d)" d="
M518.4 388.8
L518.4 43.2" style="fill:none;stroke:#000000;stroke-dasharray:1.000000,3.000000;stroke-dashoffset:0.0;stroke-width:0.5;"/>
     </g>
     <g id="line2d_57">
      <g>
       <use style="stroke:#000000;stroke-width:0.5;" x="518.4" xlink:href="#m93b0483c22" y="388.8"/>
      </g>
     </g>
     <g id="line2d_58">
      <g>
       <use style="stroke:#000000;stroke-width:0.5;" x="518.4" xlink:href="#m741efc42ff" y="43.2"/>
      </g>
     </g>
     <g id="text_6">
      <!-- 1.0 -->
      <defs>
       <path d="
M37.25 0
L28.4688 0
L28.4688 56
Q25.2969 52.9844 20.1406 49.9531
Q14.9844 46.9219 10.8906 45.4062
L10.8906 53.9062
Q18.2656 57.375 23.7812 62.2969
Q29.2969 67.2344 31.5938 71.875
L37.25 71.875
z
" id="ArialMT-31"/>
      </defs>
      <g transform="translate(511.0003125 401.389375)scale(0.12 -0.12)">
       <use xlink:href="#ArialMT-31"/>
       <use x="55.615234375" xlink:href="#ArialMT-2e"/>
       <use x="83.3984375" xlink:href="#ArialMT-30"/>
      </g>
     </g>
    </g>
    <g id="text_7">
     <!-- t -->
     <defs>
      <path d="
M25.7812 7.85938
L27.0469 0.09375
Q23.3438 -0.6875 20.4062 -0.6875
Q15.625 -0.6875 12.9844 0.828125
Q10.3594 2.34375 9.28125 4.8125
Q8.20312 7.28125 8.20312 15.1875
L8.20312 45.0156
L1.76562 45.0156
L1.76562 51.8594
L8.20312 51.8594
L8.20312 64.7031
L16.9375 69.9688
L16.9375 51.8594
L25.7812 51.8594
L25.7812 45.0156
L16.9375 45.0156
L16.9375 14.7031
Q16.9375 10.9375 17.4062 9.85938
Q17.875 8.79688 18.9219 8.15625
Q19.9688 7.51562 21.9219 7.51562
Q23.3906 7.51562 25.7812 7.85938" id="ArialMT-74"/>
     </defs>
     <g transform="translate(293.683125 417.36375)scale(0.12 -0.12)">
      <use xlink:href="#ArialMT-74"/>
     </g>
    </g>
   </g>
   <g id="matplotlib.axis_2">
    <g id="ytick_1">
     <g id="line2d_59">
      <path clip-path="url(#p7ff5b81e1d)" d="
M72 388.8
L518.4 388.8" style="fill:none;stroke:#000000;stroke-dasharray:1.000000,3.000000;stroke-dashoffset:0.0;stroke-width:0.5;"/>
     </g>
     <g id="line2d_60">
      <defs>
       <path d="
M0 0
L4 0" id="m728421d6d4" style="stroke:#000000;stroke-width:0.5;"/>
      </defs>
      <g>
       <use style="stroke:#000000;stroke-width:0.5;" x="72.0" xlink:href="#m728421d6d4" y="388.8"/>
      </g>
     </g>
     <g id="line2d_61">
      <defs>
       <path d="
M0 0
L-4 0" id="mcb0005524f" style="stroke:#000000;stroke-width:0.5;"/>
      </defs>
      <g>
       <use style="stroke:#000000;stroke-width:0.5;" x="518.4" xlink:href="#mcb0005524f" y="388.8"/>
      </g>
     </g>
     <g id="text_8">
      <!-- 0 -->
      <g transform="translate(62.399375 391.9021875)scale(0.12 -0.12)">
       <use xlink:href="#ArialMT-30"/>
      </g>
     </g>
    </g>
    <g id="ytick_2">
     <g id="line2d_62">
      <path clip-path="url(#p7ff5b81e1d)" d="
M72 331.82
L518.4 331.82" style="fill:none;stroke:#000000;stroke-dasharray:1.000000,3.000000;stroke-dashoffset:0.0;stroke-width:0.5;"/>
     </g>
     <g id="line2d_63">
      <g>
       <use style="stroke:#000000;stroke-width:0.5;" x="72.0" xlink:href="#m728421d6d4" y="331.820178628"/>
      </g>
     </g>
     <g id="line2d_64">
      <g>
       <use style="stroke:#000000;stroke-width:0.5;" x="518.4" xlink:href="#mcb0005524f" y="331.820178628"/>
      </g>
     </g>
     <g id="text_9">
      <!-- 5 -->
      <defs>
       <path d="
M4.15625 18.75
L13.375 19.5312
Q14.4062 12.7969 18.1406 9.39062
Q21.875 6 27.1562 6
Q33.5 6 37.8906 10.7812
Q42.2812 15.5781 42.2812 23.4844
Q42.2812 31 38.0625 35.3438
Q33.8438 39.7031 27 39.7031
Q22.75 39.7031 19.3281 37.7656
Q15.9219 35.8438 13.9688 32.7656
L5.71875 33.8438
L12.6406 70.6094
L48.25 70.6094
L48.25 62.2031
L19.6719 62.2031
L15.8281 42.9688
Q22.2656 47.4688 29.3438 47.4688
Q38.7188 47.4688 45.1562 40.9688
Q51.6094 34.4688 51.6094 24.2656
Q51.6094 14.5469 45.9531 7.46875
Q39.0625 -1.21875 27.1562 -1.21875
Q17.3906 -1.21875 11.2031 4.25
Q5.03125 9.71875 4.15625 18.75" id="ArialMT-35"/>
      </defs>
      <g transform="translate(62.305625 334.922366128)scale(0.12 -0.12)">
       <use xlink:href="#ArialMT-35"/>
      </g>
     </g>
    </g>
    <g id="ytick_3">
     <g id="line2d_65">
      <path clip-path="url(#p7ff5b81e1d)" d="
M72 274.84
L518.4 274.84" style="fill:none;stroke:#000000;stroke-dasharray:1.000000,3.000000;stroke-dashoffset:0.0;stroke-width:0.5;"/>
     </g>
     <g id="line2d_66">
      <g>
       <use style="stroke:#000000;stroke-width:0.5;" x="72.0" xlink:href="#m728421d6d4" y="274.840357256"/>
      </g>
     </g>
     <g id="line2d_67">
      <g>
       <use style="stroke:#000000;stroke-width:0.5;" x="518.4" xlink:href="#mcb0005524f" y="274.840357256"/>
      </g>
     </g>
     <g id="text_10">
      <!-- 10 -->
      <g transform="translate(56.534375 277.942544756)scale(0.12 -0.12)">
       <use xlink:href="#ArialMT-31"/>
       <use x="55.615234375" xlink:href="#ArialMT-30"/>
      </g>
     </g>
    </g>
    <g id="ytick_4">
     <g id="line2d_68">
      <path clip-path="url(#p7ff5b81e1d)" d="
M72 217.861
L518.4 217.861" style="fill:none;stroke:#000000;stroke-dasharray:1.000000,3.000000;stroke-dashoffset:0.0;stroke-width:0.5;"/>
     </g>
     <g id="line2d_69">
      <g>
       <use style="stroke:#000000;stroke-width:0.5;" x="72.0" xlink:href="#m728421d6d4" y="217.860535883"/>
      </g>
     </g>
     <g id="line2d_70">
      <g>
       <use style="stroke:#000000;stroke-width:0.5;" x="518.4" xlink:href="#mcb0005524f" y="217.860535883"/>
      </g>
     </g>
     <g id="text_11">
      <!-- 15 -->
      <g transform="translate(56.440625 220.962723383)scale(0.12 -0.12)">
       <use xlink:href="#ArialMT-31"/>
       <use x="55.615234375" xlink:href="#ArialMT-35"/>
      </g>
     </g>
    </g>
    <g id="ytick_5">
     <g id="line2d_71">
      <path clip-path="url(#p7ff5b81e1d)" d="
M72 160.881
L518.4 160.881" style="fill:none;stroke:#000000;stroke-dasharray:1.000000,3.000000;stroke-dashoffset:0.0;stroke-width:0.5;"/>
     </g>
     <g id="line2d_72">
      <g>
       <use style="stroke:#000000;stroke-width:0.5;" x="72.0" xlink:href="#m728421d6d4" y="160.880714511"/>
      </g>
     </g>
     <g id="line2d_73">
      <g>
       <use style="stroke:#000000;stroke-width:0.5;" x="518.4" xlink:href="#mcb0005524f" y="160.880714511"/>
      </g>
     </g>
     <g id="text_12">
      <!-- 20 -->
      <g transform="translate(55.58 163.982902011)scale(0.12 -0.12)">
       <use xlink:href="#ArialMT-32"/>
       <use x="55.615234375" xlink:href="#ArialMT-30"/>
      </g>
     </g>
    </g>
    <g id="ytick_6">
     <g id="line2d_74">
      <path clip-path="url(#p7ff5b81e1d)" d="
M72 103.901
L518.4 103.901" style="fill:none;stroke:#000000;stroke-dasharray:1.000000,3.000000;stroke-dashoffset:0.0;stroke-width:0.5;"/>
     </g>
     <g id="line2d_75">
      <g>
       <use style="stroke:#000000;stroke-width:0.5;" x="72.0" xlink:href="#m728421d6d4" y="103.900893139"/>
      </g>
     </g>
     <g id="line2d_76">
      <g>
       <use style="stroke:#000000;stroke-width:0.5;" x="518.4" xlink:href="#mcb0005524f" y="103.900893139"/>
      </g>
     </g>
     <g id="text_13">
      <!-- 25 -->
      <g transform="translate(55.48625 107.003080639)scale(0.12 -0.12)">
       <use xlink:href="#ArialMT-32"/>
       <use x="55.615234375" xlink:href="#ArialMT-35"/>
      </g>
     </g>
    </g>
    <g id="ytick_7">
     <g id="line2d_77">
      <path clip-path="url(#p7ff5b81e1d)" d="
M72 46.9211
L518.4 46.9211" style="fill:none;stroke:#000000;stroke-dasharray:1.000000,3.000000;stroke-dashoffset:0.0;stroke-width:0.5;"/>
     </g>
     <g id="line2d_78">
      <g>
       <use style="stroke:#000000;stroke-width:0.5;" x="72.0" xlink:href="#m728421d6d4" y="46.9210717666"/>
      </g>
     </g>
     <g id="line2d_79">
      <g>
       <use style="stroke:#000000;stroke-width:0.5;" x="518.4" xlink:href="#mcb0005524f" y="46.9210717666"/>
      </g>
     </g>
     <g id="text_14">
      <!-- 30 -->
      <defs>
       <path d="
M4.20312 18.8906
L12.9844 20.0625
Q14.5 12.5938 18.1406 9.29688
Q21.7812 6 27 6
Q33.2031 6 37.4688 10.2969
Q41.75 14.5938 41.75 20.9531
Q41.75 27 37.7969 30.9219
Q33.8438 34.8594 27.7344 34.8594
Q25.25 34.8594 21.5312 33.8906
L22.5156 41.6094
Q23.3906 41.5 23.9219 41.5
Q29.5469 41.5 34.0312 44.4219
Q38.5312 47.3594 38.5312 53.4688
Q38.5312 58.2969 35.25 61.4688
Q31.9844 64.6562 26.8125 64.6562
Q21.6875 64.6562 18.2656 61.4219
Q14.8438 58.2031 13.875 51.7656
L5.07812 53.3281
Q6.6875 62.1562 12.3906 67.0156
Q18.1094 71.875 26.6094 71.875
Q32.4688 71.875 37.3906 69.3594
Q42.3281 66.8438 44.9375 62.5
Q47.5625 58.1562 47.5625 53.2656
Q47.5625 48.6406 45.0625 44.8281
Q42.5781 41.0156 37.7031 38.7656
Q44.0469 37.3125 47.5625 32.6875
Q51.0781 28.0781 51.0781 21.1406
Q51.0781 11.7656 44.2344 5.25
Q37.4062 -1.26562 26.9531 -1.26562
Q17.5312 -1.26562 11.2969 4.34375
Q5.07812 9.96875 4.20312 18.8906" id="ArialMT-33"/>
      </defs>
      <g transform="translate(55.731875 50.0232592666)scale(0.12 -0.12)">
       <use xlink:href="#ArialMT-33"/>
       <use x="55.615234375" xlink:href="#ArialMT-30"/>
      </g>
     </g>
    </g>
    <g id="text_15">
     <!-- P -->
     <defs>
      <path d="
M7.71875 0
L7.71875 71.5781
L34.7188 71.5781
Q41.8438 71.5781 45.6094 70.9062
Q50.875 70.0156 54.4375 67.5469
Q58.0156 65.0938 60.1875 60.6406
Q62.3594 56.2031 62.3594 50.875
Q62.3594 41.75 56.5469 35.4219
Q50.7344 29.1094 35.5469 29.1094
L17.1875 29.1094
L17.1875 0
z

M17.1875 37.5469
L35.6875 37.5469
Q44.875 37.5469 48.7344 40.9688
Q52.5938 44.3906 52.5938 50.5938
Q52.5938 55.0781 50.3125 58.2656
Q48.0469 61.4688 44.3438 62.5
Q41.9375 63.1406 35.5 63.1406
L17.1875 63.1406
z
" id="ArialMT-50"/>
     </defs>
     <g transform="translate(48.10125 219.2784375)rotate(-90.0)scale(0.12 -0.12)">
      <use xlink:href="#ArialMT-50"/>
     </g>
    </g>
   </g>
   <g id="patch_3">
    <path d="
M72 43.2
L518.4 43.2" style="fill:none;stroke:#000000;"/>
   </g>
   <g id="patch_4">
    <path d="
M518.4 388.8
L518.4 43.2" style="fill:none;stroke:#000000;"/>
   </g>
   <g id="patch_5">
    <path d="
M72 388.8
L518.4 388.8" style="fill:none;stroke:#000000;"/>
   </g>
   <g id="patch_6">
    <path d="
M72 388.8
L72 43.2" style="fill:none;stroke:#000000;"/>
   </g>
   <g id="text_16">
    <!-- Flight PDF queue distribution -->
    <defs>
     <path d="
M14.7031 0
L6.54688 0
L6.54688 71.5781
L15.3281 71.5781
L15.3281 46.0469
Q20.9062 53.0312 29.5469 53.0312
Q34.3281 53.0312 38.5938 51.0938
Q42.875 49.1719 45.625 45.6719
Q48.3906 42.1875 49.9531 37.25
Q51.5156 32.3281 51.5156 26.7031
Q51.5156 13.375 44.9219 6.09375
Q38.3281 -1.17188 29.1094 -1.17188
Q19.9219 -1.17188 14.7031 6.5
z

M14.5938 26.3125
Q14.5938 17 17.1406 12.8438
Q21.2969 6.0625 28.375 6.0625
Q34.125 6.0625 38.3281 11.0625
Q42.5312 16.0625 42.5312 25.9844
Q42.5312 36.1406 38.5 40.9688
Q34.4688 45.7969 28.7656 45.7969
Q23 45.7969 18.7969 40.7969
Q14.5938 35.7969 14.5938 26.3125" id="ArialMT-62"/>
     <path d="
M4.98438 -4.29688
L13.5312 -5.5625
Q14.0625 -9.51562 16.5 -11.3281
Q19.7812 -13.7656 25.4375 -13.7656
Q31.5469 -13.7656 34.8594 -11.3281
Q38.1875 -8.89062 39.3594 -4.5
Q40.0469 -1.8125 39.9844 6.78125
Q34.2344 0 25.6406 0
Q14.9375 0 9.07812 7.71875
Q3.21875 15.4375 3.21875 26.2188
Q3.21875 33.6406 5.90625 39.9062
Q8.59375 46.1875 13.6875 49.6094
Q18.7969 53.0312 25.6875 53.0312
Q34.8594 53.0312 40.8281 45.6094
L40.8281 51.8594
L48.9219 51.8594
L48.9219 7.03125
Q48.9219 -5.07812 46.4531 -10.125
Q44 -15.1875 38.6406 -18.1094
Q33.2969 -21.0469 25.4844 -21.0469
Q16.2188 -21.0469 10.5 -16.875
Q4.78125 -12.7031 4.98438 -4.29688
M12.25 26.8594
Q12.25 16.6562 16.2969 11.9688
Q20.3594 7.28125 26.4688 7.28125
Q32.5156 7.28125 36.6094 11.9375
Q40.7188 16.6094 40.7188 26.5625
Q40.7188 36.0781 36.5 40.9062
Q32.2812 45.75 26.3125 45.75
Q20.4531 45.75 16.3438 40.9844
Q12.25 36.2344 12.25 26.8594" id="ArialMT-67"/>
     <path d="
M42.0938 16.7031
L51.1719 15.5781
Q49.0312 7.625 43.2188 3.21875
Q37.4062 -1.17188 28.375 -1.17188
Q17 -1.17188 10.3281 5.82812
Q3.65625 12.8438 3.65625 25.4844
Q3.65625 38.5781 10.3906 45.7969
Q17.1406 53.0312 27.875 53.0312
Q38.2812 53.0312 44.875 45.9531
Q51.4688 38.875 51.4688 26.0312
Q51.4688 25.25 51.4219 23.6875
L12.75 23.6875
Q13.2344 15.1406 17.5781 10.5938
Q21.9219 6.0625 28.4219 6.0625
Q33.25 6.0625 36.6719 8.59375
Q40.0938 11.1406 42.0938 16.7031
M13.2344 30.9062
L42.1875 30.9062
Q41.6094 37.4531 38.875 40.7188
Q34.6719 45.7969 27.9844 45.7969
Q21.9219 45.7969 17.7969 41.75
Q13.6719 37.7031 13.2344 30.9062" id="ArialMT-65"/>
     <path d="
M40.2344 0
L40.2344 6.54688
Q35.2969 -1.17188 25.7344 -1.17188
Q19.5312 -1.17188 14.3281 2.25
Q9.125 5.67188 6.26562 11.7969
Q3.42188 17.9219 3.42188 25.875
Q3.42188 33.6406 6 39.9688
Q8.59375 46.2969 13.7656 49.6562
Q18.9531 53.0312 25.3438 53.0312
Q30.0312 53.0312 33.6875 51.0469
Q37.3594 49.0781 39.6562 45.9062
L39.6562 71.5781
L48.3906 71.5781
L48.3906 0
z

M12.4531 25.875
Q12.4531 15.9219 16.6406 10.9844
Q20.8438 6.0625 26.5625 6.0625
Q32.3281 6.0625 36.3438 10.7656
Q40.375 15.4844 40.375 25.1406
Q40.375 35.7969 36.2656 40.7656
Q32.1719 45.75 26.1719 45.75
Q20.3125 45.75 16.375 40.9688
Q12.4531 36.1875 12.4531 25.875" id="ArialMT-64"/>
     <path d="
M40.5781 0
L40.5781 7.625
Q34.5156 -1.17188 24.125 -1.17188
Q19.5312 -1.17188 15.5469 0.578125
Q11.5781 2.34375 9.64062 5
Q7.71875 7.67188 6.9375 11.5312
Q6.39062 14.1094 6.39062 19.7344
L6.39062 51.8594
L15.1875 51.8594
L15.1875 23.0938
Q15.1875 16.2188 15.7188 13.8125
Q16.5469 10.3594 19.2344 8.375
Q21.9219 6.39062 25.875 6.39062
Q29.8281 6.39062 33.2969 8.42188
Q36.7656 10.4531 38.2031 13.9375
Q39.6562 17.4375 39.6562 24.0781
L39.6562 51.8594
L48.4375 51.8594
L48.4375 0
z
" id="ArialMT-75"/>
     <path d="
M6.64062 61.4688
L6.64062 71.5781
L15.4375 71.5781
L15.4375 61.4688
z

M6.64062 0
L6.64062 51.8594
L15.4375 51.8594
L15.4375 0
z
" id="ArialMT-69"/>
     <path d="
M6.59375 0
L6.59375 71.5781
L15.375 71.5781
L15.375 45.9062
Q21.5312 53.0312 30.9062 53.0312
Q36.6719 53.0312 40.9219 50.75
Q45.1719 48.4844 47 44.4844
Q48.8281 40.4844 48.8281 32.8594
L48.8281 0
L40.0469 0
L40.0469 32.8594
Q40.0469 39.4531 37.1875 42.4531
Q34.3281 45.4531 29.1094 45.4531
Q25.2031 45.4531 21.75 43.4219
Q18.3125 41.4062 16.8438 37.9375
Q15.375 34.4688 15.375 28.375
L15.375 0
z
" id="ArialMT-68"/>
     <path d="
M7.71875 0
L7.71875 71.5781
L32.375 71.5781
Q40.7188 71.5781 45.125 70.5625
Q51.2656 69.1406 55.6094 65.4375
Q61.2812 60.6406 64.0781 53.1875
Q66.8906 45.75 66.8906 36.1875
Q66.8906 28.0312 64.9844 21.7344
Q63.0938 15.4375 60.1094 11.2969
Q57.125 7.17188 53.5781 4.79688
Q50.0469 2.4375 45.0469 1.21875
Q40.0469 0 33.5469 0
z

M17.1875 8.45312
L32.4688 8.45312
Q39.5469 8.45312 43.5781 9.76562
Q47.6094 11.0781 50 13.4844
Q53.375 16.8438 55.25 22.5312
Q57.125 28.2188 57.125 36.3281
Q57.125 47.5625 53.4375 53.5938
Q49.75 59.625 44.4844 61.6719
Q40.6719 63.1406 32.2344 63.1406
L17.1875 63.1406
z
" id="ArialMT-44"/>
     <path d="
M6.5 0
L6.5 51.8594
L14.4062 51.8594
L14.4062 44
Q17.4375 49.5156 20 51.2656
Q22.5625 53.0312 25.6406 53.0312
Q30.0781 53.0312 34.6719 50.2031
L31.6406 42.0469
Q28.4219 43.9531 25.2031 43.9531
Q22.3125 43.9531 20.0156 42.2188
Q17.7188 40.4844 16.75 37.4062
Q15.2812 32.7188 15.2812 27.1562
L15.2812 0
z
" id="ArialMT-72"/>
     <path d="
M8.20312 0
L8.20312 71.5781
L56.5 71.5781
L56.5 63.1406
L17.6719 63.1406
L17.6719 40.9688
L51.2656 40.9688
L51.2656 32.5156
L17.6719 32.5156
L17.6719 0
z
" id="ArialMT-46"/>
     <path d="
M6.39062 0
L6.39062 71.5781
L15.1875 71.5781
L15.1875 0
z
" id="ArialMT-6c"/>
     <path d="
M3.32812 25.9219
Q3.32812 40.3281 11.3281 47.2656
Q18.0156 53.0312 27.6406 53.0312
Q38.3281 53.0312 45.1094 46.0156
Q51.9062 39.0156 51.9062 26.6562
Q51.9062 16.6562 48.9062 10.9062
Q45.9062 5.17188 40.1562 2
Q34.4219 -1.17188 27.6406 -1.17188
Q16.75 -1.17188 10.0312 5.8125
Q3.32812 12.7969 3.32812 25.9219
M12.3594 25.9219
Q12.3594 15.9688 16.7031 11.0156
Q21.0469 6.0625 27.6406 6.0625
Q34.1875 6.0625 38.5312 11.0312
Q42.875 16.0156 42.875 26.2188
Q42.875 35.8438 38.5 40.7969
Q34.125 45.75 27.6406 45.75
Q21.0469 45.75 16.7031 40.8125
Q12.3594 35.8906 12.3594 25.9219" id="ArialMT-6f"/>
     <path d="
M6.59375 0
L6.59375 51.8594
L14.5 51.8594
L14.5 44.4844
Q20.2188 53.0312 31 53.0312
Q35.6875 53.0312 39.625 51.3438
Q43.5625 49.6562 45.5156 46.9219
Q47.4688 44.1875 48.25 40.4375
Q48.7344 37.9844 48.7344 31.8906
L48.7344 0
L39.9375 0
L39.9375 31.5469
Q39.9375 36.9219 38.9062 39.5781
Q37.8906 42.2344 35.2812 43.8125
Q32.6719 45.4062 29.1562 45.4062
Q23.5312 45.4062 19.4531 41.8438
Q15.375 38.2812 15.375 28.3281
L15.375 0
z
" id="ArialMT-6e"/>
     <path d="
M39.6562 -19.875
L39.6562 5.51562
Q37.5938 2.64062 33.9062 0.734375
Q30.2188 -1.17188 26.0781 -1.17188
Q16.8438 -1.17188 10.1719 6.20312
Q3.51562 13.5781 3.51562 26.4219
Q3.51562 34.2344 6.21875 40.4219
Q8.9375 46.625 14.0781 49.8281
Q19.2344 53.0312 25.3906 53.0312
Q35.0156 53.0312 40.5312 44.9219
L40.5312 51.8594
L48.4375 51.8594
L48.4375 -19.875
z

M12.5469 26.0781
Q12.5469 16.0625 16.75 11.0625
Q20.9531 6.0625 26.8125 6.0625
Q32.4219 6.0625 36.4688 10.8125
Q40.5312 15.5781 40.5312 25.2969
Q40.5312 35.6406 36.25 40.8594
Q31.9844 46.0938 26.2188 46.0938
Q20.5156 46.0938 16.5312 41.2344
Q12.5469 36.375 12.5469 26.0781" id="ArialMT-71"/>
     <path d="
M3.07812 15.4844
L11.7656 16.8438
Q12.5 11.625 15.8438 8.84375
Q19.1875 6.0625 25.2031 6.0625
Q31.25 6.0625 34.1719 8.51562
Q37.1094 10.9844 37.1094 14.3125
Q37.1094 17.2812 34.5156 19
Q32.7188 20.1719 25.5312 21.9688
Q15.875 24.4219 12.1406 26.2031
Q8.40625 27.9844 6.46875 31.125
Q4.54688 34.2812 4.54688 38.0938
Q4.54688 41.5469 6.125 44.5
Q7.71875 47.4688 10.4531 49.4219
Q12.5 50.9219 16.0312 51.9688
Q19.5781 53.0312 23.6406 53.0312
Q29.7344 53.0312 34.3438 51.2656
Q38.9688 49.5156 41.1562 46.5
Q43.3594 43.5 44.1875 38.4844
L35.5938 37.3125
Q35.0156 41.3125 32.2031 43.5469
Q29.3906 45.7969 24.2656 45.7969
Q18.2188 45.7969 15.625 43.7969
Q13.0312 41.7969 13.0312 39.1094
Q13.0312 37.4062 14.1094 36.0312
Q15.1875 34.625 17.4844 33.6875
Q18.7969 33.2031 25.25 31.4531
Q34.5781 28.9531 38.25 27.3594
Q41.9375 25.7812 44.0312 22.75
Q46.1406 19.7344 46.1406 15.2344
Q46.1406 10.8438 43.5781 6.95312
Q41.0156 3.07812 36.1719 0.953125
Q31.3438 -1.17188 25.25 -1.17188
Q15.1406 -1.17188 9.84375 3.03125
Q4.54688 7.23438 3.07812 15.4844" id="ArialMT-73"/>
     <path id="ArialMT-20"/>
    </defs>
    <g transform="translate(202.85325 38.2)scale(0.144 -0.144)">
     <use xlink:href="#ArialMT-46"/>
     <use x="61.083984375" xlink:href="#ArialMT-6c"/>
     <use x="83.30078125" xlink:href="#ArialMT-69"/>
     <use x="105.517578125" xlink:href="#ArialMT-67"/>
     <use x="161.1328125" xlink:href="#ArialMT-68"/>
     <use x="216.748046875" xlink:href="#ArialMT-74"/>
     <use x="244.53125" xlink:href="#ArialMT-20"/>
     <use x="272.314453125" xlink:href="#ArialMT-50"/>
     <use x="339.013671875" xlink:href="#ArialMT-44"/>
     <use x="411.23046875" xlink:href="#ArialMT-46"/>
     <use x="472.314453125" xlink:href="#ArialMT-20"/>
     <use x="500.09765625" xlink:href="#ArialMT-71"/>
     <use x="555.712890625" xlink:href="#ArialMT-75"/>
     <use x="611.328125" xlink:href="#ArialMT-65"/>
     <use x="666.943359375" xlink:href="#ArialMT-75"/>
     <use x="722.55859375" xlink:href="#ArialMT-65"/>
     <use x="778.173828125" xlink:href="#ArialMT-20"/>
     <use x="805.95703125" xlink:href="#ArialMT-64"/>
     <use x="861.572265625" xlink:href="#ArialMT-69"/>
     <use x="883.7890625" xlink:href="#ArialMT-73"/>
     <use x="933.7890625" xlink:href="#ArialMT-74"/>
     <use x="961.572265625" xlink:href="#ArialMT-72"/>
     <use x="994.873046875" xlink:href="#ArialMT-69"/>
     <use x="1017.08984375" xlink:href="#ArialMT-62"/>
     <use x="1072.70507812" xlink:href="#ArialMT-75"/>
     <use x="1128.3203125" xlink:href="#ArialMT-74"/>
     <use x="1156.10351562" xlink:href="#ArialMT-69"/>
     <use x="1178.3203125" xlink:href="#ArialMT-6f"/>
     <use x="1233.93554688" xlink:href="#ArialMT-6e"/>
    </g>
   </g>
  </g>
 </g>
 <defs>
  <clipPath id="p7ff5b81e1d">
   <rect height="345.6" width="446.4" x="72.0" y="43.2"/>
  </clipPath>
 </defs>
</svg>
