<?xml version="1.0" encoding="utf-8" standalone="no"?>
<!DOCTYPE svg PUBLIC "-//W3C//DTD SVG 1.1//EN"
  "http://www.w3.org/Graphics/SVG/1.1/DTD/svg11.dtd">
<!-- Created with matplotlib (http://matplotlib.org/) -->
<svg height="432pt" version="1.1" viewBox="0 0 576 432" width="576pt" xmlns="http://www.w3.org/2000/svg" xmlns:xlink="http://www.w3.org/1999/xlink">
 <defs>
  <style type="text/css">
*{stroke-linecap:butt;stroke-linejoin:round;}
  </style>
 </defs>
 <g id="figure_1">
  <g id="patch_1">
   <path d="
M0 432
L576 432
L576 0
L0 0
z
" style="fill:#ffffff;"/>
  </g>
  <g id="axes_1">
   <g id="patch_2">
    <path d="
M72 388.8
L518.4 388.8
L518.4 43.2
L72 43.2
z
" style="fill:#ffffff;"/>
   </g>
   <g id="line2d_1">
    <path clip-path="url(#p7ff5b81e1d)" d="
M72 127.904
L73.5632 90.9037
L74.6797 69.6058
L75.573 56.6334
L76.2429 49.6213
L76.9129 45.1188
L77.3595 43.5647
L77.5828 43.2289
L77.8061 43.1887
L78.0294 43.4443
L78.476 44.8392
L78.9227 47.3993
L79.5926 53.364
L80.2625 61.7535
L81.1558 76.3802
L82.2723 99.3749
L83.6122 132.1
L86.7386 216.694
L88.5251 261.781
L90.0882 295.707
L91.4281 319.816
L92.5447 336.313
L93.6612 349.711
L94.7778 360.305
L95.8943 368.467
L96.7876 373.516
L97.6808 377.467
L98.5741 380.511
L99.4673 382.82
L100.361 384.544
L101.254 385.813
L102.147 386.732
L103.264 387.518
L104.38 388.023
L105.72 388.385
L107.507 388.629
L110.41 388.764
L118.002 388.8
L518.4 388.8
L518.4 388.8" style="fill:none;stroke:#8000ff;stroke-linecap:square;"/>
   </g>
   <g id="line2d_2">
    <path clip-path="url(#p7ff5b81e1d)" d="
M100.624 388.8
L100.624 43.1887" style="fill:none;stroke:#8000ff;stroke-linecap:square;"/>
   </g>
   <g id="line2d_3">
    <path clip-path="url(#p7ff5b81e1d)" d="
M72 388.798
L79.3693 388.682
L81.6024 388.435
L83.1656 388.037
L84.2821 387.541
L85.1754 386.949
L86.0686 386.116
L86.9619 384.961
L87.8551 383.384
L88.7484 381.262
L89.6416 378.452
L90.5349 374.787
L91.4281 370.084
L92.3214 364.14
L93.2146 356.752
L94.1079 347.717
L95.2244 333.829
L96.341 316.804
L97.4575 296.503
L98.7974 267.913
L100.361 229.509
L103.487 144.923
L105.273 100.29
L106.39 77.1266
L107.283 62.3328
L107.953 53.8026
L108.623 47.6874
L109.07 45.0231
L109.516 43.522
L109.74 43.2131
L109.963 43.1997
L110.186 43.4821
L110.633 44.9302
L111.08 47.5426
L111.749 53.5828
L112.419 62.043
L113.313 76.7536
L114.429 99.833
L115.769 132.625
L121.575 282.333
L122.915 308.718
L124.032 327.106
L125.148 342.278
L126.265 354.461
L127.381 363.991
L128.275 369.964
L129.168 374.694
L130.061 378.379
L130.954 381.207
L131.848 383.342
L132.741 384.931
L133.634 386.094
L134.527 386.933
L135.644 387.649
L136.76 388.105
L138.324 388.469
L140.333 388.68
L143.906 388.783
L157.752 388.8
L518.4 388.8
L518.4 388.8" style="fill:none;stroke:#5a3bfd;stroke-linecap:square;"/>
   </g>
   <g id="line2d_4">
    <path clip-path="url(#p7ff5b81e1d)" d="
M132.76 388.8
L132.76 43.1997" style="fill:none;stroke:#5a3bfd;stroke-linecap:square;"/>
   </g>
   <g id="line2d_5">
    <path clip-path="url(#p7ff5b81e1d)" d="
M72 388.8
L111.303 388.694
L113.536 388.469
L115.099 388.105
L116.216 387.649
L117.332 386.933
L118.226 386.094
L119.119 384.93
L120.012 383.342
L120.905 381.206
L121.798 378.379
L122.692 374.693
L123.585 369.963
L124.478 363.99
L125.371 356.566
L126.265 347.492
L127.381 333.549
L128.498 316.465
L129.614 296.104
L130.954 267.447
L132.517 228.983
L138.1 85.4184
L139.217 65.3676
L140.11 53.5816
L140.78 47.5418
L141.227 44.9297
L141.673 43.4819
L141.897 43.1997
L142.12 43.2131
L142.343 43.5223
L142.79 45.0236
L143.236 47.6882
L143.906 53.8039
L144.576 62.3345
L145.47 77.1288
L146.586 100.292
L147.926 133.152
L153.732 282.765
L155.072 309.081
L156.188 327.409
L157.305 342.524
L158.422 354.657
L159.538 364.141
L160.431 370.084
L161.325 374.788
L162.218 378.452
L163.111 381.262
L164.004 383.384
L164.898 384.961
L165.791 386.116
L166.684 386.949
L167.801 387.659
L168.917 388.112
L170.48 388.473
L172.49 388.682
L176.063 388.784
L190.132 388.8
L518.4 388.8
L518.4 388.8" style="fill:none;stroke:#3176f8;stroke-linecap:square;"/>
   </g>
   <g id="line2d_6">
    <path clip-path="url(#p7ff5b81e1d)" d="
M164.897 388.8
L164.897 43.1997" style="fill:none;stroke:#3176f8;stroke-linecap:square;"/>
   </g>
   <g id="line2d_7">
    <path clip-path="url(#p7ff5b81e1d)" d="
M72 388.8
L143.46 388.692
L145.693 388.466
L147.256 388.099
L148.373 387.638
L149.489 386.917
L150.382 386.071
L151.276 384.9
L152.169 383.3
L153.062 381.151
L153.955 378.306
L154.849 374.598
L155.742 369.842
L156.635 363.838
L157.528 356.38
L158.422 347.265
L159.538 333.268
L160.655 316.126
L161.771 295.705
L163.111 266.981
L164.674 228.456
L170.257 85.0082
L171.374 65.056
L172.267 53.3627
L172.937 47.3985
L173.383 44.8387
L173.83 43.4441
L174.053 43.1887
L174.277 43.229
L174.5 43.5649
L174.947 45.1194
L175.393 47.8362
L176.063 54.0272
L176.733 62.628
L177.626 77.5057
L178.743 100.753
L180.083 133.679
L185.889 283.197
L187.229 309.442
L188.345 327.711
L189.462 342.77
L190.578 354.851
L191.695 364.291
L192.588 370.204
L193.482 374.882
L194.375 378.525
L195.268 381.317
L196.161 383.425
L197.055 384.992
L197.948 386.138
L198.841 386.965
L199.958 387.669
L201.074 388.118
L202.637 388.476
L204.647 388.683
L208.22 388.784
L222.512 388.8
L518.4 388.8
L518.4 388.8" style="fill:none;stroke:#09a9ee;stroke-linecap:square;"/>
   </g>
   <g id="line2d_8">
    <path clip-path="url(#p7ff5b81e1d)" d="
M197.034 388.8
L197.034 43.1887" style="fill:none;stroke:#09a9ee;stroke-linecap:square;"/>
   </g>
   <g id="line2d_9">
    <path clip-path="url(#p7ff5b81e1d)" d="
M72 388.8
L175.617 388.691
L177.85 388.463
L179.413 388.092
L180.529 387.628
L181.646 386.901
L182.539 386.049
L183.433 384.868
L184.326 383.258
L185.219 381.094
L186.112 378.232
L187.006 374.503
L187.899 369.721
L188.792 363.686
L189.685 356.192
L190.578 347.038
L191.695 332.986
L192.812 315.785
L193.928 295.304
L195.268 266.514
L196.831 227.928
L202.191 89.1921
L203.307 68.2698
L204.201 55.6571
L204.87 48.941
L205.317 45.8594
L205.764 43.9325
L205.987 43.4088
L206.21 43.1801
L206.434 43.2473
L206.657 43.61
L207.104 45.2176
L207.55 47.9865
L208.22 54.2527
L208.89 62.9236
L209.783 77.8843
L210.9 101.215
L212.24 134.206
L217.823 278.82
L219.162 305.766
L220.502 328.012
L221.619 343.015
L222.735 355.045
L223.852 364.44
L224.745 370.323
L225.638 374.975
L226.532 378.597
L227.425 381.372
L228.318 383.466
L229.211 385.022
L230.105 386.16
L230.998 386.981
L232.114 387.679
L233.231 388.124
L234.794 388.479
L236.804 388.684
L240.377 388.784
L254.669 388.8
L518.4 388.8
L518.4 388.8" style="fill:none;stroke:#1dd1e2;stroke-linecap:square;"/>
   </g>
   <g id="line2d_10">
    <path clip-path="url(#p7ff5b81e1d)" d="
M229.17 388.8
L229.17 43.1801" style="fill:none;stroke:#1dd1e2;stroke-linecap:square;"/>
   </g>
   <g id="line2d_11">
    <path clip-path="url(#p7ff5b81e1d)" d="
M72 388.8
L207.773 388.69
L210.007 388.459
L211.57 388.085
L212.686 387.617
L213.803 386.885
L214.696 386.026
L215.589 384.837
L216.483 383.216
L217.376 381.038
L218.269 378.158
L219.162 374.407
L220.056 369.599
L220.949 363.533
L221.842 356.004
L222.735 346.81
L223.852 332.702
L224.968 315.442
L226.085 294.903
L227.425 266.046
L228.988 227.4
L234.348 88.768
L235.464 67.9406
L236.357 55.4184
L237.027 48.7767
L237.474 45.7468
L237.921 43.8729
L238.144 43.3758
L238.367 43.174
L238.59 43.268
L238.814 43.6574
L239.26 45.3182
L239.707 48.1392
L240.377 54.4804
L241.047 63.2212
L241.94 78.2646
L243.057 101.678
L244.397 134.735
L249.979 279.261
L251.319 306.138
L252.659 328.313
L253.776 343.258
L254.892 355.237
L256.009 364.589
L256.902 370.441
L257.795 375.068
L258.689 378.669
L259.582 381.427
L260.475 383.507
L261.368 385.052
L262.262 386.182
L263.155 386.996
L264.271 387.689
L265.388 388.131
L266.951 388.482
L268.961 388.685
L272.534 388.784
L287.049 388.8
L518.4 388.8
L518.4 388.8" style="fill:none;stroke:#44eed2;stroke-linecap:square;"/>
   </g>
   <g id="line2d_12">
    <path clip-path="url(#p7ff5b81e1d)" d="
M261.307 388.8
L261.307 43.174" style="fill:none;stroke:#44eed2;stroke-linecap:square;"/>
   </g>
   <g id="line2d_13">
    <path clip-path="url(#p7ff5b81e1d)" d="
M72 388.8
L239.93 388.689
L242.163 388.456
L243.727 388.079
L244.843 387.607
L245.96 386.868
L246.853 386.003
L247.746 384.806
L248.64 383.173
L249.533 380.981
L250.426 378.083
L251.319 374.31
L252.213 369.476
L253.106 363.38
L253.999 355.815
L254.892 346.58
L256.009 332.418
L257.125 315.099
L258.242 294.5
L259.582 265.577
L261.145 226.872
L266.504 88.3453
L267.621 67.6133
L268.514 55.1819
L269.184 48.6147
L269.631 45.6367
L270.077 43.8157
L270.301 43.3454
L270.524 43.1704
L270.747 43.2911
L270.971 43.7073
L271.417 45.4211
L271.864 48.2942
L272.534 54.7102
L273.204 63.5208
L274.097 78.6467
L275.214 102.143
L276.777 141.142
L281.69 269.767
L283.03 298.088
L284.369 321.768
L285.486 337.917
L286.603 350.993
L287.719 361.304
L288.612 367.813
L289.506 372.999
L290.399 377.066
L291.292 380.204
L292.185 382.589
L293.079 384.373
L293.972 385.688
L294.865 386.642
L295.982 387.46
L297.098 387.986
L298.438 388.365
L300.225 388.62
L303.128 388.762
L310.497 388.8
L518.4 388.8
L518.4 388.8" style="fill:none;stroke:#6dfdbf;stroke-linecap:square;"/>
   </g>
   <g id="line2d_14">
    <path clip-path="url(#p7ff5b81e1d)" d="
M293.444 388.8
L293.444 43.1704" style="fill:none;stroke:#6dfdbf;stroke-linecap:square;"/>
   </g>
   <g id="line2d_15">
    <path clip-path="url(#p7ff5b81e1d)" d="
M72 388.8
L271.864 388.7
L274.32 388.453
L275.884 388.072
L277 387.596
L278.117 386.852
L279.01 385.98
L279.903 384.774
L280.796 383.13
L281.69 380.924
L282.583 378.008
L283.476 374.213
L284.369 369.353
L285.263 363.225
L286.156 355.624
L287.049 346.35
L288.166 332.133
L289.282 314.755
L290.399 294.096
L291.739 265.107
L293.302 226.342
L298.661 87.9242
L299.778 67.2879
L300.671 54.9476
L301.341 48.4551
L301.788 45.5289
L302.234 43.7609
L302.458 43.3173
L302.681 43.1691
L302.904 43.3167
L303.128 43.7597
L303.574 45.5265
L304.021 48.4515
L304.691 54.9423
L305.361 63.8224
L306.254 79.0305
L307.37 102.609
L308.934 141.679
L313.847 270.228
L315.186 298.481
L316.526 322.09
L317.643 338.181
L318.759 351.204
L319.876 361.467
L320.769 367.945
L321.662 373.103
L322.556 377.147
L323.449 380.266
L324.342 382.635
L325.235 384.408
L326.129 385.713
L327.022 386.66
L328.138 387.472
L329.255 387.993
L330.595 388.369
L332.381 388.622
L335.284 388.762
L342.654 388.8
L518.4 388.8
L518.4 388.8" style="fill:none;stroke:#92fda9;stroke-linecap:square;"/>
   </g>
   <g id="line2d_16">
    <path clip-path="url(#p7ff5b81e1d)" d="
M325.58 388.8
L325.58 43.1691" style="fill:none;stroke:#92fda9;stroke-linecap:square;"/>
   </g>
   <g id="line2d_17">
    <path clip-path="url(#p7ff5b81e1d)" d="
M72 388.8
L304.021 388.699
L306.254 388.485
L307.817 388.137
L308.934 387.7
L310.05 387.012
L310.943 386.204
L311.837 385.082
L312.73 383.548
L313.623 381.482
L314.516 378.741
L315.41 375.162
L316.303 370.561
L317.196 364.74
L318.089 357.492
L318.983 348.615
L320.099 334.947
L321.216 318.158
L322.332 298.097
L323.672 269.778
L325.235 231.623
L327.915 159.168
L329.925 107.358
L331.265 78.6554
L332.158 63.5276
L333.051 52.3019
L333.721 46.7172
L334.168 44.4197
L334.615 43.2917
L334.838 43.1703
L335.061 43.3447
L335.284 43.8144
L335.731 45.6342
L336.178 48.6111
L336.848 55.1766
L337.518 64.1261
L338.411 79.416
L339.527 103.076
L341.091 142.216
L346.003 270.687
L347.343 298.873
L348.683 322.41
L349.8 338.444
L350.916 351.413
L352.033 361.63
L352.926 368.075
L353.819 373.206
L354.713 377.227
L355.606 380.327
L356.499 382.682
L357.392 384.442
L358.286 385.738
L359.179 386.678
L360.295 387.484
L361.412 388.001
L362.752 388.373
L364.538 388.624
L367.441 388.763
L374.811 388.8
L518.4 388.8
L518.4 388.8" style="fill:none;stroke:#bbee91;stroke-linecap:square;"/>
   </g>
   <g id="line2d_18">
    <path clip-path="url(#p7ff5b81e1d)" d="
M357.717 388.8
L357.717 43.1703" style="fill:none;stroke:#bbee91;stroke-linecap:square;"/>
   </g>
   <g id="line2d_19">
    <path clip-path="url(#p7ff5b81e1d)" d="
M72 388.8
L336.178 388.698
L338.411 388.482
L339.974 388.131
L341.091 387.69
L342.207 386.997
L343.1 386.183
L343.994 385.053
L344.887 383.508
L345.78 381.428
L346.673 378.67
L347.567 375.07
L348.46 370.444
L349.353 364.592
L350.246 357.31
L351.14 348.394
L352.256 334.671
L353.373 317.824
L354.489 297.703
L355.829 269.316
L357.392 231.099
L360.072 158.617
L362.082 106.88
L363.422 78.2733
L364.315 63.228
L365.208 52.0964
L365.878 46.5881
L366.325 44.3431
L366.771 43.2685
L366.995 43.1739
L367.218 43.3751
L367.441 43.8716
L367.888 45.7443
L368.335 48.773
L369.005 55.413
L369.674 64.4317
L370.568 79.8032
L371.684 103.544
L373.247 142.754
L378.16 271.146
L379.5 299.264
L380.84 322.73
L381.957 338.705
L383.073 351.622
L384.19 361.792
L385.083 368.205
L385.976 373.309
L386.869 377.307
L387.763 380.388
L388.656 382.728
L389.549 384.476
L390.442 385.763
L391.336 386.696
L392.452 387.495
L393.569 388.008
L394.909 388.377
L396.695 388.625
L399.598 388.763
L406.967 388.8
L518.4 388.8
L518.4 388.8" style="fill:none;stroke:#e2d176;stroke-linecap:square;"/>
   </g>
   <g id="line2d_20">
    <path clip-path="url(#p7ff5b81e1d)" d="
M389.853 388.8
L389.853 43.1739" style="fill:none;stroke:#e2d176;stroke-linecap:square;"/>
   </g>
   <g id="line2d_21">
    <path clip-path="url(#p7ff5b81e1d)" d="
M72 388.8
L368.335 388.697
L370.568 388.479
L372.131 388.125
L373.247 387.68
L374.364 386.981
L375.257 386.161
L376.15 385.023
L377.044 383.467
L377.937 381.373
L378.83 378.599
L379.723 374.977
L380.617 370.325
L381.51 364.444
L382.403 357.127
L383.296 348.171
L384.413 334.394
L385.53 317.488
L386.646 297.308
L387.986 268.854
L389.549 230.575
L392.452 152.019
L394.239 106.404
L395.579 77.8929
L396.472 62.9303
L397.365 51.8932
L398.035 46.4612
L398.482 44.269
L398.928 43.2477
L399.152 43.18
L399.375 43.408
L399.598 43.9311
L400.045 45.8568
L400.491 48.9373
L401.161 55.6516
L401.831 64.7393
L402.725 80.192
L403.841 104.013
L405.404 143.293
L410.094 266.503
L411.434 295.295
L412.774 319.478
L413.89 336.035
L415.007 349.488
L416.123 360.131
L417.24 368.335
L418.133 373.411
L419.026 377.386
L419.92 380.449
L420.813 382.773
L421.706 384.51
L422.599 385.788
L423.493 386.713
L424.609 387.507
L425.726 388.015
L427.066 388.381
L428.852 388.627
L431.755 388.764
L439.348 388.8
L518.4 388.8
L518.4 388.8" style="fill:none;stroke:#ffa95b;stroke-linecap:square;"/>
   </g>
   <g id="line2d_22">
    <path clip-path="url(#p7ff5b81e1d)" d="
M421.99 388.8
L421.99 43.18" style="fill:none;stroke:#ffa95b;stroke-linecap:square;"/>
   </g>
   <g id="line2d_23">
    <path clip-path="url(#p7ff5b81e1d)" d="
M72 388.8
L400.491 388.696
L402.725 388.476
L404.288 388.118
L405.404 387.67
L406.521 386.965
L407.414 386.139
L408.307 384.992
L409.201 383.426
L410.094 381.319
L410.987 378.526
L411.88 374.884
L412.774 370.207
L413.667 364.295
L414.56 356.942
L415.453 347.948
L416.57 334.116
L417.686 317.152
L418.803 296.911
L420.143 268.39
L421.706 230.05
L424.609 151.473
L426.396 105.928
L427.512 81.7845
L428.405 66.0058
L429.299 54.0323
L429.969 47.8396
L430.415 45.1216
L430.862 43.5659
L431.085 43.2294
L431.308 43.1885
L431.532 43.4433
L431.978 44.8366
L432.425 47.3953
L433.095 53.3578
L433.765 61.7453
L434.658 76.3696
L435.775 99.3619
L437.115 132.085
L440.241 216.678
L442.027 261.767
L443.591 295.696
L444.93 319.807
L446.047 336.306
L447.164 349.705
L448.28 360.3
L449.397 368.464
L450.29 373.513
L451.183 377.465
L452.076 380.509
L452.97 382.819
L453.863 384.543
L454.756 385.812
L455.649 386.731
L456.766 387.518
L457.883 388.023
L459.222 388.385
L461.009 388.629
L463.912 388.764
L471.505 388.8
L518.4 388.8
L518.4 388.8" style="fill:none;stroke:#ff763d;stroke-linecap:square;"/>
   </g>
   <g id="line2d_24">
    <path clip-path="url(#p7ff5b81e1d)" d="
M454.127 388.8
L454.127 43.1885" style="fill:none;stroke:#ff763d;stroke-linecap:square;"/>
   </g>
   <g id="line2d_25">
    <path clip-path="url(#p7ff5b81e1d)" d="
M72 388.8
L432.648 388.695
L434.881 388.473
L436.445 388.112
L437.561 387.659
L438.678 386.95
L439.571 386.117
L440.464 384.962
L441.357 383.385
L442.251 381.264
L443.144 378.454
L444.037 374.79
L444.93 370.087
L445.824 364.145
L446.717 356.758
L447.61 347.723
L448.727 333.837
L449.843 316.814
L450.96 296.514
L452.3 267.926
L453.863 229.524
L456.989 144.939
L458.776 100.303
L459.892 77.1373
L460.786 62.3411
L461.456 53.8089
L462.125 47.6916
L462.572 45.0257
L463.019 43.5232
L463.242 43.2135
L463.465 43.1994
L463.689 43.481
L464.135 44.9276
L464.582 47.5385
L465.252 53.5766
L465.922 62.0347
L466.815 76.743
L467.932 99.82
L469.271 132.61
L475.078 282.32
L476.417 308.708
L477.534 327.097
L478.651 342.271
L479.767 354.456
L480.884 363.986
L481.777 369.961
L482.67 374.691
L483.563 378.377
L484.457 381.205
L485.35 383.341
L486.243 384.93
L487.136 386.093
L488.03 386.933
L489.146 387.649
L490.263 388.105
L491.826 388.469
L493.836 388.68
L497.409 388.783
L511.254 388.8
L518.4 388.8
L518.4 388.8" style="fill:none;stroke:#ff3b1e;stroke-linecap:square;"/>
   </g>
   <g id="line2d_26">
    <path clip-path="url(#p7ff5b81e1d)" d="
M486.263 388.8
L486.263 43.1994" style="fill:none;stroke:#ff3b1e;stroke-linecap:square;"/>
   </g>
   <g id="line2d_27">
    <path clip-path="url(#p7ff5b81e1d)" d="
M72 388.8
L464.805 388.694
L467.038 388.469
L468.602 388.105
L469.718 387.649
L470.835 386.934
L471.728 386.094
L472.621 384.931
L473.514 383.343
L474.408 381.208
L475.301 378.381
L476.194 374.696
L477.087 369.967
L477.981 363.994
L478.874 356.572
L479.767 347.498
L480.884 333.557
L482 316.475
L483.117 296.116
L484.457 267.461
L486.02 228.998
L491.603 85.43
L492.719 65.3765
L493.612 53.5878
L494.282 47.5459
L494.729 44.9323
L495.176 43.483
L495.399 43.2
L495.622 43.2127
L495.846 43.5211
L496.292 45.0209
L496.739 47.6841
L497.409 53.7976
L498.079 62.3262
L498.972 77.1181
L500.088 100.279
L501.428 133.137
L507.234 282.753
L508.574 309.07
L509.691 327.4
L510.807 342.517
L511.924 354.651
L513.041 364.137
L513.934 370.081
L514.827 374.785
L515.72 378.45
L516.614 381.261
L517.507 383.383
L518.4 384.96
L518.4 384.96" style="fill:none;stroke:#ff0000;stroke-linecap:square;"/>
   </g>
   <g id="line2d_28">
    <path clip-path="url(#p7ff5b81e1d)" d="
M518.4 388.8
L518.4 43.2" style="fill:none;stroke:#ff0000;stroke-linecap:square;"/>
   </g>
   <g id="matplotlib.axis_1">
    <g id="xtick_1">
     <g id="line2d_29">
      <path clip-path="url(#p7ff5b81e1d)" d="
M72 388.8
L72 43.2" style="fill:none;stroke:#000000;stroke-dasharray:1.000000,3.000000;stroke-dashoffset:0.0;stroke-width:0.5;"/>
     </g>
     <g id="line2d_30">
      <defs>
       <path d="
M0 0
L0 -4" id="m93b0483c22" style="stroke:#000000;stroke-width:0.5;"/>
      </defs>
      <g>
       <use style="stroke:#000000;stroke-width:0.5;" x="72.0" xlink:href="#m93b0483c22" y="388.8"/>
      </g>
     </g>
     <g id="line2d_31">
      <defs>
       <path d="
M0 0
L0 4" id="m741efc42ff" style="stroke:#000000;stroke-width:0.5;"/>
      </defs>
      <g>
       <use style="stroke:#000000;stroke-width:0.5;" x="72.0" xlink:href="#m741efc42ff" y="43.2"/>
      </g>
     </g>
     <g id="text_1">
      <!-- 0.0 -->
      <defs>
       <path d="
M4.15625 35.2969
Q4.15625 48 6.76562 55.7344
Q9.375 63.4844 14.5156 67.6719
Q19.6719 71.875 27.4844 71.875
Q33.25 71.875 37.5938 69.5469
Q41.9375 67.2344 44.7656 62.8594
Q47.6094 58.5 49.2188 52.2188
Q50.8281 45.9531 50.8281 35.2969
Q50.8281 22.7031 48.2344 14.9688
Q45.6562 7.23438 40.5 3
Q35.3594 -1.21875 27.4844 -1.21875
Q17.1406 -1.21875 11.2344 6.20312
Q4.15625 15.1406 4.15625 35.2969
M13.1875 35.2969
Q13.1875 17.6719 17.3125 11.8281
Q21.4375 6 27.4844 6
Q33.5469 6 37.6719 11.8594
Q41.7969 17.7188 41.7969 35.2969
Q41.7969 52.9844 37.6719 58.7812
Q33.5469 64.5938 27.3906 64.5938
Q21.3438 64.5938 17.7188 59.4688
Q13.1875 52.9375 13.1875 35.2969" id="ArialMT-30"/>
       <path d="
M9.07812 0
L9.07812 10.0156
L19.0938 10.0156
L19.0938 0
z
" id="ArialMT-2e"/>
      </defs>
      <g transform="translate(64.19625 401.389375)scale(0.12 -0.12)">
       <use xlink:href="#ArialMT-30"/>
       <use x="55.615234375" xlink:href="#ArialMT-2e"/>
       <use x="83.3984375" xlink:href="#ArialMT-30"/>
      </g>
     </g>
    </g>
    <g id="xtick_2">
     <g id="line2d_32">
      <path clip-path="url(#p7ff5b81e1d)" d="
M161.28 388.8
L161.28 43.2" style="fill:none;stroke:#000000;stroke-dasharray:1.000000,3.000000;stroke-dashoffset:0.0;stroke-width:0.5;"/>
     </g>
     <g id="line2d_33">
      <g>
       <use style="stroke:#000000;stroke-width:0.5;" x="161.28" xlink:href="#m93b0483c22" y="388.8"/>
      </g>
     </g>
     <g id="line2d_34">
      <g>
       <use style="stroke:#000000;stroke-width:0.5;" x="161.28" xlink:href="#m741efc42ff" y="43.2"/>
      </g>
     </g>
     <g id="text_2">
      <!-- 0.2 -->
      <defs>
       <path d="
M50.3438 8.45312
L50.3438 0
L3.03125 0
Q2.9375 3.17188 4.04688 6.10938
Q5.85938 10.9375 9.82812 15.625
Q13.8125 20.3125 21.3438 26.4688
Q33.0156 36.0312 37.1094 41.625
Q41.2188 47.2188 41.2188 52.2031
Q41.2188 57.4219 37.4688 61
Q33.7344 64.5938 27.7344 64.5938
Q21.3906 64.5938 17.5781 60.7812
Q13.7656 56.9844 13.7188 50.25
L4.6875 51.1719
Q5.60938 61.2812 11.6562 66.5781
Q17.7188 71.875 27.9375 71.875
Q38.2344 71.875 44.2344 66.1562
Q50.25 60.4531 50.25 52
Q50.25 47.7031 48.4844 43.5469
Q46.7344 39.4062 42.6562 34.8125
Q38.5781 30.2188 29.1094 22.2188
Q21.1875 15.5781 18.9375 13.2031
Q16.7031 10.8438 15.2344 8.45312
z
" id="ArialMT-32"/>
      </defs>
      <g transform="translate(153.5053125 401.389375)scale(0.12 -0.12)">
       <use xlink:href="#ArialMT-30"/>
       <use x="55.615234375" xlink:href="#ArialMT-2e"/>
       <use x="83.3984375" xlink:href="#ArialMT-32"/>
      </g>
     </g>
    </g>
    <g id="xtick_3">
     <g id="line2d_35">
      <path clip-path="url(#p7ff5b81e1d)" d="
M250.56 388.8
L250.56 43.2" style="fill:none;stroke:#000000;stroke-dasharray:1.000000,3.000000;stroke-dashoffset:0.0;stroke-width:0.5;"/>
     </g>
     <g id="line2d_36">
      <g>
       <use style="stroke:#000000;stroke-width:0.5;" x="250.56" xlink:href="#m93b0483c22" y="388.8"/>
      </g>
     </g>
     <g id="line2d_37">
      <g>
       <use style="stroke:#000000;stroke-width:0.5;" x="250.56" xlink:href="#m741efc42ff" y="43.2"/>
      </g>
     </g>
     <g id="text_3">
      <!-- 0.4 -->
      <defs>
       <path d="
M32.3281 0
L32.3281 17.1406
L1.26562 17.1406
L1.26562 25.2031
L33.9375 71.5781
L41.1094 71.5781
L41.1094 25.2031
L50.7812 25.2031
L50.7812 17.1406
L41.1094 17.1406
L41.1094 0
z

M32.3281 25.2031
L32.3281 57.4688
L9.90625 25.2031
z
" id="ArialMT-34"/>
      </defs>
      <g transform="translate(242.7590625 401.389375)scale(0.12 -0.12)">
       <use xlink:href="#ArialMT-30"/>
       <use x="55.615234375" xlink:href="#ArialMT-2e"/>
       <use x="83.3984375" xlink:href="#ArialMT-34"/>
      </g>
     </g>
    </g>
    <g id="xtick_4">
     <g id="line2d_38">
      <path clip-path="url(#p7ff5b81e1d)" d="
M339.84 388.8
L339.84 43.2" style="fill:none;stroke:#000000;stroke-dasharray:1.000000,3.000000;stroke-dashoffset:0.0;stroke-width:0.5;"/>
     </g>
     <g id="line2d_39">
      <g>
       <use style="stroke:#000000;stroke-width:0.5;" x="339.84" xlink:href="#m93b0483c22" y="388.8"/>
      </g>
     </g>
     <g id="line2d_40">
      <g>
       <use style="stroke:#000000;stroke-width:0.5;" x="339.84" xlink:href="#m741efc42ff" y="43.2"/>
      </g>
     </g>
     <g id="text_4">
      <!-- 0.6 -->
      <defs>
       <path d="
M49.75 54.0469
L41.0156 53.375
Q39.8438 58.5469 37.7031 60.8906
Q34.125 64.6562 28.9062 64.6562
Q24.7031 64.6562 21.5312 62.3125
Q17.3906 59.2812 14.9844 53.4688
Q12.5938 47.6562 12.5 36.9219
Q15.6719 41.75 20.2656 44.0938
Q24.8594 46.4375 29.8906 46.4375
Q38.6719 46.4375 44.8438 39.9688
Q51.0312 33.5 51.0312 23.25
Q51.0312 16.5 48.125 10.7188
Q45.2188 4.9375 40.1406 1.85938
Q35.0625 -1.21875 28.6094 -1.21875
Q17.625 -1.21875 10.6875 6.85938
Q3.76562 14.9375 3.76562 33.5
Q3.76562 54.25 11.4219 63.6719
Q18.1094 71.875 29.4375 71.875
Q37.8906 71.875 43.2812 67.1406
Q48.6875 62.4062 49.75 54.0469
M13.875 23.1875
Q13.875 18.6562 15.7969 14.5
Q17.7188 10.3594 21.1875 8.17188
Q24.6562 6 28.4688 6
Q34.0312 6 38.0312 10.4844
Q42.0469 14.9844 42.0469 22.7031
Q42.0469 30.125 38.0781 34.3906
Q34.125 38.6719 28.125 38.6719
Q22.1719 38.6719 18.0156 34.3906
Q13.875 30.125 13.875 23.1875" id="ArialMT-36"/>
      </defs>
      <g transform="translate(332.0240625 401.389375)scale(0.12 -0.12)">
       <use xlink:href="#ArialMT-30"/>
       <use x="55.615234375" xlink:href="#ArialMT-2e"/>
       <use x="83.3984375" xlink:href="#ArialMT-36"/>
      </g>
     </g>
    </g>
    <g id="xtick_5">
     <g id="line2d_41">
      <path clip-path="url(#p7ff5b81e1d)" d="
M429.12 388.8
L429.12 43.2" style="fill:none;stroke:#000000;stroke-dasharray:1.000000,3.000000;stroke-dashoffset:0.0;stroke-width:0.5;"/>
     </g>
     <g id="line2d_42">
      <g>
       <use style="stroke:#000000;stroke-width:0.5;" x="429.12" xlink:href="#m93b0483c22" y="388.8"/>
      </g>
     </g>
     <g id="line2d_43">
      <g>
       <use style="stroke:#000000;stroke-width:0.5;" x="429.12" xlink:href="#m741efc42ff" y="43.2"/>
      </g>
     </g>
     <g id="text_5">
      <!-- 0.8 -->
      <defs>
       <path d="
M17.6719 38.8125
Q12.2031 40.8281 9.5625 44.5312
Q6.9375 48.25 6.9375 53.4219
Q6.9375 61.2344 12.5469 66.5469
Q18.1719 71.875 27.4844 71.875
Q36.8594 71.875 42.5781 66.4219
Q48.2969 60.9844 48.2969 53.1719
Q48.2969 48.1875 45.6719 44.5
Q43.0625 40.8281 37.75 38.8125
Q44.3438 36.6719 47.7812 31.875
Q51.2188 27.0938 51.2188 20.4531
Q51.2188 11.2812 44.7188 5.03125
Q38.2344 -1.21875 27.6406 -1.21875
Q17.0469 -1.21875 10.5469 5.04688
Q4.04688 11.3281 4.04688 20.7031
Q4.04688 27.6875 7.59375 32.3906
Q11.1406 37.1094 17.6719 38.8125
M15.9219 53.7188
Q15.9219 48.6406 19.1875 45.4062
Q22.4688 42.1875 27.6875 42.1875
Q32.7656 42.1875 36.0156 45.375
Q39.2656 48.5781 39.2656 53.2188
Q39.2656 58.0625 35.9062 61.3594
Q32.5625 64.6562 27.5938 64.6562
Q22.5625 64.6562 19.2344 61.4219
Q15.9219 58.2031 15.9219 53.7188
M13.0938 20.6562
Q13.0938 16.8906 14.875 13.375
Q16.6562 9.85938 20.1719 7.92188
Q23.6875 6 27.7344 6
Q34.0312 6 38.125 10.0469
Q42.2344 14.1094 42.2344 20.3594
Q42.2344 26.7031 38.0156 30.8594
Q33.7969 35.0156 27.4375 35.0156
Q21.2344 35.0156 17.1562 30.9062
Q13.0938 26.8125 13.0938 20.6562" id="ArialMT-38"/>
      </defs>
      <g transform="translate(421.2928125 401.389375)scale(0.12 -0.12)">
       <use xlink:href="#ArialMT-30"/>
       <use x="55.615234375" xlink:href="#ArialMT-2e"/>
       <use x="83.3984375" xlink:href="#ArialMT-38"/>
      </g>
     </g>
    </g>
    <g id="xtick_6">
     <g id="line2d_44">
      <path clip-path="url(#p7ff5b81e1d)" d="
M518.4 388.8
L518.4 43.2" style="fill:none;stroke:#000000;stroke-dasharray:1.000000,3.000000;stroke-dashoffset:0.0;stroke-width:0.5;"/>
     </g>
     <g id="line2d_45">
      <g>
       <use style="stroke:#000000;stroke-width:0.5;" x="518.4" xlink:href="#m93b0483c22" y="388.8"/>
      </g>
     </g>
     <g id="line2d_46">
      <g>
       <use style="stroke:#000000;stroke-width:0.5;" x="518.4" xlink:href="#m741efc42ff" y="43.2"/>
      </g>
     </g>
     <g id="text_6">
      <!-- 1.0 -->
      <defs>
       <path d="
M37.25 0
L28.4688 0
L28.4688 56
Q25.2969 52.9844 20.1406 49.9531
Q14.9844 46.9219 10.8906 45.4062
L10.8906 53.9062
Q18.2656 57.375 23.7812 62.2969
Q29.2969 67.2344 31.5938 71.875
L37.25 71.875
z
" id="ArialMT-31"/>
      </defs>
      <g transform="translate(511.0003125 401.389375)scale(0.12 -0.12)">
       <use xlink:href="#ArialMT-31"/>
       <use x="55.615234375" xlink:href="#ArialMT-2e"/>
       <use x="83.3984375" xlink:href="#ArialMT-30"/>
      </g>
     </g>
    </g>
    <g id="text_7">
     <!-- t -->
     <defs>
      <path d="
M25.7812 7.85938
L27.0469 0.09375
Q23.3438 -0.6875 20.4062 -0.6875
Q15.625 -0.6875 12.9844 0.828125
Q10.3594 2.34375 9.28125 4.8125
Q8.20312 7.28125 8.20312 15.1875
L8.20312 45.0156
L1.76562 45.0156
L1.76562 51.8594
L8.20312 51.8594
L8.20312 64.7031
L16.9375 69.9688
L16.9375 51.8594
L25.7812 51.8594
L25.7812 45.0156
L16.9375 45.0156
L16.9375 14.7031
Q16.9375 10.9375 17.4062 9.85938
Q17.875 8.79688 18.9219 8.15625
Q19.9688 7.51562 21.9219 7.51562
Q23.3906 7.51562 25.7812 7.85938" id="ArialMT-74"/>
     </defs>
     <g transform="translate(293.683125 417.36375)scale(0.12 -0.12)">
      <use xlink:href="#ArialMT-74"/>
     </g>
    </g>
   </g>
   <g id="matplotlib.axis_2">
    <g id="ytick_1">
     <g id="line2d_47">
      <path clip-path="url(#p7ff5b81e1d)" d="
M72 388.8
L518.4 388.8" style="fill:none;stroke:#000000;stroke-dasharray:1.000000,3.000000;stroke-dashoffset:0.0;stroke-width:0.5;"/>
     </g>
     <g id="line2d_48">
      <defs>
       <path d="
M0 0
L4 0" id="m728421d6d4" style="stroke:#000000;stroke-width:0.5;"/>
      </defs>
      <g>
       <use style="stroke:#000000;stroke-width:0.5;" x="72.0" xlink:href="#m728421d6d4" y="388.8"/>
      </g>
     </g>
     <g id="line2d_49">
      <defs>
       <path d="
M0 0
L-4 0" id="mcb0005524f" style="stroke:#000000;stroke-width:0.5;"/>
      </defs>
      <g>
       <use style="stroke:#000000;stroke-width:0.5;" x="518.4" xlink:href="#mcb0005524f" y="388.8"/>
      </g>
     </g>
     <g id="text_8">
      <!-- 0 -->
      <g transform="translate(62.399375 391.9021875)scale(0.12 -0.12)">
       <use xlink:href="#ArialMT-30"/>
      </g>
     </g>
    </g>
    <g id="ytick_2">
     <g id="line2d_50">
      <path clip-path="url(#p7ff5b81e1d)" d="
M72 314.73
L518.4 314.73" style="fill:none;stroke:#000000;stroke-dasharray:1.000000,3.000000;stroke-dashoffset:0.0;stroke-width:0.5;"/>
     </g>
     <g id="line2d_51">
      <g>
       <use style="stroke:#000000;stroke-width:0.5;" x="72.0" xlink:href="#m728421d6d4" y="314.729624794"/>
      </g>
     </g>
     <g id="line2d_52">
      <g>
       <use style="stroke:#000000;stroke-width:0.5;" x="518.4" xlink:href="#mcb0005524f" y="314.729624794"/>
      </g>
     </g>
     <g id="text_9">
      <!-- 5 -->
      <defs>
       <path d="
M4.15625 18.75
L13.375 19.5312
Q14.4062 12.7969 18.1406 9.39062
Q21.875 6 27.1562 6
Q33.5 6 37.8906 10.7812
Q42.2812 15.5781 42.2812 23.4844
Q42.2812 31 38.0625 35.3438
Q33.8438 39.7031 27 39.7031
Q22.75 39.7031 19.3281 37.7656
Q15.9219 35.8438 13.9688 32.7656
L5.71875 33.8438
L12.6406 70.6094
L48.25 70.6094
L48.25 62.2031
L19.6719 62.2031
L15.8281 42.9688
Q22.2656 47.4688 29.3438 47.4688
Q38.7188 47.4688 45.1562 40.9688
Q51.6094 34.4688 51.6094 24.2656
Q51.6094 14.5469 45.9531 7.46875
Q39.0625 -1.21875 27.1562 -1.21875
Q17.3906 -1.21875 11.2031 4.25
Q5.03125 9.71875 4.15625 18.75" id="ArialMT-35"/>
      </defs>
      <g transform="translate(62.305625 317.831812294)scale(0.12 -0.12)">
       <use xlink:href="#ArialMT-35"/>
      </g>
     </g>
    </g>
    <g id="ytick_3">
     <g id="line2d_53">
      <path clip-path="url(#p7ff5b81e1d)" d="
M72 240.659
L518.4 240.659" style="fill:none;stroke:#000000;stroke-dasharray:1.000000,3.000000;stroke-dashoffset:0.0;stroke-width:0.5;"/>
     </g>
     <g id="line2d_54">
      <g>
       <use style="stroke:#000000;stroke-width:0.5;" x="72.0" xlink:href="#m728421d6d4" y="240.659249588"/>
      </g>
     </g>
     <g id="line2d_55">
      <g>
       <use style="stroke:#000000;stroke-width:0.5;" x="518.4" xlink:href="#mcb0005524f" y="240.659249588"/>
      </g>
     </g>
     <g id="text_10">
      <!-- 10 -->
      <g transform="translate(56.534375 243.761437088)scale(0.12 -0.12)">
       <use xlink:href="#ArialMT-31"/>
       <use x="55.615234375" xlink:href="#ArialMT-30"/>
      </g>
     </g>
    </g>
    <g id="ytick_4">
     <g id="line2d_56">
      <path clip-path="url(#p7ff5b81e1d)" d="
M72 166.589
L518.4 166.589" style="fill:none;stroke:#000000;stroke-dasharray:1.000000,3.000000;stroke-dashoffset:0.0;stroke-width:0.5;"/>
     </g>
     <g id="line2d_57">
      <g>
       <use style="stroke:#000000;stroke-width:0.5;" x="72.0" xlink:href="#m728421d6d4" y="166.588874381"/>
      </g>
     </g>
     <g id="line2d_58">
      <g>
       <use style="stroke:#000000;stroke-width:0.5;" x="518.4" xlink:href="#mcb0005524f" y="166.588874381"/>
      </g>
     </g>
     <g id="text_11">
      <!-- 15 -->
      <g transform="translate(56.440625 169.691061881)scale(0.12 -0.12)">
       <use xlink:href="#ArialMT-31"/>
       <use x="55.615234375" xlink:href="#ArialMT-35"/>
      </g>
     </g>
    </g>
    <g id="ytick_5">
     <g id="line2d_59">
      <path clip-path="url(#p7ff5b81e1d)" d="
M72 92.5185
L518.4 92.5185" style="fill:none;stroke:#000000;stroke-dasharray:1.000000,3.000000;stroke-dashoffset:0.0;stroke-width:0.5;"/>
     </g>
     <g id="line2d_60">
      <g>
       <use style="stroke:#000000;stroke-width:0.5;" x="72.0" xlink:href="#m728421d6d4" y="92.5184991753"/>
      </g>
     </g>
     <g id="line2d_61">
      <g>
       <use style="stroke:#000000;stroke-width:0.5;" x="518.4" xlink:href="#mcb0005524f" y="92.5184991753"/>
      </g>
     </g>
     <g id="text_12">
      <!-- 20 -->
      <g transform="translate(55.58 95.6206866753)scale(0.12 -0.12)">
       <use xlink:href="#ArialMT-32"/>
       <use x="55.615234375" xlink:href="#ArialMT-30"/>
      </g>
     </g>
    </g>
    <g id="text_13">
     <!-- P -->
     <defs>
      <path d="
M7.71875 0
L7.71875 71.5781
L34.7188 71.5781
Q41.8438 71.5781 45.6094 70.9062
Q50.875 70.0156 54.4375 67.5469
Q58.0156 65.0938 60.1875 60.6406
Q62.3594 56.2031 62.3594 50.875
Q62.3594 41.75 56.5469 35.4219
Q50.7344 29.1094 35.5469 29.1094
L17.1875 29.1094
L17.1875 0
z

M17.1875 37.5469
L35.6875 37.5469
Q44.875 37.5469 48.7344 40.9688
Q52.5938 44.3906 52.5938 50.5938
Q52.5938 55.0781 50.3125 58.2656
Q48.0469 61.4688 44.3438 62.5
Q41.9375 63.1406 35.5 63.1406
L17.1875 63.1406
z
" id="ArialMT-50"/>
     </defs>
     <g transform="translate(48.195 219.2784375)rotate(-90.0)scale(0.12 -0.12)">
      <use xlink:href="#ArialMT-50"/>
     </g>
    </g>
   </g>
   <g id="patch_3">
    <path d="
M72 43.2
L518.4 43.2" style="fill:none;stroke:#000000;"/>
   </g>
   <g id="patch_4">
    <path d="
M518.4 388.8
L518.4 43.2" style="fill:none;stroke:#000000;"/>
   </g>
   <g id="patch_5">
    <path d="
M72 388.8
L518.4 388.8" style="fill:none;stroke:#000000;"/>
   </g>
   <g id="patch_6">
    <path d="
M72 388.8
L72 43.2" style="fill:none;stroke:#000000;"/>
   </g>
   <g id="text_14">
    <!-- Flight PDF queue distribution -->
    <defs>
     <path d="
M14.7031 0
L6.54688 0
L6.54688 71.5781
L15.3281 71.5781
L15.3281 46.0469
Q20.9062 53.0312 29.5469 53.0312
Q34.3281 53.0312 38.5938 51.0938
Q42.875 49.1719 45.625 45.6719
Q48.3906 42.1875 49.9531 37.25
Q51.5156 32.3281 51.5156 26.7031
Q51.5156 13.375 44.9219 6.09375
Q38.3281 -1.17188 29.1094 -1.17188
Q19.9219 -1.17188 14.7031 6.5
z

M14.5938 26.3125
Q14.5938 17 17.1406 12.8438
Q21.2969 6.0625 28.375 6.0625
Q34.125 6.0625 38.3281 11.0625
Q42.5312 16.0625 42.5312 25.9844
Q42.5312 36.1406 38.5 40.9688
Q34.4688 45.7969 28.7656 45.7969
Q23 45.7969 18.7969 40.7969
Q14.5938 35.7969 14.5938 26.3125" id="ArialMT-62"/>
     <path d="
M4.98438 -4.29688
L13.5312 -5.5625
Q14.0625 -9.51562 16.5 -11.3281
Q19.7812 -13.7656 25.4375 -13.7656
Q31.5469 -13.7656 34.8594 -11.3281
Q38.1875 -8.89062 39.3594 -4.5
Q40.0469 -1.8125 39.9844 6.78125
Q34.2344 0 25.6406 0
Q14.9375 0 9.07812 7.71875
Q3.21875 15.4375 3.21875 26.2188
Q3.21875 33.6406 5.90625 39.9062
Q8.59375 46.1875 13.6875 49.6094
Q18.7969 53.0312 25.6875 53.0312
Q34.8594 53.0312 40.8281 45.6094
L40.8281 51.8594
L48.9219 51.8594
L48.9219 7.03125
Q48.9219 -5.07812 46.4531 -10.125
Q44 -15.1875 38.6406 -18.1094
Q33.2969 -21.0469 25.4844 -21.0469
Q16.2188 -21.0469 10.5 -16.875
Q4.78125 -12.7031 4.98438 -4.29688
M12.25 26.8594
Q12.25 16.6562 16.2969 11.9688
Q20.3594 7.28125 26.4688 7.28125
Q32.5156 7.28125 36.6094 11.9375
Q40.7188 16.6094 40.7188 26.5625
Q40.7188 36.0781 36.5 40.9062
Q32.2812 45.75 26.3125 45.75
Q20.4531 45.75 16.3438 40.9844
Q12.25 36.2344 12.25 26.8594" id="ArialMT-67"/>
     <path d="
M42.0938 16.7031
L51.1719 15.5781
Q49.0312 7.625 43.2188 3.21875
Q37.4062 -1.17188 28.375 -1.17188
Q17 -1.17188 10.3281 5.82812
Q3.65625 12.8438 3.65625 25.4844
Q3.65625 38.5781 10.3906 45.7969
Q17.1406 53.0312 27.875 53.0312
Q38.2812 53.0312 44.875 45.9531
Q51.4688 38.875 51.4688 26.0312
Q51.4688 25.25 51.4219 23.6875
L12.75 23.6875
Q13.2344 15.1406 17.5781 10.5938
Q21.9219 6.0625 28.4219 6.0625
Q33.25 6.0625 36.6719 8.59375
Q40.0938 11.1406 42.0938 16.7031
M13.2344 30.9062
L42.1875 30.9062
Q41.6094 37.4531 38.875 40.7188
Q34.6719 45.7969 27.9844 45.7969
Q21.9219 45.7969 17.7969 41.75
Q13.6719 37.7031 13.2344 30.9062" id="ArialMT-65"/>
     <path d="
M40.2344 0
L40.2344 6.54688
Q35.2969 -1.17188 25.7344 -1.17188
Q19.5312 -1.17188 14.3281 2.25
Q9.125 5.67188 6.26562 11.7969
Q3.42188 17.9219 3.42188 25.875
Q3.42188 33.6406 6 39.9688
Q8.59375 46.2969 13.7656 49.6562
Q18.9531 53.0312 25.3438 53.0312
Q30.0312 53.0312 33.6875 51.0469
Q37.3594 49.0781 39.6562 45.9062
L39.6562 71.5781
L48.3906 71.5781
L48.3906 0
z

M12.4531 25.875
Q12.4531 15.9219 16.6406 10.9844
Q20.8438 6.0625 26.5625 6.0625
Q32.3281 6.0625 36.3438 10.7656
Q40.375 15.4844 40.375 25.1406
Q40.375 35.7969 36.2656 40.7656
Q32.1719 45.75 26.1719 45.75
Q20.3125 45.75 16.375 40.9688
Q12.4531 36.1875 12.4531 25.875" id="ArialMT-64"/>
     <path d="
M40.5781 0
L40.5781 7.625
Q34.5156 -1.17188 24.125 -1.17188
Q19.5312 -1.17188 15.5469 0.578125
Q11.5781 2.34375 9.64062 5
Q7.71875 7.67188 6.9375 11.5312
Q6.39062 14.1094 6.39062 19.7344
L6.39062 51.8594
L15.1875 51.8594
L15.1875 23.0938
Q15.1875 16.2188 15.7188 13.8125
Q16.5469 10.3594 19.2344 8.375
Q21.9219 6.39062 25.875 6.39062
Q29.8281 6.39062 33.2969 8.42188
Q36.7656 10.4531 38.2031 13.9375
Q39.6562 17.4375 39.6562 24.0781
L39.6562 51.8594
L48.4375 51.8594
L48.4375 0
z
" id="ArialMT-75"/>
     <path d="
M6.64062 61.4688
L6.64062 71.5781
L15.4375 71.5781
L15.4375 61.4688
z

M6.64062 0
L6.64062 51.8594
L15.4375 51.8594
L15.4375 0
z
" id="ArialMT-69"/>
     <path d="
M6.59375 0
L6.59375 71.5781
L15.375 71.5781
L15.375 45.9062
Q21.5312 53.0312 30.9062 53.0312
Q36.6719 53.0312 40.9219 50.75
Q45.1719 48.4844 47 44.4844
Q48.8281 40.4844 48.8281 32.8594
L48.8281 0
L40.0469 0
L40.0469 32.8594
Q40.0469 39.4531 37.1875 42.4531
Q34.3281 45.4531 29.1094 45.4531
Q25.2031 45.4531 21.75 43.4219
Q18.3125 41.4062 16.8438 37.9375
Q15.375 34.4688 15.375 28.375
L15.375 0
z
" id="ArialMT-68"/>
     <path d="
M7.71875 0
L7.71875 71.5781
L32.375 71.5781
Q40.7188 71.5781 45.125 70.5625
Q51.2656 69.1406 55.6094 65.4375
Q61.2812 60.6406 64.0781 53.1875
Q66.8906 45.75 66.8906 36.1875
Q66.8906 28.0312 64.9844 21.7344
Q63.0938 15.4375 60.1094 11.2969
Q57.125 7.17188 53.5781 4.79688
Q50.0469 2.4375 45.0469 1.21875
Q40.0469 0 33.5469 0
z

M17.1875 8.45312
L32.4688 8.45312
Q39.5469 8.45312 43.5781 9.76562
Q47.6094 11.0781 50 13.4844
Q53.375 16.8438 55.25 22.5312
Q57.125 28.2188 57.125 36.3281
Q57.125 47.5625 53.4375 53.5938
Q49.75 59.625 44.4844 61.6719
Q40.6719 63.1406 32.2344 63.1406
L17.1875 63.1406
z
" id="ArialMT-44"/>
     <path d="
M6.5 0
L6.5 51.8594
L14.4062 51.8594
L14.4062 44
Q17.4375 49.5156 20 51.2656
Q22.5625 53.0312 25.6406 53.0312
Q30.0781 53.0312 34.6719 50.2031
L31.6406 42.0469
Q28.4219 43.9531 25.2031 43.9531
Q22.3125 43.9531 20.0156 42.2188
Q17.7188 40.4844 16.75 37.4062
Q15.2812 32.7188 15.2812 27.1562
L15.2812 0
z
" id="ArialMT-72"/>
     <path d="
M8.20312 0
L8.20312 71.5781
L56.5 71.5781
L56.5 63.1406
L17.6719 63.1406
L17.6719 40.9688
L51.2656 40.9688
L51.2656 32.5156
L17.6719 32.5156
L17.6719 0
z
" id="ArialMT-46"/>
     <path d="
M6.39062 0
L6.39062 71.5781
L15.1875 71.5781
L15.1875 0
z
" id="ArialMT-6c"/>
     <path d="
M3.32812 25.9219
Q3.32812 40.3281 11.3281 47.2656
Q18.0156 53.0312 27.6406 53.0312
Q38.3281 53.0312 45.1094 46.0156
Q51.9062 39.0156 51.9062 26.6562
Q51.9062 16.6562 48.9062 10.9062
Q45.9062 5.17188 40.1562 2
Q34.4219 -1.17188 27.6406 -1.17188
Q16.75 -1.17188 10.0312 5.8125
Q3.32812 12.7969 3.32812 25.9219
M12.3594 25.9219
Q12.3594 15.9688 16.7031 11.0156
Q21.0469 6.0625 27.6406 6.0625
Q34.1875 6.0625 38.5312 11.0312
Q42.875 16.0156 42.875 26.2188
Q42.875 35.8438 38.5 40.7969
Q34.125 45.75 27.6406 45.75
Q21.0469 45.75 16.7031 40.8125
Q12.3594 35.8906 12.3594 25.9219" id="ArialMT-6f"/>
     <path d="
M6.59375 0
L6.59375 51.8594
L14.5 51.8594
L14.5 44.4844
Q20.2188 53.0312 31 53.0312
Q35.6875 53.0312 39.625 51.3438
Q43.5625 49.6562 45.5156 46.9219
Q47.4688 44.1875 48.25 40.4375
Q48.7344 37.9844 48.7344 31.8906
L48.7344 0
L39.9375 0
L39.9375 31.5469
Q39.9375 36.9219 38.9062 39.5781
Q37.8906 42.2344 35.2812 43.8125
Q32.6719 45.4062 29.1562 45.4062
Q23.5312 45.4062 19.4531 41.8438
Q15.375 38.2812 15.375 28.3281
L15.375 0
z
" id="ArialMT-6e"/>
     <path d="
M39.6562 -19.875
L39.6562 5.51562
Q37.5938 2.64062 33.9062 0.734375
Q30.2188 -1.17188 26.0781 -1.17188
Q16.8438 -1.17188 10.1719 6.20312
Q3.51562 13.5781 3.51562 26.4219
Q3.51562 34.2344 6.21875 40.4219
Q8.9375 46.625 14.0781 49.8281
Q19.2344 53.0312 25.3906 53.0312
Q35.0156 53.0312 40.5312 44.9219
L40.5312 51.8594
L48.4375 51.8594
L48.4375 -19.875
z

M12.5469 26.0781
Q12.5469 16.0625 16.75 11.0625
Q20.9531 6.0625 26.8125 6.0625
Q32.4219 6.0625 36.4688 10.8125
Q40.5312 15.5781 40.5312 25.2969
Q40.5312 35.6406 36.25 40.8594
Q31.9844 46.0938 26.2188 46.0938
Q20.5156 46.0938 16.5312 41.2344
Q12.5469 36.375 12.5469 26.0781" id="ArialMT-71"/>
     <path d="
M3.07812 15.4844
L11.7656 16.8438
Q12.5 11.625 15.8438 8.84375
Q19.1875 6.0625 25.2031 6.0625
Q31.25 6.0625 34.1719 8.51562
Q37.1094 10.9844 37.1094 14.3125
Q37.1094 17.2812 34.5156 19
Q32.7188 20.1719 25.5312 21.9688
Q15.875 24.4219 12.1406 26.2031
Q8.40625 27.9844 6.46875 31.125
Q4.54688 34.2812 4.54688 38.0938
Q4.54688 41.5469 6.125 44.5
Q7.71875 47.4688 10.4531 49.4219
Q12.5 50.9219 16.0312 51.9688
Q19.5781 53.0312 23.6406 53.0312
Q29.7344 53.0312 34.3438 51.2656
Q38.9688 49.5156 41.1562 46.5
Q43.3594 43.5 44.1875 38.4844
L35.5938 37.3125
Q35.0156 41.3125 32.2031 43.5469
Q29.3906 45.7969 24.2656 45.7969
Q18.2188 45.7969 15.625 43.7969
Q13.0312 41.7969 13.0312 39.1094
Q13.0312 37.4062 14.1094 36.0312
Q15.1875 34.625 17.4844 33.6875
Q18.7969 33.2031 25.25 31.4531
Q34.5781 28.9531 38.25 27.3594
Q41.9375 25.7812 44.0312 22.75
Q46.1406 19.7344 46.1406 15.2344
Q46.1406 10.8438 43.5781 6.95312
Q41.0156 3.07812 36.1719 0.953125
Q31.3438 -1.17188 25.25 -1.17188
Q15.1406 -1.17188 9.84375 3.03125
Q4.54688 7.23438 3.07812 15.4844" id="ArialMT-73"/>
     <path id="ArialMT-20"/>
    </defs>
    <g transform="translate(202.85325 38.2)scale(0.144 -0.144)">
     <use xlink:href="#ArialMT-46"/>
     <use x="61.083984375" xlink:href="#ArialMT-6c"/>
     <use x="83.30078125" xlink:href="#ArialMT-69"/>
     <use x="105.517578125" xlink:href="#ArialMT-67"/>
     <use x="161.1328125" xlink:href="#ArialMT-68"/>
     <use x="216.748046875" xlink:href="#ArialMT-74"/>
     <use x="244.53125" xlink:href="#ArialMT-20"/>
     <use x="272.314453125" xlink:href="#ArialMT-50"/>
     <use x="339.013671875" xlink:href="#ArialMT-44"/>
     <use x="411.23046875" xlink:href="#ArialMT-46"/>
     <use x="472.314453125" xlink:href="#ArialMT-20"/>
     <use x="500.09765625" xlink:href="#ArialMT-71"/>
     <use x="555.712890625" xlink:href="#ArialMT-75"/>
     <use x="611.328125" xlink:href="#ArialMT-65"/>
     <use x="666.943359375" xlink:href="#ArialMT-75"/>
     <use x="722.55859375" xlink:href="#ArialMT-65"/>
     <use x="778.173828125" xlink:href="#ArialMT-20"/>
     <use x="805.95703125" xlink:href="#ArialMT-64"/>
     <use x="861.572265625" xlink:href="#ArialMT-69"/>
     <use x="883.7890625" xlink:href="#ArialMT-73"/>
     <use x="933.7890625" xlink:href="#ArialMT-74"/>
     <use x="961.572265625" xlink:href="#ArialMT-72"/>
     <use x="994.873046875" xlink:href="#ArialMT-69"/>
     <use x="1017.08984375" xlink:href="#ArialMT-62"/>
     <use x="1072.70507812" xlink:href="#ArialMT-75"/>
     <use x="1128.3203125" xlink:href="#ArialMT-74"/>
     <use x="1156.10351562" xlink:href="#ArialMT-69"/>
     <use x="1178.3203125" xlink:href="#ArialMT-6f"/>
     <use x="1233.93554688" xlink:href="#ArialMT-6e"/>
    </g>
   </g>
  </g>
 </g>
 <defs>
  <clipPath id="p7ff5b81e1d">
   <rect height="345.6" width="446.4" x="72.0" y="43.2"/>
  </clipPath>
 </defs>
</svg>
