<?xml version="1.0" encoding="utf-8" standalone="no"?>
<!DOCTYPE svg PUBLIC "-//W3C//DTD SVG 1.1//EN"
  "http://www.w3.org/Graphics/SVG/1.1/DTD/svg11.dtd">
<!-- Created with matplotlib (http://matplotlib.org/) -->
<svg height="432pt" version="1.1" viewBox="0 0 576 432" width="576pt" xmlns="http://www.w3.org/2000/svg" xmlns:xlink="http://www.w3.org/1999/xlink">
 <defs>
  <style type="text/css">
*{stroke-linecap:butt;stroke-linejoin:round;}
  </style>
 </defs>
 <g id="figure_1">
  <g id="patch_1">
   <path d="
M0 432
L576 432
L576 0
L0 0
z
" style="fill:#ffffff;"/>
  </g>
  <g id="axes_1">
   <g id="patch_2">
    <path d="
M72 388.8
L518.4 388.8
L518.4 43.2
L72 43.2
z
" style="fill:#ffffff;"/>
   </g>
   <g id="line2d_1">
    <path clip-path="url(#p7ff5b81e1d)" d="
M72 55.7994
L72.8932 65.0212
L74.0098 79.621
L75.3497 100.971
L76.9129 129.866
L79.5926 184.56
L82.719 247.172
L84.5055 278.759
L86.0686 302.805
L87.4085 320.506
L88.7484 335.512
L90.0882 347.949
L91.2048 356.504
L92.3214 363.578
L93.4379 369.343
L94.5545 373.973
L95.671 377.639
L96.7876 380.501
L97.9042 382.704
L99.0207 384.377
L100.137 385.63
L101.254 386.556
L102.594 387.341
L103.934 387.868
L105.72 388.301
L107.953 388.582
L111.303 388.742
L118.449 388.798
L223.852 388.8
L518.4 388.8
L518.4 388.8" style="fill:none;stroke:#8000ff;stroke-linecap:square;"/>
   </g>
   <g id="line2d_2">
    <path clip-path="url(#p7ff5b81e1d)" d="
M99.5001 388.8
L99.5001 55.7994" style="fill:none;stroke:#8000ff;stroke-linecap:square;"/>
   </g>
   <g id="line2d_3">
    <path clip-path="url(#p7ff5b81e1d)" d="
M72 356.057
L73.1166 347.414
L74.2331 337.126
L75.573 322.434
L76.9129 305.057
L78.476 281.378
L80.0392 254.275
L82.049 215.383
L87.8551 99.8755
L89.195 78.7045
L90.3116 64.2884
L91.2048 55.2323
L92.098 48.6037
L92.768 45.3195
L93.2146 43.9591
L93.6612 43.2718
L93.8845 43.182
L94.1079 43.2618
L94.3312 43.5109
L94.7778 44.5155
L95.2244 46.19
L95.8943 49.9353
L96.5643 55.1159
L97.4575 64.1374
L98.3508 75.3841
L99.4673 92.1877
L100.807 115.625
L102.817 155.216
L107.73 254.032
L109.516 284.768
L111.08 307.961
L112.419 324.913
L113.759 339.193
L115.099 350.956
L116.216 359.002
L117.332 365.623
L118.449 370.993
L119.565 375.285
L120.682 378.668
L121.798 381.297
L122.915 383.311
L124.032 384.833
L125.148 385.969
L126.265 386.804
L127.605 387.508
L129.168 388.04
L130.954 388.397
L133.411 388.64
L137.43 388.769
L148.596 388.8
L518.4 388.8
L518.4 388.8" style="fill:none;stroke:#622ffe;stroke-linecap:square;"/>
   </g>
   <g id="line2d_4">
    <path clip-path="url(#p7ff5b81e1d)" d="
M124.141 388.8
L124.141 43.182" style="fill:none;stroke:#622ffe;stroke-linecap:square;"/>
   </g>
   <g id="line2d_5">
    <path clip-path="url(#p7ff5b81e1d)" d="
M72 388.792
L78.6993 388.659
L81.3791 388.41
L83.3889 388.004
L84.9521 387.45
L86.2919 386.717
L87.4085 385.851
L88.5251 384.674
L89.6416 383.099
L90.5349 381.48
L91.4281 379.476
L92.3214 377.015
L93.4379 373.18
L94.5545 368.35
L95.671 362.352
L96.7876 355.012
L97.9042 346.161
L99.0207 335.648
L100.361 320.667
L101.7 302.993
L103.264 278.978
L105.05 247.42
L107.283 203.302
L111.973 109.094
L113.536 83.1101
L114.653 67.8424
L115.546 58.0142
L116.439 50.55
L117.109 46.6083
L117.779 44.1455
L118.226 43.3419
L118.449 43.1938
L118.672 43.2152
L118.895 43.406
L119.342 44.2946
L119.789 45.8543
L120.459 49.4315
L121.129 54.4504
L122.022 63.27
L122.915 74.3345
L124.032 90.9429
L125.371 114.2
L127.381 153.641
L132.294 252.618
L134.081 283.534
L135.644 306.906
L136.984 324.013
L138.324 338.444
L139.663 350.345
L140.78 358.496
L141.897 365.209
L143.013 370.66
L144.13 375.021
L145.246 378.461
L146.363 381.137
L147.479 383.189
L148.596 384.742
L149.712 385.901
L150.829 386.754
L152.169 387.475
L153.732 388.019
L155.519 388.386
L157.975 388.636
L161.771 388.765
L171.82 388.8
L518.4 388.8
L518.4 388.8" style="fill:none;stroke:#445cfb;stroke-linecap:square;"/>
   </g>
   <g id="line2d_6">
    <path clip-path="url(#p7ff5b81e1d)" d="
M148.782 388.8
L148.782 43.1938" style="fill:none;stroke:#445cfb;stroke-linecap:square;"/>
   </g>
   <g id="line2d_7">
    <path clip-path="url(#p7ff5b81e1d)" d="
M72 388.8
L102.594 388.695
L105.72 388.451
L107.73 388.083
L109.293 387.578
L110.633 386.907
L111.749 386.111
L112.866 385.026
L113.983 383.567
L114.876 382.064
L115.769 380.197
L116.662 377.898
L117.779 374.302
L118.895 369.756
L120.012 364.089
L121.129 357.127
L122.245 348.699
L123.362 338.645
L124.702 324.255
L126.041 307.189
L127.381 287.418
L128.944 261.101
L130.954 222.951
L137.43 94.9325
L138.77 74.6142
L139.887 61.0636
L140.78 52.7831
L141.45 48.1944
L142.12 45.0637
L142.566 43.8077
L143.013 43.2257
L143.236 43.1887
L143.46 43.3212
L143.906 44.0936
L144.353 45.5383
L145.023 48.9466
L145.693 53.8031
L146.586 62.4194
L147.479 73.2997
L148.596 89.7104
L149.936 112.784
L151.722 147.523
L157.305 259.353
L159.092 289.388
L160.655 311.898
L161.995 328.258
L163.334 341.972
L164.674 353.213
L165.791 360.869
L166.907 367.146
L168.024 372.216
L169.141 376.254
L170.257 379.424
L171.374 381.879
L172.49 383.753
L173.607 385.165
L174.723 386.213
L175.84 386.982
L177.18 387.628
L178.743 388.114
L180.753 388.467
L183.433 388.681
L188.122 388.783
L206.21 388.8
L518.4 388.8
L518.4 388.8" style="fill:none;stroke:#2686f5;stroke-linecap:square;"/>
   </g>
   <g id="line2d_8">
    <path clip-path="url(#p7ff5b81e1d)" d="
M173.424 388.8
L173.424 43.1887" style="fill:none;stroke:#2686f5;stroke-linecap:square;"/>
   </g>
   <g id="line2d_9">
    <path clip-path="url(#p7ff5b81e1d)" d="
M72 388.8
L127.158 388.698
L130.284 388.461
L132.294 388.102
L133.857 387.609
L135.197 386.953
L136.314 386.174
L137.43 385.111
L138.547 383.682
L139.44 382.207
L140.333 380.373
L141.227 378.114
L142.343 374.578
L143.46 370.103
L144.576 364.519
L145.693 357.652
L146.809 349.329
L147.926 339.393
L149.266 325.152
L150.606 308.242
L151.946 288.624
L153.509 262.471
L155.519 224.481
L159.315 146.531
L161.325 107.843
L162.888 82.071
L164.004 66.9973
L164.898 57.3458
L165.791 50.0735
L166.461 46.2832
L166.907 44.578
L167.354 43.5424
L167.801 43.1823
L168.024 43.2564
L168.247 43.5
L168.694 44.4935
L169.141 46.157
L169.811 49.8863
L170.48 55.0515
L171.374 64.0537
L172.267 75.2831
L173.383 92.0681
L174.723 115.488
L176.733 155.066
L181.646 253.897
L183.433 284.65
L184.996 307.861
L186.336 324.827
L187.675 339.122
L189.015 350.898
L190.132 358.954
L191.248 365.584
L192.365 370.961
L193.482 375.26
L194.598 378.648
L195.715 381.281
L196.831 383.299
L197.948 384.825
L199.064 385.962
L200.181 386.799
L201.521 387.505
L203.084 388.038
L204.87 388.396
L207.327 388.64
L211.346 388.769
L222.512 388.8
L518.4 388.8
L518.4 388.8" style="fill:none;stroke:#08acee;stroke-linecap:square;"/>
   </g>
   <g id="line2d_10">
    <path clip-path="url(#p7ff5b81e1d)" d="
M198.065 388.8
L198.065 43.1823" style="fill:none;stroke:#08acee;stroke-linecap:square;"/>
   </g>
   <g id="line2d_11">
    <path clip-path="url(#p7ff5b81e1d)" d="
M72 388.8
L151.946 388.692
L155.072 388.442
L157.082 388.065
L158.645 387.549
L159.985 386.865
L161.101 386.052
L162.218 384.947
L163.334 383.462
L164.228 381.932
L165.121 380.034
L166.014 377.698
L167.131 374.049
L168.247 369.438
L169.364 363.696
L170.48 356.647
L171.597 348.121
L172.714 337.962
L174.053 323.436
L175.393 306.23
L176.956 282.745
L178.52 255.815
L180.529 217.082
L186.336 101.327
L187.675 79.9196
L188.792 65.2607
L189.685 55.9856
L190.578 49.1207
L191.248 45.6509
L191.695 44.1643
L192.142 43.3497
L192.365 43.196
L192.588 43.2118
L192.812 43.397
L193.258 44.2745
L193.705 45.8233
L194.375 49.3843
L195.045 54.3877
L195.938 63.1879
L196.831 74.2349
L197.948 90.8245
L199.288 114.064
L201.297 153.491
L206.21 252.483
L207.997 283.416
L209.56 306.804
L210.9 323.927
L212.24 338.372
L213.58 350.286
L214.696 358.447
L215.813 365.17
L216.929 370.628
L218.046 374.995
L219.162 378.441
L220.279 381.121
L221.395 383.178
L222.512 384.733
L223.629 385.894
L224.745 386.749
L226.085 387.472
L227.648 388.017
L229.435 388.385
L231.891 388.635
L235.687 388.765
L245.736 388.8
L518.4 388.8
L518.4 388.8" style="fill:none;stroke:#17cbe4;stroke-linecap:square;"/>
   </g>
   <g id="line2d_12">
    <path clip-path="url(#p7ff5b81e1d)" d="
M222.706 388.8
L222.706 43.196" style="fill:none;stroke:#17cbe4;stroke-linecap:square;"/>
   </g>
   <g id="line2d_13">
    <path clip-path="url(#p7ff5b81e1d)" d="
M72 388.8
L176.51 388.695
L179.636 388.452
L181.646 388.085
L183.209 387.581
L184.549 386.912
L185.666 386.117
L186.782 385.034
L187.899 383.578
L188.792 382.078
L189.685 380.214
L190.578 377.918
L191.695 374.329
L192.812 369.79
L193.928 364.131
L195.045 357.178
L196.161 348.759
L197.278 338.717
L198.618 324.341
L199.958 307.291
L201.297 287.534
L202.861 261.232
L204.87 223.097
L211.346 95.0547
L212.686 74.7143
L213.803 61.1416
L214.696 52.8414
L215.366 48.237
L216.036 45.09
L216.483 43.8229
L216.929 43.2298
L217.153 43.1872
L217.376 43.3141
L217.823 44.0754
L218.269 45.5091
L218.939 48.9012
L219.609 53.7421
L220.502 62.3389
L221.395 73.2015
L222.512 89.5931
L223.852 112.649
L225.638 147.374
L231.221 259.22
L233.008 289.273
L234.571 311.801
L235.911 328.176
L237.251 341.904
L238.59 353.158
L239.707 360.824
L240.824 367.108
L241.94 372.186
L243.057 376.23
L244.173 379.406
L245.29 381.865
L246.406 383.743
L247.523 385.157
L248.64 386.208
L249.756 386.978
L251.096 387.625
L252.659 388.112
L254.669 388.466
L257.349 388.68
L262.038 388.783
L279.903 388.8
L518.4 388.8
L518.4 388.8" style="fill:none;stroke:#34e4d9;stroke-linecap:square;"/>
   </g>
   <g id="line2d_14">
    <path clip-path="url(#p7ff5b81e1d)" d="
M247.347 388.8
L247.347 43.1872" style="fill:none;stroke:#34e4d9;stroke-linecap:square;"/>
   </g>
   <g id="line2d_15">
    <path clip-path="url(#p7ff5b81e1d)" d="
M72 388.8
L201.297 388.689
L204.201 388.462
L206.21 388.104
L207.773 387.612
L209.113 386.958
L210.23 386.18
L211.346 385.119
L212.463 383.692
L213.356 382.22
L214.25 380.39
L215.143 378.135
L216.259 374.605
L217.376 370.136
L218.492 364.56
L219.609 357.702
L220.726 349.389
L221.842 339.464
L223.182 325.238
L224.522 308.343
L225.862 288.739
L227.425 262.602
L229.435 224.627
L233.231 146.68
L235.241 107.975
L236.804 82.1804
L237.921 67.0861
L238.814 57.4158
L239.707 50.1232
L240.377 46.3169
L240.824 44.6007
L241.27 43.5539
L241.717 43.1827
L241.94 43.2513
L242.163 43.4892
L242.61 44.4717
L243.057 46.1243
L243.727 49.8374
L244.397 54.9872
L245.29 63.9701
L246.183 75.1822
L247.3 91.9486
L248.64 115.351
L250.649 154.915
L255.562 253.762
L257.349 284.532
L258.912 307.76
L260.252 324.741
L261.592 339.051
L262.931 350.84
L264.048 358.906
L265.165 365.545
L266.281 370.93
L267.398 375.235
L268.514 378.629
L269.631 381.266
L270.747 383.288
L271.864 384.816
L272.98 385.956
L274.097 386.794
L275.437 387.502
L277 388.036
L278.787 388.395
L281.243 388.639
L285.039 388.766
L295.312 388.8
L518.4 388.8
L518.4 388.8" style="fill:none;stroke:#52f5cb;stroke-linecap:square;"/>
   </g>
   <g id="line2d_16">
    <path clip-path="url(#p7ff5b81e1d)" d="
M271.988 388.8
L271.988 43.1827" style="fill:none;stroke:#52f5cb;stroke-linecap:square;"/>
   </g>
   <g id="line2d_17">
    <path clip-path="url(#p7ff5b81e1d)" d="
M72 388.8
L225.862 388.692
L228.988 388.443
L230.998 388.067
L232.561 387.553
L233.901 386.869
L235.018 386.059
L236.134 384.955
L237.251 383.473
L238.144 381.946
L239.037 380.051
L239.93 377.72
L241.047 374.076
L242.163 369.472
L243.28 363.737
L244.397 356.698
L245.513 348.183
L246.63 338.035
L247.97 323.523
L249.309 306.331
L250.873 282.863
L252.436 255.949
L254.446 217.23
L260.252 101.454
L261.592 80.0265
L262.708 65.3466
L263.601 56.0524
L264.495 49.1669
L265.165 45.681
L265.611 44.1834
L266.058 43.3576
L266.281 43.1984
L266.504 43.2086
L266.728 43.3882
L267.174 44.2546
L267.621 45.7924
L268.291 49.3372
L268.961 54.3251
L269.854 63.106
L270.747 74.1354
L271.864 90.7062
L273.204 113.928
L275.214 153.34
L280.35 256.438
L282.136 286.861
L283.699 309.748
L285.039 326.433
L286.379 340.458
L287.719 351.985
L288.836 359.854
L289.952 366.318
L291.069 371.552
L292.185 375.728
L293.302 379.014
L294.418 381.564
L295.535 383.514
L296.652 384.986
L297.768 386.081
L298.885 386.886
L300.225 387.564
L301.788 388.074
L303.574 388.416
L306.031 388.648
L310.05 388.771
L321.662 388.8
L518.4 388.8
L518.4 388.8" style="fill:none;stroke:#70febc;stroke-linecap:square;"/>
   </g>
   <g id="line2d_18">
    <path clip-path="url(#p7ff5b81e1d)" d="
M296.629 388.8
L296.629 43.1984" style="fill:none;stroke:#70febc;stroke-linecap:square;"/>
   </g>
   <g id="line2d_19">
    <path clip-path="url(#p7ff5b81e1d)" d="
M72 388.8
L250.426 388.695
L253.552 388.453
L255.562 388.087
L257.125 387.584
L258.465 386.916
L259.582 386.123
L260.698 385.042
L261.815 383.589
L262.708 382.091
L263.601 380.231
L264.495 377.939
L265.611 374.355
L266.728 369.823
L267.844 364.172
L268.961 357.228
L270.077 348.82
L271.194 338.789
L272.534 324.427
L273.874 307.392
L275.214 287.649
L276.777 261.364
L278.787 223.244
L285.263 95.1769
L286.603 74.8146
L287.719 61.2197
L288.612 52.8998
L289.282 48.2797
L289.952 45.1165
L290.399 43.8383
L290.845 43.2341
L291.069 43.1859
L291.292 43.3072
L291.739 44.0574
L292.185 45.4801
L292.632 47.5671
L293.302 51.9153
L293.972 57.673
L294.865 67.4116
L295.982 82.5811
L297.321 104.482
L299.108 138.243
L306.031 274.666
L307.594 299.269
L309.157 320.236
L310.497 335.287
L311.837 347.764
L312.953 356.35
L314.07 363.451
L315.186 369.24
L316.303 373.891
L317.42 377.575
L318.536 380.451
L319.653 382.666
L320.769 384.348
L321.886 385.609
L323.002 386.54
L324.342 387.33
L325.682 387.861
L327.469 388.297
L329.702 388.58
L333.051 388.742
L340.197 388.798
L444.484 388.8
L518.4 388.8
L518.4 388.8" style="fill:none;stroke:#8efeac;stroke-linecap:square;"/>
   </g>
   <g id="line2d_20">
    <path clip-path="url(#p7ff5b81e1d)" d="
M321.271 388.8
L321.271 43.1859" style="fill:none;stroke:#8efeac;stroke-linecap:square;"/>
   </g>
   <g id="line2d_21">
    <path clip-path="url(#p7ff5b81e1d)" d="
M72 388.8
L275.214 388.689
L278.117 388.463
L280.126 388.105
L281.69 387.615
L283.03 386.962
L284.146 386.186
L285.263 385.127
L286.379 383.703
L287.272 382.234
L288.166 380.407
L289.059 378.155
L290.175 374.631
L291.292 370.169
L292.409 364.601
L293.525 357.752
L294.642 349.449
L295.758 339.535
L297.098 325.323
L298.438 308.443
L299.778 288.854
L301.341 262.733
L303.128 229.188
L306.031 169.776
L308.71 116.281
L310.274 89.1656
L311.613 69.9438
L312.507 59.6933
L313.4 51.7684
L314.07 47.4622
L314.74 44.6236
L315.186 43.5657
L315.633 43.1834
L315.856 43.2463
L316.08 43.4787
L316.526 44.45
L316.973 46.0917
L317.643 49.7888
L318.313 54.9231
L319.206 63.8868
L320.099 75.0814
L321.216 91.8292
L322.556 115.215
L324.565 154.764
L329.478 253.627
L331.265 284.414
L332.828 307.659
L334.168 324.655
L335.508 338.979
L336.848 350.781
L337.964 358.857
L339.081 365.505
L340.197 370.898
L341.314 375.21
L342.43 378.609
L343.547 381.251
L344.664 383.276
L345.78 384.807
L346.897 385.949
L348.013 386.789
L349.353 387.499
L350.916 388.034
L352.703 388.394
L355.159 388.639
L358.955 388.766
L369.228 388.8
L518.4 388.8
L518.4 388.8" style="fill:none;stroke:#acf59a;stroke-linecap:square;"/>
   </g>
   <g id="line2d_22">
    <path clip-path="url(#p7ff5b81e1d)" d="
M345.912 388.8
L345.912 43.1834" style="fill:none;stroke:#acf59a;stroke-linecap:square;"/>
   </g>
   <g id="line2d_23">
    <path clip-path="url(#p7ff5b81e1d)" d="
M72 388.8
L299.778 388.693
L302.904 388.444
L304.914 388.069
L306.477 387.556
L307.817 386.874
L308.934 386.065
L310.05 384.963
L311.167 383.484
L312.06 381.96
L312.953 380.069
L313.847 377.741
L314.963 374.103
L316.08 369.505
L317.196 363.779
L318.313 356.749
L319.429 348.244
L320.546 338.108
L321.886 323.61
L323.226 306.433
L324.565 286.552
L326.129 260.119
L328.138 221.857
L334.615 94.0254
L335.954 73.872
L337.071 60.4871
L337.964 52.3542
L338.634 47.8828
L339.304 44.8734
L339.751 43.6998
L340.197 43.2009
L340.421 43.2055
L340.644 43.3796
L341.091 44.2349
L341.537 45.7616
L342.207 49.2904
L342.877 54.2628
L343.77 63.0242
L344.664 74.036
L345.78 90.588
L347.12 113.793
L349.13 153.19
L354.266 256.304
L356.052 286.745
L357.616 309.649
L358.955 326.349
L360.295 340.388
L361.635 351.928
L362.752 359.807
L363.868 366.28
L364.985 371.521
L366.101 375.704
L367.218 378.995
L368.335 381.549
L369.451 383.503
L370.568 384.977
L371.684 386.075
L372.801 386.881
L374.141 387.561
L375.704 388.072
L377.49 388.415
L379.947 388.648
L383.966 388.771
L395.579 388.8
L518.4 388.8
L518.4 388.8" style="fill:none;stroke:#cbe486;stroke-linecap:square;"/>
   </g>
   <g id="line2d_24">
    <path clip-path="url(#p7ff5b81e1d)" d="
M370.553 388.8
L370.553 43.2009" style="fill:none;stroke:#cbe486;stroke-linecap:square;"/>
   </g>
   <g id="line2d_25">
    <path clip-path="url(#p7ff5b81e1d)" d="
M72 388.8
L324.342 388.696
L327.469 388.454
L329.478 388.088
L331.042 387.587
L332.381 386.921
L333.498 386.129
L334.615 385.05
L335.731 383.6
L336.624 382.105
L337.518 380.248
L338.411 377.96
L339.527 374.382
L340.644 369.856
L341.76 364.213
L342.877 357.279
L343.994 348.88
L345.11 338.861
L346.45 324.513
L347.79 307.492
L349.13 287.765
L350.693 261.495
L352.703 223.39
L359.402 91.6321
L360.742 71.927
L361.859 58.9902
L362.752 51.2547
L363.422 47.0985
L364.092 44.4147
L364.538 43.4617
L364.762 43.2385
L364.985 43.1848
L365.208 43.3005
L365.655 44.0396
L366.101 45.4513
L366.548 47.5274
L367.218 51.8598
L367.888 57.6024
L368.781 67.3223
L369.898 82.4713
L371.238 104.352
L373.024 138.096
L379.947 274.542
L381.51 299.162
L383.073 320.146
L384.413 335.211
L385.753 347.702
L386.869 356.298
L387.986 363.409
L389.103 369.206
L390.219 373.864
L391.336 377.553
L392.452 380.434
L393.569 382.653
L394.685 384.339
L395.802 385.601
L396.918 386.535
L398.258 387.327
L399.598 387.859
L401.161 388.254
L403.171 388.538
L406.298 388.723
L412.327 388.794
L459.669 388.8
L518.4 388.8
L518.4 388.8" style="fill:none;stroke:#e8cb72;stroke-linecap:square;"/>
   </g>
   <g id="line2d_26">
    <path clip-path="url(#p7ff5b81e1d)" d="
M395.194 388.8
L395.194 43.1848" style="fill:none;stroke:#e8cb72;stroke-linecap:square;"/>
   </g>
   <g id="line2d_27">
    <path clip-path="url(#p7ff5b81e1d)" d="
M72 388.8
L349.13 388.69
L352.033 388.464
L354.043 388.107
L355.606 387.618
L356.946 386.966
L358.062 386.192
L359.179 385.135
L360.295 383.714
L361.189 382.247
L362.082 380.423
L362.975 378.176
L364.092 374.657
L365.208 370.202
L366.325 364.641
L367.441 357.801
L368.558 349.509
L369.674 339.606
L371.014 325.408
L372.354 308.543
L373.694 288.969
L375.257 262.863
L377.044 229.333
L379.947 169.928
L382.627 116.419
L384.19 89.2825
L385.53 70.0373
L386.423 59.7684
L387.316 51.8236
L387.986 47.5016
L388.656 44.6466
L389.103 43.5777
L389.549 43.1842
L389.772 43.2416
L389.996 43.4684
L390.442 44.4286
L390.889 46.0592
L391.559 49.7403
L392.229 54.8591
L393.122 63.8035
L394.015 74.9807
L395.132 91.71
L396.472 115.078
L398.482 154.613
L403.394 253.492
L405.181 284.297
L406.744 307.558
L408.084 324.57
L409.424 338.908
L410.764 350.723
L411.88 358.809
L412.997 365.466
L414.113 370.866
L415.23 375.185
L416.347 378.589
L417.463 381.236
L418.58 383.265
L419.696 384.799
L420.813 385.943
L421.929 386.785
L423.269 387.496
L424.832 388.032
L426.619 388.393
L429.075 388.639
L432.872 388.766
L443.144 388.8
L518.4 388.8
L518.4 388.8" style="fill:none;stroke:#ffac5c;stroke-linecap:square;"/>
   </g>
   <g id="line2d_28">
    <path clip-path="url(#p7ff5b81e1d)" d="
M419.835 388.8
L419.835 43.1842" style="fill:none;stroke:#ffac5c;stroke-linecap:square;"/>
   </g>
   <g id="line2d_29">
    <path clip-path="url(#p7ff5b81e1d)" d="
M72 388.8
L373.694 388.693
L376.82 388.445
L378.83 388.071
L380.393 387.559
L381.733 386.878
L382.85 386.071
L383.966 384.972
L385.083 383.495
L385.976 381.974
L386.869 380.086
L387.763 377.762
L388.879 374.129
L389.996 369.539
L391.112 363.821
L392.229 356.8
L393.345 348.305
L394.462 338.18
L395.802 323.697
L397.142 306.535
L398.482 286.669
L400.045 260.251
L402.055 222.004
L408.531 94.1468
L409.871 73.9711
L410.987 60.5639
L411.88 52.4112
L412.55 47.924
L413.22 44.8984
L413.667 43.7137
L414.113 43.2036
L414.337 43.2027
L414.56 43.3712
L415.007 44.2153
L415.453 45.7311
L416.123 49.2437
L416.793 54.2005
L417.686 62.9426
L418.58 73.9368
L419.696 90.4698
L421.036 113.657
L423.046 153.039
L428.182 256.17
L429.969 286.628
L431.532 309.55
L432.872 326.265
L434.212 340.318
L435.551 351.871
L436.668 359.76
L437.784 366.242
L438.901 371.49
L440.018 375.68
L441.134 378.976
L442.251 381.534
L443.367 383.492
L444.484 384.969
L445.6 386.069
L446.717 386.877
L448.057 387.558
L449.62 388.07
L451.407 388.414
L453.863 388.647
L457.883 388.771
L469.495 388.8
L518.4 388.8
L518.4 388.8" style="fill:none;stroke:#ff8646;stroke-linecap:square;"/>
   </g>
   <g id="line2d_30">
    <path clip-path="url(#p7ff5b81e1d)" d="
M444.476 388.8
L444.476 43.2027" style="fill:none;stroke:#ff8646;stroke-linecap:square;"/>
   </g>
   <g id="line2d_31">
    <path clip-path="url(#p7ff5b81e1d)" d="
M72 388.8
L398.258 388.696
L401.385 388.455
L403.394 388.09
L404.958 387.59
L406.298 386.925
L407.414 386.135
L408.531 385.059
L409.647 383.611
L410.54 382.119
L411.434 380.265
L412.327 377.981
L413.444 374.408
L414.56 369.89
L415.677 364.255
L416.793 357.329
L417.91 348.941
L419.026 338.932
L420.366 324.599
L421.706 307.593
L423.046 287.88
L424.609 261.626
L426.619 223.537
L433.318 91.7513
L434.658 72.0234
L435.775 59.0639
L436.668 51.3083
L437.338 47.1362
L438.008 44.436
L438.454 43.4719
L438.678 43.2432
L438.901 43.1839
L439.124 43.294
L439.571 44.0219
L440.018 45.4226
L440.464 47.4879
L441.134 51.8045
L441.804 57.532
L442.697 67.2332
L443.814 82.3616
L445.154 104.223
L446.94 137.95
L453.863 274.418
L455.426 299.054
L456.989 320.056
L458.329 335.136
L459.669 347.641
L460.786 356.246
L461.902 363.367
L463.019 369.172
L464.135 373.836
L465.252 377.532
L466.368 380.418
L467.485 382.641
L468.602 384.329
L469.718 385.594
L470.835 386.529
L472.174 387.323
L473.514 387.856
L475.078 388.253
L477.087 388.538
L480.214 388.723
L486.243 388.794
L518.4 388.8
L518.4 388.8" style="fill:none;stroke:#ff5c2f;stroke-linecap:square;"/>
   </g>
   <g id="line2d_32">
    <path clip-path="url(#p7ff5b81e1d)" d="
M469.118 388.8
L469.118 43.1839" style="fill:none;stroke:#ff5c2f;stroke-linecap:square;"/>
   </g>
   <g id="line2d_33">
    <path clip-path="url(#p7ff5b81e1d)" d="
M72 388.8
L423.046 388.69
L426.172 388.436
L428.182 388.053
L429.745 387.53
L431.085 386.835
L432.202 386.012
L433.318 384.892
L434.435 383.389
L435.328 381.841
L436.221 379.922
L437.115 377.561
L438.231 373.873
L439.348 369.218
L440.464 363.424
L441.581 356.316
L442.697 347.724
L443.814 337.492
L445.154 322.873
L446.494 305.57
L448.057 281.976
L449.62 254.948
L451.63 216.125
L457.436 100.508
L458.776 79.2329
L459.892 64.7104
L460.786 55.5585
L461.679 48.8266
L462.349 45.4613
L462.795 44.0457
L463.242 43.3028
L463.465 43.1852
L463.689 43.237
L463.912 43.4582
L464.359 44.4073
L464.805 46.027
L465.475 49.6919
L466.145 54.7953
L467.038 63.7204
L467.932 74.8802
L469.048 91.5908
L470.388 114.942
L472.398 154.463
L477.311 253.357
L479.097 284.179
L480.66 307.458
L482 324.484
L483.34 338.836
L484.68 350.665
L485.796 358.761
L486.913 365.426
L488.03 370.834
L489.146 375.159
L490.263 378.569
L491.379 381.22
L492.496 383.253
L493.612 384.79
L494.729 385.936
L495.846 386.78
L497.185 387.492
L498.749 388.03
L500.535 388.392
L502.991 388.638
L506.788 388.765
L517.06 388.8
L518.4 388.8
L518.4 388.8" style="fill:none;stroke:#ff2f18;stroke-linecap:square;"/>
   </g>
   <g id="line2d_34">
    <path clip-path="url(#p7ff5b81e1d)" d="
M493.759 388.8
L493.759 43.1852" style="fill:none;stroke:#ff2f18;stroke-linecap:square;"/>
   </g>
   <g id="line2d_35">
    <path clip-path="url(#p7ff5b81e1d)" d="
M72 388.8
L447.61 388.693
L450.737 388.446
L452.746 388.073
L454.31 387.562
L455.649 386.883
L456.766 386.077
L457.883 384.98
L458.999 383.507
L459.892 381.988
L460.786 380.103
L461.679 377.783
L462.795 374.156
L463.912 369.573
L465.029 363.863
L466.145 356.851
L467.262 348.366
L468.378 338.252
L469.718 323.783
L471.058 306.637
L472.398 286.785
L473.961 260.383
L475.971 222.15
L482.447 94.2683
L483.787 74.0704
L484.903 60.6409
L485.796 52.4683
L486.466 47.9654
L487.136 44.9235
L487.583 43.7278
L488.03 43.2066
L488.253 43.2
L488.476 43.3629
L488.923 44.1959
L489.369 45.7007
L490.039 49.1972
L490.709 54.1385
L491.603 62.8611
L492.496 73.8377
L493.612 90.3519
L494.952 113.522
L496.962 152.889
L502.098 256.036
L503.885 286.512
L505.448 309.45
L506.788 326.18
L508.128 340.248
L509.468 351.814
L510.584 359.713
L511.701 366.203
L512.817 371.459
L513.934 375.655
L515.05 378.957
L516.167 381.519
L517.283 383.48
L518.4 384.961
L518.4 384.961" style="fill:none;stroke:#ff0000;stroke-linecap:square;"/>
   </g>
   <g id="line2d_36">
    <path clip-path="url(#p7ff5b81e1d)" d="
M518.4 388.8
L518.4 43.2" style="fill:none;stroke:#ff0000;stroke-linecap:square;"/>
   </g>
   <g id="matplotlib.axis_1">
    <g id="xtick_1">
     <g id="line2d_37">
      <path clip-path="url(#p7ff5b81e1d)" d="
M72 388.8
L72 43.2" style="fill:none;stroke:#000000;stroke-dasharray:1.000000,3.000000;stroke-dashoffset:0.0;stroke-width:0.5;"/>
     </g>
     <g id="line2d_38">
      <defs>
       <path d="
M0 0
L0 -4" id="m93b0483c22" style="stroke:#000000;stroke-width:0.5;"/>
      </defs>
      <g>
       <use style="stroke:#000000;stroke-width:0.5;" x="72.0" xlink:href="#m93b0483c22" y="388.8"/>
      </g>
     </g>
     <g id="line2d_39">
      <defs>
       <path d="
M0 0
L0 4" id="m741efc42ff" style="stroke:#000000;stroke-width:0.5;"/>
      </defs>
      <g>
       <use style="stroke:#000000;stroke-width:0.5;" x="72.0" xlink:href="#m741efc42ff" y="43.2"/>
      </g>
     </g>
     <g id="text_1">
      <!-- 0.0 -->
      <defs>
       <path d="
M4.15625 35.2969
Q4.15625 48 6.76562 55.7344
Q9.375 63.4844 14.5156 67.6719
Q19.6719 71.875 27.4844 71.875
Q33.25 71.875 37.5938 69.5469
Q41.9375 67.2344 44.7656 62.8594
Q47.6094 58.5 49.2188 52.2188
Q50.8281 45.9531 50.8281 35.2969
Q50.8281 22.7031 48.2344 14.9688
Q45.6562 7.23438 40.5 3
Q35.3594 -1.21875 27.4844 -1.21875
Q17.1406 -1.21875 11.2344 6.20312
Q4.15625 15.1406 4.15625 35.2969
M13.1875 35.2969
Q13.1875 17.6719 17.3125 11.8281
Q21.4375 6 27.4844 6
Q33.5469 6 37.6719 11.8594
Q41.7969 17.7188 41.7969 35.2969
Q41.7969 52.9844 37.6719 58.7812
Q33.5469 64.5938 27.3906 64.5938
Q21.3438 64.5938 17.7188 59.4688
Q13.1875 52.9375 13.1875 35.2969" id="ArialMT-30"/>
       <path d="
M9.07812 0
L9.07812 10.0156
L19.0938 10.0156
L19.0938 0
z
" id="ArialMT-2e"/>
      </defs>
      <g transform="translate(64.19625 401.389375)scale(0.12 -0.12)">
       <use xlink:href="#ArialMT-30"/>
       <use x="55.615234375" xlink:href="#ArialMT-2e"/>
       <use x="83.3984375" xlink:href="#ArialMT-30"/>
      </g>
     </g>
    </g>
    <g id="xtick_2">
     <g id="line2d_40">
      <path clip-path="url(#p7ff5b81e1d)" d="
M161.28 388.8
L161.28 43.2" style="fill:none;stroke:#000000;stroke-dasharray:1.000000,3.000000;stroke-dashoffset:0.0;stroke-width:0.5;"/>
     </g>
     <g id="line2d_41">
      <g>
       <use style="stroke:#000000;stroke-width:0.5;" x="161.28" xlink:href="#m93b0483c22" y="388.8"/>
      </g>
     </g>
     <g id="line2d_42">
      <g>
       <use style="stroke:#000000;stroke-width:0.5;" x="161.28" xlink:href="#m741efc42ff" y="43.2"/>
      </g>
     </g>
     <g id="text_2">
      <!-- 0.2 -->
      <defs>
       <path d="
M50.3438 8.45312
L50.3438 0
L3.03125 0
Q2.9375 3.17188 4.04688 6.10938
Q5.85938 10.9375 9.82812 15.625
Q13.8125 20.3125 21.3438 26.4688
Q33.0156 36.0312 37.1094 41.625
Q41.2188 47.2188 41.2188 52.2031
Q41.2188 57.4219 37.4688 61
Q33.7344 64.5938 27.7344 64.5938
Q21.3906 64.5938 17.5781 60.7812
Q13.7656 56.9844 13.7188 50.25
L4.6875 51.1719
Q5.60938 61.2812 11.6562 66.5781
Q17.7188 71.875 27.9375 71.875
Q38.2344 71.875 44.2344 66.1562
Q50.25 60.4531 50.25 52
Q50.25 47.7031 48.4844 43.5469
Q46.7344 39.4062 42.6562 34.8125
Q38.5781 30.2188 29.1094 22.2188
Q21.1875 15.5781 18.9375 13.2031
Q16.7031 10.8438 15.2344 8.45312
z
" id="ArialMT-32"/>
      </defs>
      <g transform="translate(153.5053125 401.389375)scale(0.12 -0.12)">
       <use xlink:href="#ArialMT-30"/>
       <use x="55.615234375" xlink:href="#ArialMT-2e"/>
       <use x="83.3984375" xlink:href="#ArialMT-32"/>
      </g>
     </g>
    </g>
    <g id="xtick_3">
     <g id="line2d_43">
      <path clip-path="url(#p7ff5b81e1d)" d="
M250.56 388.8
L250.56 43.2" style="fill:none;stroke:#000000;stroke-dasharray:1.000000,3.000000;stroke-dashoffset:0.0;stroke-width:0.5;"/>
     </g>
     <g id="line2d_44">
      <g>
       <use style="stroke:#000000;stroke-width:0.5;" x="250.56" xlink:href="#m93b0483c22" y="388.8"/>
      </g>
     </g>
     <g id="line2d_45">
      <g>
       <use style="stroke:#000000;stroke-width:0.5;" x="250.56" xlink:href="#m741efc42ff" y="43.2"/>
      </g>
     </g>
     <g id="text_3">
      <!-- 0.4 -->
      <defs>
       <path d="
M32.3281 0
L32.3281 17.1406
L1.26562 17.1406
L1.26562 25.2031
L33.9375 71.5781
L41.1094 71.5781
L41.1094 25.2031
L50.7812 25.2031
L50.7812 17.1406
L41.1094 17.1406
L41.1094 0
z

M32.3281 25.2031
L32.3281 57.4688
L9.90625 25.2031
z
" id="ArialMT-34"/>
      </defs>
      <g transform="translate(242.7590625 401.389375)scale(0.12 -0.12)">
       <use xlink:href="#ArialMT-30"/>
       <use x="55.615234375" xlink:href="#ArialMT-2e"/>
       <use x="83.3984375" xlink:href="#ArialMT-34"/>
      </g>
     </g>
    </g>
    <g id="xtick_4">
     <g id="line2d_46">
      <path clip-path="url(#p7ff5b81e1d)" d="
M339.84 388.8
L339.84 43.2" style="fill:none;stroke:#000000;stroke-dasharray:1.000000,3.000000;stroke-dashoffset:0.0;stroke-width:0.5;"/>
     </g>
     <g id="line2d_47">
      <g>
       <use style="stroke:#000000;stroke-width:0.5;" x="339.84" xlink:href="#m93b0483c22" y="388.8"/>
      </g>
     </g>
     <g id="line2d_48">
      <g>
       <use style="stroke:#000000;stroke-width:0.5;" x="339.84" xlink:href="#m741efc42ff" y="43.2"/>
      </g>
     </g>
     <g id="text_4">
      <!-- 0.6 -->
      <defs>
       <path d="
M49.75 54.0469
L41.0156 53.375
Q39.8438 58.5469 37.7031 60.8906
Q34.125 64.6562 28.9062 64.6562
Q24.7031 64.6562 21.5312 62.3125
Q17.3906 59.2812 14.9844 53.4688
Q12.5938 47.6562 12.5 36.9219
Q15.6719 41.75 20.2656 44.0938
Q24.8594 46.4375 29.8906 46.4375
Q38.6719 46.4375 44.8438 39.9688
Q51.0312 33.5 51.0312 23.25
Q51.0312 16.5 48.125 10.7188
Q45.2188 4.9375 40.1406 1.85938
Q35.0625 -1.21875 28.6094 -1.21875
Q17.625 -1.21875 10.6875 6.85938
Q3.76562 14.9375 3.76562 33.5
Q3.76562 54.25 11.4219 63.6719
Q18.1094 71.875 29.4375 71.875
Q37.8906 71.875 43.2812 67.1406
Q48.6875 62.4062 49.75 54.0469
M13.875 23.1875
Q13.875 18.6562 15.7969 14.5
Q17.7188 10.3594 21.1875 8.17188
Q24.6562 6 28.4688 6
Q34.0312 6 38.0312 10.4844
Q42.0469 14.9844 42.0469 22.7031
Q42.0469 30.125 38.0781 34.3906
Q34.125 38.6719 28.125 38.6719
Q22.1719 38.6719 18.0156 34.3906
Q13.875 30.125 13.875 23.1875" id="ArialMT-36"/>
      </defs>
      <g transform="translate(332.0240625 401.389375)scale(0.12 -0.12)">
       <use xlink:href="#ArialMT-30"/>
       <use x="55.615234375" xlink:href="#ArialMT-2e"/>
       <use x="83.3984375" xlink:href="#ArialMT-36"/>
      </g>
     </g>
    </g>
    <g id="xtick_5">
     <g id="line2d_49">
      <path clip-path="url(#p7ff5b81e1d)" d="
M429.12 388.8
L429.12 43.2" style="fill:none;stroke:#000000;stroke-dasharray:1.000000,3.000000;stroke-dashoffset:0.0;stroke-width:0.5;"/>
     </g>
     <g id="line2d_50">
      <g>
       <use style="stroke:#000000;stroke-width:0.5;" x="429.12" xlink:href="#m93b0483c22" y="388.8"/>
      </g>
     </g>
     <g id="line2d_51">
      <g>
       <use style="stroke:#000000;stroke-width:0.5;" x="429.12" xlink:href="#m741efc42ff" y="43.2"/>
      </g>
     </g>
     <g id="text_5">
      <!-- 0.8 -->
      <defs>
       <path d="
M17.6719 38.8125
Q12.2031 40.8281 9.5625 44.5312
Q6.9375 48.25 6.9375 53.4219
Q6.9375 61.2344 12.5469 66.5469
Q18.1719 71.875 27.4844 71.875
Q36.8594 71.875 42.5781 66.4219
Q48.2969 60.9844 48.2969 53.1719
Q48.2969 48.1875 45.6719 44.5
Q43.0625 40.8281 37.75 38.8125
Q44.3438 36.6719 47.7812 31.875
Q51.2188 27.0938 51.2188 20.4531
Q51.2188 11.2812 44.7188 5.03125
Q38.2344 -1.21875 27.6406 -1.21875
Q17.0469 -1.21875 10.5469 5.04688
Q4.04688 11.3281 4.04688 20.7031
Q4.04688 27.6875 7.59375 32.3906
Q11.1406 37.1094 17.6719 38.8125
M15.9219 53.7188
Q15.9219 48.6406 19.1875 45.4062
Q22.4688 42.1875 27.6875 42.1875
Q32.7656 42.1875 36.0156 45.375
Q39.2656 48.5781 39.2656 53.2188
Q39.2656 58.0625 35.9062 61.3594
Q32.5625 64.6562 27.5938 64.6562
Q22.5625 64.6562 19.2344 61.4219
Q15.9219 58.2031 15.9219 53.7188
M13.0938 20.6562
Q13.0938 16.8906 14.875 13.375
Q16.6562 9.85938 20.1719 7.92188
Q23.6875 6 27.7344 6
Q34.0312 6 38.125 10.0469
Q42.2344 14.1094 42.2344 20.3594
Q42.2344 26.7031 38.0156 30.8594
Q33.7969 35.0156 27.4375 35.0156
Q21.2344 35.0156 17.1562 30.9062
Q13.0938 26.8125 13.0938 20.6562" id="ArialMT-38"/>
      </defs>
      <g transform="translate(421.2928125 401.389375)scale(0.12 -0.12)">
       <use xlink:href="#ArialMT-30"/>
       <use x="55.615234375" xlink:href="#ArialMT-2e"/>
       <use x="83.3984375" xlink:href="#ArialMT-38"/>
      </g>
     </g>
    </g>
    <g id="xtick_6">
     <g id="line2d_52">
      <path clip-path="url(#p7ff5b81e1d)" d="
M518.4 388.8
L518.4 43.2" style="fill:none;stroke:#000000;stroke-dasharray:1.000000,3.000000;stroke-dashoffset:0.0;stroke-width:0.5;"/>
     </g>
     <g id="line2d_53">
      <g>
       <use style="stroke:#000000;stroke-width:0.5;" x="518.4" xlink:href="#m93b0483c22" y="388.8"/>
      </g>
     </g>
     <g id="line2d_54">
      <g>
       <use style="stroke:#000000;stroke-width:0.5;" x="518.4" xlink:href="#m741efc42ff" y="43.2"/>
      </g>
     </g>
     <g id="text_6">
      <!-- 1.0 -->
      <defs>
       <path d="
M37.25 0
L28.4688 0
L28.4688 56
Q25.2969 52.9844 20.1406 49.9531
Q14.9844 46.9219 10.8906 45.4062
L10.8906 53.9062
Q18.2656 57.375 23.7812 62.2969
Q29.2969 67.2344 31.5938 71.875
L37.25 71.875
z
" id="ArialMT-31"/>
      </defs>
      <g transform="translate(511.0003125 401.389375)scale(0.12 -0.12)">
       <use xlink:href="#ArialMT-31"/>
       <use x="55.615234375" xlink:href="#ArialMT-2e"/>
       <use x="83.3984375" xlink:href="#ArialMT-30"/>
      </g>
     </g>
    </g>
    <g id="text_7">
     <!-- t -->
     <defs>
      <path d="
M25.7812 7.85938
L27.0469 0.09375
Q23.3438 -0.6875 20.4062 -0.6875
Q15.625 -0.6875 12.9844 0.828125
Q10.3594 2.34375 9.28125 4.8125
Q8.20312 7.28125 8.20312 15.1875
L8.20312 45.0156
L1.76562 45.0156
L1.76562 51.8594
L8.20312 51.8594
L8.20312 64.7031
L16.9375 69.9688
L16.9375 51.8594
L25.7812 51.8594
L25.7812 45.0156
L16.9375 45.0156
L16.9375 14.7031
Q16.9375 10.9375 17.4062 9.85938
Q17.875 8.79688 18.9219 8.15625
Q19.9688 7.51562 21.9219 7.51562
Q23.3906 7.51562 25.7812 7.85938" id="ArialMT-74"/>
     </defs>
     <g transform="translate(293.683125 417.36375)scale(0.12 -0.12)">
      <use xlink:href="#ArialMT-74"/>
     </g>
    </g>
   </g>
   <g id="matplotlib.axis_2">
    <g id="ytick_1">
     <g id="line2d_55">
      <path clip-path="url(#p7ff5b81e1d)" d="
M72 388.8
L518.4 388.8" style="fill:none;stroke:#000000;stroke-dasharray:1.000000,3.000000;stroke-dashoffset:0.0;stroke-width:0.5;"/>
     </g>
     <g id="line2d_56">
      <defs>
       <path d="
M0 0
L4 0" id="m728421d6d4" style="stroke:#000000;stroke-width:0.5;"/>
      </defs>
      <g>
       <use style="stroke:#000000;stroke-width:0.5;" x="72.0" xlink:href="#m728421d6d4" y="388.8"/>
      </g>
     </g>
     <g id="line2d_57">
      <defs>
       <path d="
M0 0
L-4 0" id="mcb0005524f" style="stroke:#000000;stroke-width:0.5;"/>
      </defs>
      <g>
       <use style="stroke:#000000;stroke-width:0.5;" x="518.4" xlink:href="#mcb0005524f" y="388.8"/>
      </g>
     </g>
     <g id="text_8">
      <!-- 0 -->
      <g transform="translate(62.399375 391.9021875)scale(0.12 -0.12)">
       <use xlink:href="#ArialMT-30"/>
      </g>
     </g>
    </g>
    <g id="ytick_2">
     <g id="line2d_58">
      <path clip-path="url(#p7ff5b81e1d)" d="
M72 349.662
L518.4 349.662" style="fill:none;stroke:#000000;stroke-dasharray:1.000000,3.000000;stroke-dashoffset:0.0;stroke-width:0.5;"/>
     </g>
     <g id="line2d_59">
      <g>
       <use style="stroke:#000000;stroke-width:0.5;" x="72.0" xlink:href="#m728421d6d4" y="349.662083761"/>
      </g>
     </g>
     <g id="line2d_60">
      <g>
       <use style="stroke:#000000;stroke-width:0.5;" x="518.4" xlink:href="#mcb0005524f" y="349.662083761"/>
      </g>
     </g>
     <g id="text_9">
      <!-- 2 -->
      <g transform="translate(62.31125 352.764271261)scale(0.12 -0.12)">
       <use xlink:href="#ArialMT-32"/>
      </g>
     </g>
    </g>
    <g id="ytick_3">
     <g id="line2d_61">
      <path clip-path="url(#p7ff5b81e1d)" d="
M72 310.524
L518.4 310.524" style="fill:none;stroke:#000000;stroke-dasharray:1.000000,3.000000;stroke-dashoffset:0.0;stroke-width:0.5;"/>
     </g>
     <g id="line2d_62">
      <g>
       <use style="stroke:#000000;stroke-width:0.5;" x="72.0" xlink:href="#m728421d6d4" y="310.524167523"/>
      </g>
     </g>
     <g id="line2d_63">
      <g>
       <use style="stroke:#000000;stroke-width:0.5;" x="518.4" xlink:href="#mcb0005524f" y="310.524167523"/>
      </g>
     </g>
     <g id="text_10">
      <!-- 4 -->
      <g transform="translate(62.058125 313.626355023)scale(0.12 -0.12)">
       <use xlink:href="#ArialMT-34"/>
      </g>
     </g>
    </g>
    <g id="ytick_4">
     <g id="line2d_64">
      <path clip-path="url(#p7ff5b81e1d)" d="
M72 271.386
L518.4 271.386" style="fill:none;stroke:#000000;stroke-dasharray:1.000000,3.000000;stroke-dashoffset:0.0;stroke-width:0.5;"/>
     </g>
     <g id="line2d_65">
      <g>
       <use style="stroke:#000000;stroke-width:0.5;" x="72.0" xlink:href="#m728421d6d4" y="271.386251284"/>
      </g>
     </g>
     <g id="line2d_66">
      <g>
       <use style="stroke:#000000;stroke-width:0.5;" x="518.4" xlink:href="#mcb0005524f" y="271.386251284"/>
      </g>
     </g>
     <g id="text_11">
      <!-- 6 -->
      <g transform="translate(62.328125 274.488438784)scale(0.12 -0.12)">
       <use xlink:href="#ArialMT-36"/>
      </g>
     </g>
    </g>
    <g id="ytick_5">
     <g id="line2d_67">
      <path clip-path="url(#p7ff5b81e1d)" d="
M72 232.248
L518.4 232.248" style="fill:none;stroke:#000000;stroke-dasharray:1.000000,3.000000;stroke-dashoffset:0.0;stroke-width:0.5;"/>
     </g>
     <g id="line2d_68">
      <g>
       <use style="stroke:#000000;stroke-width:0.5;" x="72.0" xlink:href="#m728421d6d4" y="232.248335045"/>
      </g>
     </g>
     <g id="line2d_69">
      <g>
       <use style="stroke:#000000;stroke-width:0.5;" x="518.4" xlink:href="#mcb0005524f" y="232.248335045"/>
      </g>
     </g>
     <g id="text_12">
      <!-- 8 -->
      <g transform="translate(62.339375 235.350522545)scale(0.12 -0.12)">
       <use xlink:href="#ArialMT-38"/>
      </g>
     </g>
    </g>
    <g id="ytick_6">
     <g id="line2d_70">
      <path clip-path="url(#p7ff5b81e1d)" d="
M72 193.11
L518.4 193.11" style="fill:none;stroke:#000000;stroke-dasharray:1.000000,3.000000;stroke-dashoffset:0.0;stroke-width:0.5;"/>
     </g>
     <g id="line2d_71">
      <g>
       <use style="stroke:#000000;stroke-width:0.5;" x="72.0" xlink:href="#m728421d6d4" y="193.110418807"/>
      </g>
     </g>
     <g id="line2d_72">
      <g>
       <use style="stroke:#000000;stroke-width:0.5;" x="518.4" xlink:href="#mcb0005524f" y="193.110418807"/>
      </g>
     </g>
     <g id="text_13">
      <!-- 10 -->
      <g transform="translate(56.534375 196.212606307)scale(0.12 -0.12)">
       <use xlink:href="#ArialMT-31"/>
       <use x="55.615234375" xlink:href="#ArialMT-30"/>
      </g>
     </g>
    </g>
    <g id="ytick_7">
     <g id="line2d_73">
      <path clip-path="url(#p7ff5b81e1d)" d="
M72 153.973
L518.4 153.973" style="fill:none;stroke:#000000;stroke-dasharray:1.000000,3.000000;stroke-dashoffset:0.0;stroke-width:0.5;"/>
     </g>
     <g id="line2d_74">
      <g>
       <use style="stroke:#000000;stroke-width:0.5;" x="72.0" xlink:href="#m728421d6d4" y="153.972502568"/>
      </g>
     </g>
     <g id="line2d_75">
      <g>
       <use style="stroke:#000000;stroke-width:0.5;" x="518.4" xlink:href="#mcb0005524f" y="153.972502568"/>
      </g>
     </g>
     <g id="text_14">
      <!-- 12 -->
      <g transform="translate(56.5925 157.074690068)scale(0.12 -0.12)">
       <use xlink:href="#ArialMT-31"/>
       <use x="55.615234375" xlink:href="#ArialMT-32"/>
      </g>
     </g>
    </g>
    <g id="ytick_8">
     <g id="line2d_76">
      <path clip-path="url(#p7ff5b81e1d)" d="
M72 114.835
L518.4 114.835" style="fill:none;stroke:#000000;stroke-dasharray:1.000000,3.000000;stroke-dashoffset:0.0;stroke-width:0.5;"/>
     </g>
     <g id="line2d_77">
      <g>
       <use style="stroke:#000000;stroke-width:0.5;" x="72.0" xlink:href="#m728421d6d4" y="114.834586329"/>
      </g>
     </g>
     <g id="line2d_78">
      <g>
       <use style="stroke:#000000;stroke-width:0.5;" x="518.4" xlink:href="#mcb0005524f" y="114.834586329"/>
      </g>
     </g>
     <g id="text_15">
      <!-- 14 -->
      <g transform="translate(56.54 117.936773829)scale(0.12 -0.12)">
       <use xlink:href="#ArialMT-31"/>
       <use x="55.615234375" xlink:href="#ArialMT-34"/>
      </g>
     </g>
    </g>
    <g id="ytick_9">
     <g id="line2d_79">
      <path clip-path="url(#p7ff5b81e1d)" d="
M72 75.6967
L518.4 75.6967" style="fill:none;stroke:#000000;stroke-dasharray:1.000000,3.000000;stroke-dashoffset:0.0;stroke-width:0.5;"/>
     </g>
     <g id="line2d_80">
      <g>
       <use style="stroke:#000000;stroke-width:0.5;" x="72.0" xlink:href="#m728421d6d4" y="75.6966700905"/>
      </g>
     </g>
     <g id="line2d_81">
      <g>
       <use style="stroke:#000000;stroke-width:0.5;" x="518.4" xlink:href="#mcb0005524f" y="75.6966700905"/>
      </g>
     </g>
     <g id="text_16">
      <!-- 16 -->
      <g transform="translate(56.51 78.7988575905)scale(0.12 -0.12)">
       <use xlink:href="#ArialMT-31"/>
       <use x="55.615234375" xlink:href="#ArialMT-36"/>
      </g>
     </g>
    </g>
    <g id="text_17">
     <!-- P -->
     <defs>
      <path d="
M7.71875 0
L7.71875 71.5781
L34.7188 71.5781
Q41.8438 71.5781 45.6094 70.9062
Q50.875 70.0156 54.4375 67.5469
Q58.0156 65.0938 60.1875 60.6406
Q62.3594 56.2031 62.3594 50.875
Q62.3594 41.75 56.5469 35.4219
Q50.7344 29.1094 35.5469 29.1094
L17.1875 29.1094
L17.1875 0
z

M17.1875 37.5469
L35.6875 37.5469
Q44.875 37.5469 48.7344 40.9688
Q52.5938 44.3906 52.5938 50.5938
Q52.5938 55.0781 50.3125 58.2656
Q48.0469 61.4688 44.3438 62.5
Q41.9375 63.1406 35.5 63.1406
L17.1875 63.1406
z
" id="ArialMT-50"/>
     </defs>
     <g transform="translate(49.125 219.2784375)rotate(-90.0)scale(0.12 -0.12)">
      <use xlink:href="#ArialMT-50"/>
     </g>
    </g>
   </g>
   <g id="patch_3">
    <path d="
M72 43.2
L518.4 43.2" style="fill:none;stroke:#000000;"/>
   </g>
   <g id="patch_4">
    <path d="
M518.4 388.8
L518.4 43.2" style="fill:none;stroke:#000000;"/>
   </g>
   <g id="patch_5">
    <path d="
M72 388.8
L518.4 388.8" style="fill:none;stroke:#000000;"/>
   </g>
   <g id="patch_6">
    <path d="
M72 388.8
L72 43.2" style="fill:none;stroke:#000000;"/>
   </g>
   <g id="text_18">
    <!-- Flight PDF queue distribution -->
    <defs>
     <path d="
M14.7031 0
L6.54688 0
L6.54688 71.5781
L15.3281 71.5781
L15.3281 46.0469
Q20.9062 53.0312 29.5469 53.0312
Q34.3281 53.0312 38.5938 51.0938
Q42.875 49.1719 45.625 45.6719
Q48.3906 42.1875 49.9531 37.25
Q51.5156 32.3281 51.5156 26.7031
Q51.5156 13.375 44.9219 6.09375
Q38.3281 -1.17188 29.1094 -1.17188
Q19.9219 -1.17188 14.7031 6.5
z

M14.5938 26.3125
Q14.5938 17 17.1406 12.8438
Q21.2969 6.0625 28.375 6.0625
Q34.125 6.0625 38.3281 11.0625
Q42.5312 16.0625 42.5312 25.9844
Q42.5312 36.1406 38.5 40.9688
Q34.4688 45.7969 28.7656 45.7969
Q23 45.7969 18.7969 40.7969
Q14.5938 35.7969 14.5938 26.3125" id="ArialMT-62"/>
     <path d="
M4.98438 -4.29688
L13.5312 -5.5625
Q14.0625 -9.51562 16.5 -11.3281
Q19.7812 -13.7656 25.4375 -13.7656
Q31.5469 -13.7656 34.8594 -11.3281
Q38.1875 -8.89062 39.3594 -4.5
Q40.0469 -1.8125 39.9844 6.78125
Q34.2344 0 25.6406 0
Q14.9375 0 9.07812 7.71875
Q3.21875 15.4375 3.21875 26.2188
Q3.21875 33.6406 5.90625 39.9062
Q8.59375 46.1875 13.6875 49.6094
Q18.7969 53.0312 25.6875 53.0312
Q34.8594 53.0312 40.8281 45.6094
L40.8281 51.8594
L48.9219 51.8594
L48.9219 7.03125
Q48.9219 -5.07812 46.4531 -10.125
Q44 -15.1875 38.6406 -18.1094
Q33.2969 -21.0469 25.4844 -21.0469
Q16.2188 -21.0469 10.5 -16.875
Q4.78125 -12.7031 4.98438 -4.29688
M12.25 26.8594
Q12.25 16.6562 16.2969 11.9688
Q20.3594 7.28125 26.4688 7.28125
Q32.5156 7.28125 36.6094 11.9375
Q40.7188 16.6094 40.7188 26.5625
Q40.7188 36.0781 36.5 40.9062
Q32.2812 45.75 26.3125 45.75
Q20.4531 45.75 16.3438 40.9844
Q12.25 36.2344 12.25 26.8594" id="ArialMT-67"/>
     <path d="
M42.0938 16.7031
L51.1719 15.5781
Q49.0312 7.625 43.2188 3.21875
Q37.4062 -1.17188 28.375 -1.17188
Q17 -1.17188 10.3281 5.82812
Q3.65625 12.8438 3.65625 25.4844
Q3.65625 38.5781 10.3906 45.7969
Q17.1406 53.0312 27.875 53.0312
Q38.2812 53.0312 44.875 45.9531
Q51.4688 38.875 51.4688 26.0312
Q51.4688 25.25 51.4219 23.6875
L12.75 23.6875
Q13.2344 15.1406 17.5781 10.5938
Q21.9219 6.0625 28.4219 6.0625
Q33.25 6.0625 36.6719 8.59375
Q40.0938 11.1406 42.0938 16.7031
M13.2344 30.9062
L42.1875 30.9062
Q41.6094 37.4531 38.875 40.7188
Q34.6719 45.7969 27.9844 45.7969
Q21.9219 45.7969 17.7969 41.75
Q13.6719 37.7031 13.2344 30.9062" id="ArialMT-65"/>
     <path d="
M40.2344 0
L40.2344 6.54688
Q35.2969 -1.17188 25.7344 -1.17188
Q19.5312 -1.17188 14.3281 2.25
Q9.125 5.67188 6.26562 11.7969
Q3.42188 17.9219 3.42188 25.875
Q3.42188 33.6406 6 39.9688
Q8.59375 46.2969 13.7656 49.6562
Q18.9531 53.0312 25.3438 53.0312
Q30.0312 53.0312 33.6875 51.0469
Q37.3594 49.0781 39.6562 45.9062
L39.6562 71.5781
L48.3906 71.5781
L48.3906 0
z

M12.4531 25.875
Q12.4531 15.9219 16.6406 10.9844
Q20.8438 6.0625 26.5625 6.0625
Q32.3281 6.0625 36.3438 10.7656
Q40.375 15.4844 40.375 25.1406
Q40.375 35.7969 36.2656 40.7656
Q32.1719 45.75 26.1719 45.75
Q20.3125 45.75 16.375 40.9688
Q12.4531 36.1875 12.4531 25.875" id="ArialMT-64"/>
     <path d="
M40.5781 0
L40.5781 7.625
Q34.5156 -1.17188 24.125 -1.17188
Q19.5312 -1.17188 15.5469 0.578125
Q11.5781 2.34375 9.64062 5
Q7.71875 7.67188 6.9375 11.5312
Q6.39062 14.1094 6.39062 19.7344
L6.39062 51.8594
L15.1875 51.8594
L15.1875 23.0938
Q15.1875 16.2188 15.7188 13.8125
Q16.5469 10.3594 19.2344 8.375
Q21.9219 6.39062 25.875 6.39062
Q29.8281 6.39062 33.2969 8.42188
Q36.7656 10.4531 38.2031 13.9375
Q39.6562 17.4375 39.6562 24.0781
L39.6562 51.8594
L48.4375 51.8594
L48.4375 0
z
" id="ArialMT-75"/>
     <path d="
M6.64062 61.4688
L6.64062 71.5781
L15.4375 71.5781
L15.4375 61.4688
z

M6.64062 0
L6.64062 51.8594
L15.4375 51.8594
L15.4375 0
z
" id="ArialMT-69"/>
     <path d="
M6.59375 0
L6.59375 71.5781
L15.375 71.5781
L15.375 45.9062
Q21.5312 53.0312 30.9062 53.0312
Q36.6719 53.0312 40.9219 50.75
Q45.1719 48.4844 47 44.4844
Q48.8281 40.4844 48.8281 32.8594
L48.8281 0
L40.0469 0
L40.0469 32.8594
Q40.0469 39.4531 37.1875 42.4531
Q34.3281 45.4531 29.1094 45.4531
Q25.2031 45.4531 21.75 43.4219
Q18.3125 41.4062 16.8438 37.9375
Q15.375 34.4688 15.375 28.375
L15.375 0
z
" id="ArialMT-68"/>
     <path d="
M7.71875 0
L7.71875 71.5781
L32.375 71.5781
Q40.7188 71.5781 45.125 70.5625
Q51.2656 69.1406 55.6094 65.4375
Q61.2812 60.6406 64.0781 53.1875
Q66.8906 45.75 66.8906 36.1875
Q66.8906 28.0312 64.9844 21.7344
Q63.0938 15.4375 60.1094 11.2969
Q57.125 7.17188 53.5781 4.79688
Q50.0469 2.4375 45.0469 1.21875
Q40.0469 0 33.5469 0
z

M17.1875 8.45312
L32.4688 8.45312
Q39.5469 8.45312 43.5781 9.76562
Q47.6094 11.0781 50 13.4844
Q53.375 16.8438 55.25 22.5312
Q57.125 28.2188 57.125 36.3281
Q57.125 47.5625 53.4375 53.5938
Q49.75 59.625 44.4844 61.6719
Q40.6719 63.1406 32.2344 63.1406
L17.1875 63.1406
z
" id="ArialMT-44"/>
     <path d="
M6.5 0
L6.5 51.8594
L14.4062 51.8594
L14.4062 44
Q17.4375 49.5156 20 51.2656
Q22.5625 53.0312 25.6406 53.0312
Q30.0781 53.0312 34.6719 50.2031
L31.6406 42.0469
Q28.4219 43.9531 25.2031 43.9531
Q22.3125 43.9531 20.0156 42.2188
Q17.7188 40.4844 16.75 37.4062
Q15.2812 32.7188 15.2812 27.1562
L15.2812 0
z
" id="ArialMT-72"/>
     <path d="
M8.20312 0
L8.20312 71.5781
L56.5 71.5781
L56.5 63.1406
L17.6719 63.1406
L17.6719 40.9688
L51.2656 40.9688
L51.2656 32.5156
L17.6719 32.5156
L17.6719 0
z
" id="ArialMT-46"/>
     <path d="
M6.39062 0
L6.39062 71.5781
L15.1875 71.5781
L15.1875 0
z
" id="ArialMT-6c"/>
     <path d="
M3.32812 25.9219
Q3.32812 40.3281 11.3281 47.2656
Q18.0156 53.0312 27.6406 53.0312
Q38.3281 53.0312 45.1094 46.0156
Q51.9062 39.0156 51.9062 26.6562
Q51.9062 16.6562 48.9062 10.9062
Q45.9062 5.17188 40.1562 2
Q34.4219 -1.17188 27.6406 -1.17188
Q16.75 -1.17188 10.0312 5.8125
Q3.32812 12.7969 3.32812 25.9219
M12.3594 25.9219
Q12.3594 15.9688 16.7031 11.0156
Q21.0469 6.0625 27.6406 6.0625
Q34.1875 6.0625 38.5312 11.0312
Q42.875 16.0156 42.875 26.2188
Q42.875 35.8438 38.5 40.7969
Q34.125 45.75 27.6406 45.75
Q21.0469 45.75 16.7031 40.8125
Q12.3594 35.8906 12.3594 25.9219" id="ArialMT-6f"/>
     <path d="
M6.59375 0
L6.59375 51.8594
L14.5 51.8594
L14.5 44.4844
Q20.2188 53.0312 31 53.0312
Q35.6875 53.0312 39.625 51.3438
Q43.5625 49.6562 45.5156 46.9219
Q47.4688 44.1875 48.25 40.4375
Q48.7344 37.9844 48.7344 31.8906
L48.7344 0
L39.9375 0
L39.9375 31.5469
Q39.9375 36.9219 38.9062 39.5781
Q37.8906 42.2344 35.2812 43.8125
Q32.6719 45.4062 29.1562 45.4062
Q23.5312 45.4062 19.4531 41.8438
Q15.375 38.2812 15.375 28.3281
L15.375 0
z
" id="ArialMT-6e"/>
     <path d="
M39.6562 -19.875
L39.6562 5.51562
Q37.5938 2.64062 33.9062 0.734375
Q30.2188 -1.17188 26.0781 -1.17188
Q16.8438 -1.17188 10.1719 6.20312
Q3.51562 13.5781 3.51562 26.4219
Q3.51562 34.2344 6.21875 40.4219
Q8.9375 46.625 14.0781 49.8281
Q19.2344 53.0312 25.3906 53.0312
Q35.0156 53.0312 40.5312 44.9219
L40.5312 51.8594
L48.4375 51.8594
L48.4375 -19.875
z

M12.5469 26.0781
Q12.5469 16.0625 16.75 11.0625
Q20.9531 6.0625 26.8125 6.0625
Q32.4219 6.0625 36.4688 10.8125
Q40.5312 15.5781 40.5312 25.2969
Q40.5312 35.6406 36.25 40.8594
Q31.9844 46.0938 26.2188 46.0938
Q20.5156 46.0938 16.5312 41.2344
Q12.5469 36.375 12.5469 26.0781" id="ArialMT-71"/>
     <path d="
M3.07812 15.4844
L11.7656 16.8438
Q12.5 11.625 15.8438 8.84375
Q19.1875 6.0625 25.2031 6.0625
Q31.25 6.0625 34.1719 8.51562
Q37.1094 10.9844 37.1094 14.3125
Q37.1094 17.2812 34.5156 19
Q32.7188 20.1719 25.5312 21.9688
Q15.875 24.4219 12.1406 26.2031
Q8.40625 27.9844 6.46875 31.125
Q4.54688 34.2812 4.54688 38.0938
Q4.54688 41.5469 6.125 44.5
Q7.71875 47.4688 10.4531 49.4219
Q12.5 50.9219 16.0312 51.9688
Q19.5781 53.0312 23.6406 53.0312
Q29.7344 53.0312 34.3438 51.2656
Q38.9688 49.5156 41.1562 46.5
Q43.3594 43.5 44.1875 38.4844
L35.5938 37.3125
Q35.0156 41.3125 32.2031 43.5469
Q29.3906 45.7969 24.2656 45.7969
Q18.2188 45.7969 15.625 43.7969
Q13.0312 41.7969 13.0312 39.1094
Q13.0312 37.4062 14.1094 36.0312
Q15.1875 34.625 17.4844 33.6875
Q18.7969 33.2031 25.25 31.4531
Q34.5781 28.9531 38.25 27.3594
Q41.9375 25.7812 44.0312 22.75
Q46.1406 19.7344 46.1406 15.2344
Q46.1406 10.8438 43.5781 6.95312
Q41.0156 3.07812 36.1719 0.953125
Q31.3438 -1.17188 25.25 -1.17188
Q15.1406 -1.17188 9.84375 3.03125
Q4.54688 7.23438 3.07812 15.4844" id="ArialMT-73"/>
     <path id="ArialMT-20"/>
    </defs>
    <g transform="translate(202.85325 38.2)scale(0.144 -0.144)">
     <use xlink:href="#ArialMT-46"/>
     <use x="61.083984375" xlink:href="#ArialMT-6c"/>
     <use x="83.30078125" xlink:href="#ArialMT-69"/>
     <use x="105.517578125" xlink:href="#ArialMT-67"/>
     <use x="161.1328125" xlink:href="#ArialMT-68"/>
     <use x="216.748046875" xlink:href="#ArialMT-74"/>
     <use x="244.53125" xlink:href="#ArialMT-20"/>
     <use x="272.314453125" xlink:href="#ArialMT-50"/>
     <use x="339.013671875" xlink:href="#ArialMT-44"/>
     <use x="411.23046875" xlink:href="#ArialMT-46"/>
     <use x="472.314453125" xlink:href="#ArialMT-20"/>
     <use x="500.09765625" xlink:href="#ArialMT-71"/>
     <use x="555.712890625" xlink:href="#ArialMT-75"/>
     <use x="611.328125" xlink:href="#ArialMT-65"/>
     <use x="666.943359375" xlink:href="#ArialMT-75"/>
     <use x="722.55859375" xlink:href="#ArialMT-65"/>
     <use x="778.173828125" xlink:href="#ArialMT-20"/>
     <use x="805.95703125" xlink:href="#ArialMT-64"/>
     <use x="861.572265625" xlink:href="#ArialMT-69"/>
     <use x="883.7890625" xlink:href="#ArialMT-73"/>
     <use x="933.7890625" xlink:href="#ArialMT-74"/>
     <use x="961.572265625" xlink:href="#ArialMT-72"/>
     <use x="994.873046875" xlink:href="#ArialMT-69"/>
     <use x="1017.08984375" xlink:href="#ArialMT-62"/>
     <use x="1072.70507812" xlink:href="#ArialMT-75"/>
     <use x="1128.3203125" xlink:href="#ArialMT-74"/>
     <use x="1156.10351562" xlink:href="#ArialMT-69"/>
     <use x="1178.3203125" xlink:href="#ArialMT-6f"/>
     <use x="1233.93554688" xlink:href="#ArialMT-6e"/>
    </g>
   </g>
  </g>
 </g>
 <defs>
  <clipPath id="p7ff5b81e1d">
   <rect height="345.6" width="446.4" x="72.0" y="43.2"/>
  </clipPath>
 </defs>
</svg>
