<?xml version="1.0" encoding="utf-8" standalone="no"?>
<!DOCTYPE svg PUBLIC "-//W3C//DTD SVG 1.1//EN"
  "http://www.w3.org/Graphics/SVG/1.1/DTD/svg11.dtd">
<!-- Created with matplotlib (http://matplotlib.org/) -->
<svg height="432pt" version="1.1" viewBox="0 0 576 432" width="576pt" xmlns="http://www.w3.org/2000/svg" xmlns:xlink="http://www.w3.org/1999/xlink">
 <defs>
  <style type="text/css">
*{stroke-linecap:butt;stroke-linejoin:round;}
  </style>
 </defs>
 <g id="figure_1">
  <g id="patch_1">
   <path d="
M0 432
L576 432
L576 0
L0 0
z
" style="fill:#ffffff;"/>
  </g>
  <g id="axes_1">
   <g id="patch_2">
    <path d="
M72 388.8
L518.4 388.8
L518.4 43.2
L72 43.2
z
" style="fill:#ffffff;"/>
   </g>
   <g id="line2d_1">
    <path clip-path="url(#p7ff5b81e1d)" d="
M72 149.445
L78.6993 254.004
L80.7092 281.055
L82.4956 302.26
L84.0588 318.458
L85.622 332.444
L87.1852 344.297
L88.5251 352.867
L89.8649 360.093
L91.2048 366.107
L92.5447 371.051
L93.8845 375.065
L95.2244 378.283
L96.341 380.449
L97.6808 382.529
L99.0207 384.14
L100.361 385.374
L101.7 386.308
L103.264 387.104
L105.05 387.726
L107.06 388.173
L109.516 388.485
L113.089 388.691
L119.342 388.786
L145.916 388.8
L518.4 388.8
L518.4 388.8" style="fill:none;stroke:#8000ff;stroke-linecap:square;"/>
   </g>
   <g id="line2d_2">
    <path clip-path="url(#p7ff5b81e1d)" d="
M99.8696 388.8
L99.8696 149.445" style="fill:none;stroke:#8000ff;stroke-linecap:square;"/>
   </g>
   <g id="line2d_3">
    <path clip-path="url(#p7ff5b81e1d)" d="
M72 186.685
L76.2429 120.115
L78.0294 95.3889
L79.5926 76.7611
L80.9325 63.6165
L82.049 54.9582
L82.9423 49.6703
L83.6122 46.7101
L84.2821 44.6384
L84.7288 43.7593
L85.1754 43.2857
L85.622 43.2192
L86.0686 43.56
L86.5153 44.307
L86.9619 45.4575
L87.6318 47.9305
L88.3018 51.2825
L89.195 57.0726
L90.0882 64.2977
L91.2048 75.1953
L92.5447 90.7048
L94.1079 111.576
L96.1177 141.582
L104.157 265.668
L106.167 291.353
L107.953 311.221
L109.516 326.228
L111.08 339.056
L112.419 348.404
L113.759 356.341
L115.099 362.994
L116.439 368.5
L117.779 373
L119.119 376.632
L120.459 379.528
L121.575 381.468
L122.915 383.32
L124.255 384.748
L125.595 385.836
L126.935 386.654
L128.498 387.348
L130.284 387.887
L132.517 388.302
L135.421 388.583
L139.663 388.741
L148.819 388.798
L278.117 388.8
L518.4 388.8
L518.4 388.8" style="fill:none;stroke:#622ffe;stroke-linecap:square;"/>
   </g>
   <g id="line2d_4">
    <path clip-path="url(#p7ff5b81e1d)" d="
M124.489 388.8
L124.489 43.2015" style="fill:none;stroke:#622ffe;stroke-linecap:square;"/>
   </g>
   <g id="line2d_5">
    <path clip-path="url(#p7ff5b81e1d)" d="
M72 384.058
L73.1166 382.725
L74.2331 381.074
L75.3497 379.047
L76.4662 376.578
L77.5828 373.597
L78.6993 370.027
L79.8159 365.79
L81.1558 359.709
L82.4956 352.409
L83.8355 343.758
L85.1754 333.638
L86.5153 321.958
L88.0784 306.285
L89.6416 288.398
L91.4281 265.364
L93.4379 236.549
L96.1177 194.747
L101.031 117.661
L102.817 93.2347
L104.38 74.9583
L105.497 64.1003
L106.613 55.3335
L107.507 49.9529
L108.176 46.9205
L108.846 44.775
L109.293 43.846
L109.74 43.3222
L110.186 43.2053
L110.633 43.4959
L111.08 44.1928
L111.526 45.2937
L112.196 47.6934
L112.866 50.974
L113.759 56.6726
L114.653 63.8118
L115.769 74.6114
L117.109 90.0192
L118.672 110.797
L120.682 140.724
L128.944 267.944
L130.731 290.694
L132.517 310.651
L134.081 325.736
L135.644 338.64
L136.984 348.048
L138.324 356.041
L139.663 362.744
L141.003 368.295
L142.343 372.833
L143.683 376.498
L145.023 379.422
L146.139 381.381
L147.479 383.253
L148.819 384.697
L150.159 385.797
L151.499 386.625
L153.062 387.327
L154.849 387.873
L157.082 388.294
L159.985 388.58
L164.228 388.74
L173.16 388.797
L290.399 388.8
L518.4 388.8
L518.4 388.8" style="fill:none;stroke:#445cfb;stroke-linecap:square;"/>
   </g>
   <g id="line2d_6">
    <path clip-path="url(#p7ff5b81e1d)" d="
M149.108 388.8
L149.108 43.2053" style="fill:none;stroke:#445cfb;stroke-linecap:square;"/>
   </g>
   <g id="line2d_7">
    <path clip-path="url(#p7ff5b81e1d)" d="
M72 388.797
L82.9423 388.675
L86.7386 388.416
L89.195 388.043
L91.2048 387.515
L92.768 386.893
L94.1079 386.156
L95.4477 385.173
L96.7876 383.876
L97.9042 382.498
L99.0207 380.794
L100.137 378.705
L101.254 376.164
L102.37 373.099
L103.487 369.434
L104.604 365.089
L105.943 358.862
L107.283 351.4
L108.623 342.57
L109.963 332.259
L111.526 318.242
L113.089 302.012
L114.876 280.772
L116.662 256.848
L118.895 223.797
L122.468 166.885
L125.595 118.464
L127.381 93.9376
L128.944 75.545
L130.061 64.5893
L131.178 55.7145
L132.071 50.2414
L132.741 47.1369
L133.411 44.9176
L133.857 43.9388
L134.304 43.3648
L134.751 43.1977
L135.197 43.438
L135.644 44.0848
L136.09 45.136
L136.76 47.4623
L137.43 50.6712
L138.324 56.2781
L139.217 63.331
L140.333 74.032
L141.673 89.3374
L143.236 110.02
L145.246 139.868
L149.489 207.584
L152.169 248.423
L154.179 276.074
L155.965 297.886
L157.528 314.637
L159.092 329.169
L160.655 341.541
L161.995 350.524
L163.334 358.127
L164.674 364.479
L166.014 369.719
L167.354 373.988
L168.694 377.424
L169.811 379.743
L170.927 381.643
L172.267 383.456
L173.607 384.852
L174.947 385.914
L176.287 386.713
L177.85 387.389
L179.636 387.914
L181.869 388.317
L184.772 388.59
L189.015 388.743
L198.394 388.798
L343.994 388.8
L518.4 388.8
L518.4 388.8" style="fill:none;stroke:#2686f5;stroke-linecap:square;"/>
   </g>
   <g id="line2d_8">
    <path clip-path="url(#p7ff5b81e1d)" d="
M173.728 388.8
L173.728 43.1977" style="fill:none;stroke:#2686f5;stroke-linecap:square;"/>
   </g>
   <g id="line2d_9">
    <path clip-path="url(#p7ff5b81e1d)" d="
M72 388.8
L107.06 388.693
L111.08 388.445
L113.536 388.098
L115.546 387.604
L117.109 387.021
L118.672 386.191
L120.012 385.219
L121.352 383.936
L122.468 382.573
L123.585 380.887
L124.702 378.818
L125.818 376.301
L126.935 373.264
L128.051 369.63
L129.168 365.321
L130.508 359.142
L131.848 351.733
L133.187 342.962
L134.527 332.714
L135.867 320.9
L137.43 305.066
L138.993 287.021
L140.78 263.82
L142.79 234.851
L145.693 189.347
L150.159 119.268
L151.946 94.6441
L153.509 76.1362
L154.849 63.1145
L155.965 54.5705
L156.858 49.3802
L157.528 46.4959
L158.198 44.5018
L158.645 43.6751
L159.092 43.2541
L159.538 43.2404
L159.985 43.6339
L160.431 44.4333
L160.878 45.6358
L161.548 48.1856
L162.218 51.6124
L163.111 57.4981
L164.004 64.8129
L165.121 75.8127
L166.461 91.4279
L168.024 112.396
L170.034 142.483
L177.85 263.407
L179.86 289.369
L181.646 309.502
L183.209 324.744
L184.772 337.798
L186.112 347.328
L187.452 355.433
L188.792 362.238
L190.132 367.878
L191.472 372.494
L192.812 376.226
L194.151 379.206
L195.268 381.205
L196.608 383.116
L197.948 384.592
L199.288 385.717
L200.628 386.566
L202.191 387.285
L203.977 387.846
L205.987 388.245
L208.667 388.541
L212.463 388.718
L219.832 388.793
L269.408 388.8
L518.4 388.8
L518.4 388.8" style="fill:none;stroke:#08acee;stroke-linecap:square;"/>
   </g>
   <g id="line2d_10">
    <path clip-path="url(#p7ff5b81e1d)" d="
M198.347 388.8
L198.347 43.1963" style="fill:none;stroke:#08acee;stroke-linecap:square;"/>
   </g>
   <g id="line2d_11">
    <path clip-path="url(#p7ff5b81e1d)" d="
M72 388.8
L131.624 388.694
L135.644 388.451
L138.324 388.065
L140.333 387.551
L141.897 386.945
L143.46 386.084
L144.8 385.076
L146.139 383.749
L147.256 382.341
L148.373 380.602
L149.489 378.47
L150.606 375.879
L151.722 372.757
L152.839 369.027
L153.955 364.608
L155.295 358.283
L156.635 350.71
L157.975 341.759
L159.315 331.319
L160.878 317.143
L162.441 300.753
L164.228 279.336
L166.238 252.073
L168.471 218.583
L176.063 101.232
L177.626 81.7177
L178.966 67.6545
L180.083 58.1362
L180.976 52.1102
L181.869 47.5878
L182.539 45.2214
L183.209 43.7553
L183.656 43.2841
L184.102 43.22
L184.549 43.5633
L184.996 44.3127
L185.442 45.4656
L186.112 47.9423
L186.782 51.2977
L187.675 57.0923
L188.569 64.3216
L189.685 75.224
L191.025 90.7383
L192.588 111.614
L194.598 141.624
L202.637 265.704
L204.647 291.385
L206.434 311.249
L207.997 326.252
L209.56 339.076
L210.9 348.421
L212.24 356.356
L213.58 363.007
L214.919 368.51
L216.259 373.008
L217.599 376.639
L218.939 379.534
L220.056 381.472
L221.395 383.324
L222.735 384.751
L224.075 385.838
L225.415 386.656
L226.978 387.349
L228.765 387.887
L230.998 388.302
L233.901 388.584
L238.144 388.741
L247.3 388.798
L376.82 388.8
L518.4 388.8
L518.4 388.8" style="fill:none;stroke:#17cbe4;stroke-linecap:square;"/>
   </g>
   <g id="line2d_12">
    <path clip-path="url(#p7ff5b81e1d)" d="
M222.967 388.8
L222.967 43.2011" style="fill:none;stroke:#17cbe4;stroke-linecap:square;"/>
   </g>
   <g id="line2d_13">
    <path clip-path="url(#p7ff5b81e1d)" d="
M72 388.8
L156.188 388.696
L160.208 388.456
L162.888 388.076
L164.898 387.569
L166.461 386.97
L168.024 386.119
L169.364 385.124
L170.704 383.811
L171.82 382.418
L172.937 380.696
L174.053 378.585
L175.17 376.019
L176.287 372.925
L177.403 369.226
L178.52 364.844
L179.86 358.567
L181.199 351.048
L182.539 342.156
L183.879 331.779
L185.442 317.681
L187.006 301.369
L188.792 280.038
L190.578 256.033
L192.812 222.903
L196.608 162.376
L199.511 117.622
L201.297 93.2005
L202.861 74.9298
L203.977 64.0766
L205.094 55.3151
L205.987 49.939
L206.657 46.9101
L207.327 44.7682
L207.773 43.8416
L208.22 43.3202
L208.667 43.2059
L209.113 43.4989
L209.56 44.1982
L210.007 45.3015
L210.677 47.7049
L211.346 50.9889
L212.24 56.692
L213.133 63.8354
L214.25 74.6398
L215.589 90.0525
L217.153 110.835
L219.162 140.766
L227.425 267.98
L229.211 290.727
L230.998 310.679
L232.561 325.76
L234.124 338.66
L235.464 348.065
L236.804 356.055
L238.144 362.756
L239.484 368.305
L240.824 372.841
L242.163 376.505
L243.503 379.427
L244.62 381.385
L245.96 383.256
L247.3 384.699
L248.64 385.799
L249.979 386.627
L251.543 387.328
L253.329 387.874
L255.562 388.295
L258.465 388.58
L262.708 388.74
L271.641 388.797
L389.103 388.8
L518.4 388.8
L518.4 388.8" style="fill:none;stroke:#34e4d9;stroke-linecap:square;"/>
   </g>
   <g id="line2d_14">
    <path clip-path="url(#p7ff5b81e1d)" d="
M247.586 388.8
L247.586 43.2059" style="fill:none;stroke:#34e4d9;stroke-linecap:square;"/>
   </g>
   <g id="line2d_15">
    <path clip-path="url(#p7ff5b81e1d)" d="
M72 388.8
L180.976 388.691
L184.996 388.439
L187.452 388.087
L189.462 387.586
L191.025 386.995
L192.588 386.155
L193.928 385.17
L195.268 383.873
L196.385 382.494
L197.501 380.79
L198.618 378.7
L199.734 376.157
L200.851 373.091
L201.967 369.424
L203.084 365.078
L204.424 358.849
L205.764 351.384
L207.104 342.551
L208.443 332.237
L210.007 318.216
L211.57 301.982
L213.356 280.738
L215.143 256.81
L217.376 223.755
L220.949 166.842
L224.075 118.424
L225.862 93.9032
L227.425 75.5163
L228.541 64.5653
L229.658 55.6958
L230.551 50.2272
L231.221 47.1262
L231.891 44.9105
L232.338 43.9342
L232.784 43.3626
L233.231 43.1979
L233.678 43.4407
L234.124 44.09
L234.571 45.1435
L235.241 47.4734
L235.911 50.6858
L236.804 56.2973
L237.697 63.3543
L238.814 74.0601
L240.154 89.3706
L241.717 110.058
L243.727 139.91
L247.97 207.627
L250.649 248.462
L252.659 276.109
L254.446 297.917
L256.009 314.664
L257.572 329.192
L259.135 341.561
L260.475 350.541
L261.815 358.141
L263.155 364.49
L264.495 369.728
L265.835 373.996
L267.174 377.43
L268.291 379.748
L269.408 381.647
L270.747 383.459
L272.087 384.855
L273.427 385.916
L274.767 386.714
L276.33 387.39
L278.117 387.914
L280.35 388.318
L283.253 388.591
L287.496 388.743
L296.875 388.798
L442.697 388.8
L518.4 388.8
L518.4 388.8" style="fill:none;stroke:#52f5cb;stroke-linecap:square;"/>
   </g>
   <g id="line2d_16">
    <path clip-path="url(#p7ff5b81e1d)" d="
M272.206 388.8
L272.206 43.1979" style="fill:none;stroke:#52f5cb;stroke-linecap:square;"/>
   </g>
   <g id="line2d_17">
    <path clip-path="url(#p7ff5b81e1d)" d="
M72 388.8
L205.54 388.692
L209.56 388.445
L212.016 388.097
L214.026 387.604
L215.589 387.02
L217.153 386.189
L218.492 385.217
L219.832 383.933
L220.949 382.57
L222.065 380.883
L223.182 378.813
L224.299 376.294
L225.415 373.256
L226.532 369.621
L227.648 365.31
L228.988 359.129
L230.328 351.717
L231.668 342.943
L233.008 332.692
L234.348 320.874
L235.911 305.037
L237.474 286.988
L239.26 263.783
L241.27 234.811
L244.173 189.304
L248.416 122.511
L250.203 97.5055
L251.766 78.5458
L253.106 65.0591
L254.222 56.082
L255.116 50.5212
L256.009 46.4861
L256.679 44.4956
L257.125 43.6713
L257.572 43.2528
L258.019 43.2415
L258.465 43.6375
L258.912 44.4394
L259.358 45.6443
L260.028 48.1977
L260.698 51.6279
L261.592 57.518
L262.485 64.837
L263.601 75.8416
L264.941 91.4616
L266.504 112.435
L268.514 142.524
L276.33 263.444
L278.34 289.401
L280.126 309.53
L281.69 324.768
L283.253 337.819
L284.593 347.346
L285.933 355.448
L287.272 362.25
L288.612 367.888
L289.952 372.503
L291.292 376.233
L292.632 379.212
L293.748 381.209
L295.088 383.12
L296.428 384.595
L297.768 385.719
L299.108 386.567
L300.671 387.287
L302.458 387.847
L304.467 388.246
L307.147 388.541
L310.943 388.718
L318.313 388.793
L367.888 388.8
L518.4 388.8
L518.4 388.8" style="fill:none;stroke:#70febc;stroke-linecap:square;"/>
   </g>
   <g id="line2d_18">
    <path clip-path="url(#p7ff5b81e1d)" d="
M296.825 388.8
L296.825 43.1962" style="fill:none;stroke:#70febc;stroke-linecap:square;"/>
   </g>
   <g id="line2d_19">
    <path clip-path="url(#p7ff5b81e1d)" d="
M72 388.8
L230.105 388.694
L234.124 388.451
L236.804 388.065
L238.814 387.551
L240.377 386.944
L241.94 386.082
L243.28 385.074
L244.62 383.746
L245.736 382.338
L246.853 380.597
L247.97 378.464
L249.086 375.872
L250.203 372.748
L251.319 369.017
L252.436 364.597
L253.776 358.269
L255.116 350.693
L256.455 341.74
L257.795 331.296
L259.358 317.117
L260.922 300.723
L262.708 279.301
L264.718 252.034
L266.951 218.541
L274.544 101.196
L276.107 81.6868
L277.447 67.629
L278.563 58.1158
L279.457 52.0943
L280.35 47.5765
L281.02 45.2137
L281.69 43.7512
L282.136 43.2825
L282.583 43.2208
L283.03 43.5666
L283.476 44.3184
L283.923 45.4738
L284.593 47.954
L285.263 51.313
L286.156 57.112
L287.049 64.3454
L288.166 75.2526
L289.506 90.7719
L291.069 111.652
L293.079 141.665
L301.118 265.741
L303.128 291.418
L304.914 311.276
L306.477 326.276
L308.04 339.097
L309.38 348.438
L310.72 356.37
L312.06 363.019
L313.4 368.52
L314.74 373.016
L316.08 376.645
L317.42 379.539
L318.536 381.476
L319.876 383.327
L321.216 384.753
L322.556 385.84
L323.896 386.657
L325.459 387.35
L327.245 387.888
L329.478 388.303
L332.381 388.584
L336.624 388.741
L345.78 388.798
L475.301 388.8
L518.4 388.8
L518.4 388.8" style="fill:none;stroke:#8efeac;stroke-linecap:square;"/>
   </g>
   <g id="line2d_20">
    <path clip-path="url(#p7ff5b81e1d)" d="
M321.445 388.8
L321.445 43.2007" style="fill:none;stroke:#8efeac;stroke-linecap:square;"/>
   </g>
   <g id="line2d_21">
    <path clip-path="url(#p7ff5b81e1d)" d="
M72 388.8
L254.669 388.696
L258.689 388.456
L261.368 388.076
L263.378 387.568
L264.941 386.969
L266.504 386.118
L267.844 385.121
L269.184 383.808
L270.301 382.415
L271.417 380.692
L272.534 378.579
L273.65 376.012
L274.767 372.916
L275.884 369.217
L277 364.832
L278.34 358.553
L279.68 351.031
L281.02 342.137
L282.36 331.757
L283.923 317.655
L285.486 301.339
L287.272 280.004
L289.059 255.995
L291.292 222.862
L295.088 162.333
L297.991 117.583
L299.778 93.1663
L301.341 74.9013
L302.458 64.0529
L303.574 55.2967
L304.467 49.9251
L305.137 46.8997
L305.807 44.7614
L306.254 43.8373
L306.701 43.3183
L307.147 43.2064
L307.594 43.5019
L308.04 44.2037
L308.487 45.3094
L309.157 47.7163
L309.827 51.0038
L310.72 56.7114
L311.613 63.859
L312.73 74.6682
L314.07 90.0859
L315.633 110.873
L317.643 140.808
L325.905 268.017
L327.692 290.759
L329.478 310.707
L331.042 325.784
L332.605 338.68
L333.945 348.083
L335.284 356.07
L336.624 362.769
L337.964 368.315
L339.304 372.849
L340.644 376.511
L341.984 379.433
L343.1 381.389
L344.44 383.26
L345.78 384.702
L347.12 385.801
L348.46 386.628
L350.023 387.329
L351.81 387.875
L354.043 388.295
L356.946 388.58
L361.189 388.74
L370.121 388.797
L487.583 388.8
L518.4 388.8
L518.4 388.8" style="fill:none;stroke:#acf59a;stroke-linecap:square;"/>
   </g>
   <g id="line2d_22">
    <path clip-path="url(#p7ff5b81e1d)" d="
M346.064 388.8
L346.064 43.2064" style="fill:none;stroke:#acf59a;stroke-linecap:square;"/>
   </g>
   <g id="line2d_23">
    <path clip-path="url(#p7ff5b81e1d)" d="
M72 388.8
L279.457 388.691
L283.476 388.439
L285.933 388.086
L287.942 387.586
L289.506 386.994
L291.069 386.153
L292.409 385.168
L293.748 383.87
L294.865 382.491
L295.982 380.785
L297.098 378.694
L298.215 376.15
L299.331 373.083
L300.448 369.415
L301.564 365.066
L302.904 358.835
L304.244 351.367
L305.584 342.532
L306.924 332.215
L308.487 318.19
L310.05 301.952
L311.837 280.704
L313.623 256.772
L315.856 223.713
L319.429 166.799
L322.556 118.385
L324.342 93.8688
L325.905 75.4876
L327.022 64.5414
L328.138 55.6771
L329.032 50.213
L329.702 47.1155
L330.372 44.9035
L330.818 43.9295
L331.265 43.3604
L331.711 43.1982
L332.158 43.4434
L332.605 44.0951
L333.051 45.1511
L333.721 47.4846
L334.391 50.7005
L335.284 56.3164
L336.178 63.3777
L337.294 74.0883
L338.634 89.4037
L340.197 110.096
L342.207 139.952
L346.45 207.669
L349.13 248.501
L351.14 276.144
L352.926 297.948
L354.489 314.691
L356.052 329.215
L357.616 341.58
L358.955 350.557
L360.295 358.155
L361.635 364.502
L362.975 369.738
L364.315 374.004
L365.655 377.436
L366.771 379.753
L367.888 381.651
L369.228 383.462
L370.568 384.857
L371.908 385.918
L373.247 386.716
L374.811 387.391
L376.597 387.915
L378.83 388.318
L381.733 388.591
L385.976 388.744
L395.355 388.798
L518.4 388.8
L518.4 388.8" style="fill:none;stroke:#cbe486;stroke-linecap:square;"/>
   </g>
   <g id="line2d_24">
    <path clip-path="url(#p7ff5b81e1d)" d="
M370.683 388.8
L370.683 43.1982" style="fill:none;stroke:#cbe486;stroke-linecap:square;"/>
   </g>
   <g id="line2d_25">
    <path clip-path="url(#p7ff5b81e1d)" d="
M72 388.8
L304.021 388.692
L308.04 388.445
L310.497 388.097
L312.507 387.603
L314.07 387.019
L315.633 386.188
L316.973 385.214
L318.313 383.93
L319.429 382.566
L320.546 380.878
L321.662 378.807
L322.779 376.288
L323.896 373.248
L325.012 369.611
L326.129 365.298
L327.469 359.115
L328.808 351.701
L330.148 342.924
L331.488 332.67
L332.828 320.849
L334.391 305.008
L335.954 286.955
L337.741 263.746
L339.751 234.77
L342.654 189.261
L346.897 122.472
L348.683 97.4702
L350.246 78.5159
L351.586 65.0349
L352.703 56.063
L353.596 50.5067
L354.489 46.4763
L355.159 44.4894
L355.606 43.6676
L356.052 43.2515
L356.499 43.2427
L356.946 43.6411
L357.392 44.4454
L357.839 45.6527
L358.509 48.2097
L359.179 51.6434
L360.072 57.5379
L360.965 64.8611
L362.082 75.8704
L363.422 91.4954
L364.985 112.473
L366.995 142.566
L374.811 263.481
L376.82 289.434
L378.607 309.559
L380.17 324.793
L381.733 337.84
L383.073 347.363
L384.413 355.463
L385.753 362.263
L387.093 367.898
L388.433 372.511
L389.772 376.24
L391.112 379.217
L392.229 381.213
L393.569 383.123
L394.909 384.597
L396.249 385.721
L397.588 386.569
L399.152 387.288
L400.938 387.847
L402.948 388.246
L405.628 388.541
L409.424 388.718
L416.793 388.793
L466.368 388.8
L518.4 388.8
L518.4 388.8" style="fill:none;stroke:#e8cb72;stroke-linecap:square;"/>
   </g>
   <g id="line2d_26">
    <path clip-path="url(#p7ff5b81e1d)" d="
M395.303 388.8
L395.303 43.1962" style="fill:none;stroke:#e8cb72;stroke-linecap:square;"/>
   </g>
   <g id="line2d_27">
    <path clip-path="url(#p7ff5b81e1d)" d="
M72 388.8
L328.585 388.694
L332.605 388.45
L335.284 388.064
L337.294 387.55
L338.857 386.943
L340.421 386.08
L341.76 385.072
L343.1 383.743
L344.217 382.334
L345.333 380.592
L346.45 378.458
L347.567 375.865
L348.683 372.74
L349.8 369.007
L350.916 364.585
L352.256 358.255
L353.596 350.677
L354.936 341.72
L356.276 331.274
L357.839 317.091
L359.402 300.692
L361.189 279.267
L363.198 251.996
L365.432 218.499
L373.024 101.16
L374.587 81.6559
L375.927 67.6036
L377.044 58.0955
L377.937 52.0784
L378.83 47.5652
L379.5 45.206
L380.17 43.7472
L380.617 43.2809
L381.063 43.2217
L381.51 43.5699
L381.957 44.3242
L382.403 45.482
L383.073 47.9658
L383.743 51.3282
L384.636 57.1317
L385.53 64.3693
L386.646 75.2812
L387.986 90.8055
L389.549 111.69
L391.559 141.707
L399.598 265.778
L401.608 291.45
L403.394 311.304
L404.958 326.3
L406.521 339.117
L407.861 348.456
L409.201 356.385
L410.54 363.031
L411.88 368.53
L413.22 373.025
L414.56 376.652
L415.9 379.544
L417.017 381.48
L418.356 383.33
L419.696 384.756
L421.036 385.841
L422.376 386.659
L423.939 387.351
L425.726 387.889
L427.959 388.303
L430.862 388.584
L435.105 388.741
L444.261 388.798
L518.4 388.8
L518.4 388.8" style="fill:none;stroke:#ffac5c;stroke-linecap:square;"/>
   </g>
   <g id="line2d_28">
    <path clip-path="url(#p7ff5b81e1d)" d="
M419.922 388.8
L419.922 43.2003" style="fill:none;stroke:#ffac5c;stroke-linecap:square;"/>
   </g>
   <g id="line2d_29">
    <path clip-path="url(#p7ff5b81e1d)" d="
M72 388.8
L353.149 388.696
L357.169 388.456
L359.849 388.075
L361.859 387.567
L363.422 386.968
L364.985 386.116
L366.325 385.119
L367.665 383.805
L368.781 382.411
L369.898 380.687
L371.014 378.574
L372.131 376.005
L373.247 372.908
L374.364 369.207
L375.481 364.821
L376.82 358.539
L378.16 351.015
L379.5 342.118
L380.84 331.735
L382.403 317.629
L383.966 301.309
L385.753 279.97
L387.539 255.957
L389.772 222.82
L393.569 162.29
L396.472 117.544
L398.258 93.1322
L399.822 74.8728
L400.938 64.0292
L402.055 55.2783
L402.948 49.9112
L403.618 46.8893
L404.288 44.7546
L404.734 43.8329
L405.181 43.3164
L405.628 43.207
L406.074 43.5049
L406.521 44.2091
L406.967 45.3173
L407.637 47.7278
L408.307 51.0188
L409.201 56.7309
L410.094 63.8826
L411.21 74.6966
L412.55 90.1193
L414.113 110.911
L416.123 140.85
L424.386 268.053
L426.172 290.791
L427.959 310.734
L429.522 325.808
L431.085 338.701
L432.425 348.1
L433.765 356.085
L435.105 362.781
L436.445 368.325
L437.784 372.858
L439.124 376.518
L440.464 379.438
L441.581 381.393
L442.921 383.263
L444.261 384.704
L445.6 385.803
L446.94 386.629
L448.503 387.33
L450.29 387.875
L452.523 388.295
L455.426 388.58
L459.669 388.74
L468.602 388.797
L518.4 388.8
L518.4 388.8" style="fill:none;stroke:#ff8646;stroke-linecap:square;"/>
   </g>
   <g id="line2d_30">
    <path clip-path="url(#p7ff5b81e1d)" d="
M444.542 388.8
L444.542 43.207" style="fill:none;stroke:#ff8646;stroke-linecap:square;"/>
   </g>
   <g id="line2d_31">
    <path clip-path="url(#p7ff5b81e1d)" d="
M72 388.8
L377.937 388.69
L381.733 388.461
L384.413 388.086
L386.423 387.585
L387.986 386.993
L389.549 386.151
L390.889 385.166
L392.229 383.867
L393.345 382.487
L394.462 380.781
L395.579 378.688
L396.695 376.144
L397.812 373.075
L398.928 369.405
L400.045 365.055
L401.385 358.821
L402.725 351.351
L404.064 342.513
L405.404 332.193
L406.967 318.164
L408.531 301.922
L410.317 280.67
L412.104 256.734
L414.337 223.672
L417.91 166.756
L421.036 118.346
L422.823 93.8345
L424.386 75.4588
L425.502 64.5174
L426.619 55.6584
L427.512 50.1988
L428.182 47.1049
L428.852 44.8964
L429.299 43.9249
L429.745 43.3582
L430.192 43.1984
L430.639 43.4461
L431.085 44.1003
L431.532 45.1587
L432.202 47.4957
L432.872 50.7151
L433.765 56.3355
L434.658 63.401
L435.775 74.1165
L437.115 89.4369
L438.678 110.134
L440.688 139.994
L444.93 207.712
L447.61 248.54
L449.62 276.179
L451.407 297.979
L452.97 314.718
L454.533 329.238
L456.096 341.6
L457.436 350.574
L458.776 358.169
L460.116 364.513
L461.456 369.747
L462.795 374.011
L464.135 377.442
L465.252 379.758
L466.368 381.655
L467.708 383.466
L469.048 384.859
L470.388 385.92
L471.728 386.717
L473.291 387.392
L475.078 387.916
L477.311 388.318
L480.214 388.591
L484.457 388.744
L493.836 388.798
L518.4 388.8
L518.4 388.8" style="fill:none;stroke:#ff5c2f;stroke-linecap:square;"/>
   </g>
   <g id="line2d_32">
    <path clip-path="url(#p7ff5b81e1d)" d="
M469.161 388.8
L469.161 43.1984" style="fill:none;stroke:#ff5c2f;stroke-linecap:square;"/>
   </g>
   <g id="line2d_33">
    <path clip-path="url(#p7ff5b81e1d)" d="
M72 388.8
L402.501 388.692
L406.521 388.444
L408.977 388.096
L410.987 387.602
L412.55 387.018
L414.113 386.186
L415.453 385.212
L416.793 383.927
L417.91 382.562
L419.026 380.874
L420.143 378.802
L421.259 376.281
L422.376 373.24
L423.493 369.602
L424.609 365.287
L425.949 359.101
L427.289 351.685
L428.629 342.905
L429.969 332.648
L431.308 320.824
L432.872 304.978
L434.435 286.922
L436.221 263.709
L438.231 234.73
L441.134 189.217
L445.377 122.432
L447.164 97.435
L448.727 78.4861
L450.067 65.0107
L451.183 56.044
L452.076 50.4923
L452.97 46.4665
L453.64 44.4833
L454.086 43.6639
L454.533 43.2502
L454.979 43.2439
L455.426 43.6447
L455.873 44.4515
L456.319 45.6612
L456.989 48.2218
L457.659 51.6589
L458.552 57.5579
L459.446 64.8852
L460.562 75.8993
L461.902 91.5292
L463.465 112.511
L465.475 142.608
L473.291 263.518
L475.301 289.466
L477.087 309.587
L478.651 324.817
L480.214 337.86
L481.554 347.381
L482.893 355.478
L484.233 362.275
L485.573 367.908
L486.913 372.519
L488.253 376.246
L489.593 379.222
L490.709 381.218
L492.049 383.127
L493.389 384.6
L494.729 385.723
L496.069 386.57
L497.632 387.289
L499.419 387.848
L501.428 388.247
L504.108 388.541
L507.904 388.718
L515.274 388.793
L518.4 388.798
L518.4 388.798" style="fill:none;stroke:#ff2f18;stroke-linecap:square;"/>
   </g>
   <g id="line2d_34">
    <path clip-path="url(#p7ff5b81e1d)" d="
M493.781 388.8
L493.781 43.1961" style="fill:none;stroke:#ff2f18;stroke-linecap:square;"/>
   </g>
   <g id="line2d_35">
    <path clip-path="url(#p7ff5b81e1d)" d="
M72 388.8
L427.066 388.694
L431.085 388.45
L433.765 388.064
L435.775 387.549
L437.338 386.941
L438.901 386.078
L440.241 385.069
L441.581 383.74
L442.697 382.33
L443.814 380.588
L444.93 378.453
L446.047 375.858
L447.164 372.732
L448.28 368.997
L449.397 364.574
L450.737 358.241
L452.076 350.66
L453.416 341.701
L454.756 331.251
L456.319 317.064
L457.883 300.662
L459.669 279.233
L461.679 251.957
L463.912 218.457
L471.505 101.123
L473.068 81.625
L474.408 67.5782
L475.524 58.0752
L476.417 52.0625
L477.311 47.554
L477.981 45.1983
L478.651 43.7431
L479.097 43.2793
L479.544 43.2226
L479.99 43.5732
L480.437 44.33
L480.884 45.4901
L481.554 47.9775
L482.224 51.3434
L483.117 57.1514
L484.01 64.3932
L485.127 75.3099
L486.466 90.839
L488.03 111.729
L490.039 141.749
L498.079 265.814
L500.088 291.482
L501.875 311.332
L503.438 326.324
L505.001 339.137
L506.341 348.473
L507.681 356.4
L509.021 363.043
L510.361 368.54
L511.701 373.033
L513.041 376.658
L514.38 379.549
L515.497 381.484
L516.837 383.333
L518.177 384.758
L518.4 384.961
L518.4 384.961" style="fill:none;stroke:#ff0000;stroke-linecap:square;"/>
   </g>
   <g id="line2d_36">
    <path clip-path="url(#p7ff5b81e1d)" d="
M518.4 388.8
L518.4 43.2" style="fill:none;stroke:#ff0000;stroke-linecap:square;"/>
   </g>
   <g id="matplotlib.axis_1">
    <g id="xtick_1">
     <g id="line2d_37">
      <path clip-path="url(#p7ff5b81e1d)" d="
M72 388.8
L72 43.2" style="fill:none;stroke:#000000;stroke-dasharray:1.000000,3.000000;stroke-dashoffset:0.0;stroke-width:0.5;"/>
     </g>
     <g id="line2d_38">
      <defs>
       <path d="
M0 0
L0 -4" id="m93b0483c22" style="stroke:#000000;stroke-width:0.5;"/>
      </defs>
      <g>
       <use style="stroke:#000000;stroke-width:0.5;" x="72.0" xlink:href="#m93b0483c22" y="388.8"/>
      </g>
     </g>
     <g id="line2d_39">
      <defs>
       <path d="
M0 0
L0 4" id="m741efc42ff" style="stroke:#000000;stroke-width:0.5;"/>
      </defs>
      <g>
       <use style="stroke:#000000;stroke-width:0.5;" x="72.0" xlink:href="#m741efc42ff" y="43.2"/>
      </g>
     </g>
     <g id="text_1">
      <!-- 0.0 -->
      <defs>
       <path d="
M4.15625 35.2969
Q4.15625 48 6.76562 55.7344
Q9.375 63.4844 14.5156 67.6719
Q19.6719 71.875 27.4844 71.875
Q33.25 71.875 37.5938 69.5469
Q41.9375 67.2344 44.7656 62.8594
Q47.6094 58.5 49.2188 52.2188
Q50.8281 45.9531 50.8281 35.2969
Q50.8281 22.7031 48.2344 14.9688
Q45.6562 7.23438 40.5 3
Q35.3594 -1.21875 27.4844 -1.21875
Q17.1406 -1.21875 11.2344 6.20312
Q4.15625 15.1406 4.15625 35.2969
M13.1875 35.2969
Q13.1875 17.6719 17.3125 11.8281
Q21.4375 6 27.4844 6
Q33.5469 6 37.6719 11.8594
Q41.7969 17.7188 41.7969 35.2969
Q41.7969 52.9844 37.6719 58.7812
Q33.5469 64.5938 27.3906 64.5938
Q21.3438 64.5938 17.7188 59.4688
Q13.1875 52.9375 13.1875 35.2969" id="ArialMT-30"/>
       <path d="
M9.07812 0
L9.07812 10.0156
L19.0938 10.0156
L19.0938 0
z
" id="ArialMT-2e"/>
      </defs>
      <g transform="translate(64.19625 401.389375)scale(0.12 -0.12)">
       <use xlink:href="#ArialMT-30"/>
       <use x="55.615234375" xlink:href="#ArialMT-2e"/>
       <use x="83.3984375" xlink:href="#ArialMT-30"/>
      </g>
     </g>
    </g>
    <g id="xtick_2">
     <g id="line2d_40">
      <path clip-path="url(#p7ff5b81e1d)" d="
M161.28 388.8
L161.28 43.2" style="fill:none;stroke:#000000;stroke-dasharray:1.000000,3.000000;stroke-dashoffset:0.0;stroke-width:0.5;"/>
     </g>
     <g id="line2d_41">
      <g>
       <use style="stroke:#000000;stroke-width:0.5;" x="161.28" xlink:href="#m93b0483c22" y="388.8"/>
      </g>
     </g>
     <g id="line2d_42">
      <g>
       <use style="stroke:#000000;stroke-width:0.5;" x="161.28" xlink:href="#m741efc42ff" y="43.2"/>
      </g>
     </g>
     <g id="text_2">
      <!-- 0.2 -->
      <defs>
       <path d="
M50.3438 8.45312
L50.3438 0
L3.03125 0
Q2.9375 3.17188 4.04688 6.10938
Q5.85938 10.9375 9.82812 15.625
Q13.8125 20.3125 21.3438 26.4688
Q33.0156 36.0312 37.1094 41.625
Q41.2188 47.2188 41.2188 52.2031
Q41.2188 57.4219 37.4688 61
Q33.7344 64.5938 27.7344 64.5938
Q21.3906 64.5938 17.5781 60.7812
Q13.7656 56.9844 13.7188 50.25
L4.6875 51.1719
Q5.60938 61.2812 11.6562 66.5781
Q17.7188 71.875 27.9375 71.875
Q38.2344 71.875 44.2344 66.1562
Q50.25 60.4531 50.25 52
Q50.25 47.7031 48.4844 43.5469
Q46.7344 39.4062 42.6562 34.8125
Q38.5781 30.2188 29.1094 22.2188
Q21.1875 15.5781 18.9375 13.2031
Q16.7031 10.8438 15.2344 8.45312
z
" id="ArialMT-32"/>
      </defs>
      <g transform="translate(153.5053125 401.389375)scale(0.12 -0.12)">
       <use xlink:href="#ArialMT-30"/>
       <use x="55.615234375" xlink:href="#ArialMT-2e"/>
       <use x="83.3984375" xlink:href="#ArialMT-32"/>
      </g>
     </g>
    </g>
    <g id="xtick_3">
     <g id="line2d_43">
      <path clip-path="url(#p7ff5b81e1d)" d="
M250.56 388.8
L250.56 43.2" style="fill:none;stroke:#000000;stroke-dasharray:1.000000,3.000000;stroke-dashoffset:0.0;stroke-width:0.5;"/>
     </g>
     <g id="line2d_44">
      <g>
       <use style="stroke:#000000;stroke-width:0.5;" x="250.56" xlink:href="#m93b0483c22" y="388.8"/>
      </g>
     </g>
     <g id="line2d_45">
      <g>
       <use style="stroke:#000000;stroke-width:0.5;" x="250.56" xlink:href="#m741efc42ff" y="43.2"/>
      </g>
     </g>
     <g id="text_3">
      <!-- 0.4 -->
      <defs>
       <path d="
M32.3281 0
L32.3281 17.1406
L1.26562 17.1406
L1.26562 25.2031
L33.9375 71.5781
L41.1094 71.5781
L41.1094 25.2031
L50.7812 25.2031
L50.7812 17.1406
L41.1094 17.1406
L41.1094 0
z

M32.3281 25.2031
L32.3281 57.4688
L9.90625 25.2031
z
" id="ArialMT-34"/>
      </defs>
      <g transform="translate(242.7590625 401.389375)scale(0.12 -0.12)">
       <use xlink:href="#ArialMT-30"/>
       <use x="55.615234375" xlink:href="#ArialMT-2e"/>
       <use x="83.3984375" xlink:href="#ArialMT-34"/>
      </g>
     </g>
    </g>
    <g id="xtick_4">
     <g id="line2d_46">
      <path clip-path="url(#p7ff5b81e1d)" d="
M339.84 388.8
L339.84 43.2" style="fill:none;stroke:#000000;stroke-dasharray:1.000000,3.000000;stroke-dashoffset:0.0;stroke-width:0.5;"/>
     </g>
     <g id="line2d_47">
      <g>
       <use style="stroke:#000000;stroke-width:0.5;" x="339.84" xlink:href="#m93b0483c22" y="388.8"/>
      </g>
     </g>
     <g id="line2d_48">
      <g>
       <use style="stroke:#000000;stroke-width:0.5;" x="339.84" xlink:href="#m741efc42ff" y="43.2"/>
      </g>
     </g>
     <g id="text_4">
      <!-- 0.6 -->
      <defs>
       <path d="
M49.75 54.0469
L41.0156 53.375
Q39.8438 58.5469 37.7031 60.8906
Q34.125 64.6562 28.9062 64.6562
Q24.7031 64.6562 21.5312 62.3125
Q17.3906 59.2812 14.9844 53.4688
Q12.5938 47.6562 12.5 36.9219
Q15.6719 41.75 20.2656 44.0938
Q24.8594 46.4375 29.8906 46.4375
Q38.6719 46.4375 44.8438 39.9688
Q51.0312 33.5 51.0312 23.25
Q51.0312 16.5 48.125 10.7188
Q45.2188 4.9375 40.1406 1.85938
Q35.0625 -1.21875 28.6094 -1.21875
Q17.625 -1.21875 10.6875 6.85938
Q3.76562 14.9375 3.76562 33.5
Q3.76562 54.25 11.4219 63.6719
Q18.1094 71.875 29.4375 71.875
Q37.8906 71.875 43.2812 67.1406
Q48.6875 62.4062 49.75 54.0469
M13.875 23.1875
Q13.875 18.6562 15.7969 14.5
Q17.7188 10.3594 21.1875 8.17188
Q24.6562 6 28.4688 6
Q34.0312 6 38.0312 10.4844
Q42.0469 14.9844 42.0469 22.7031
Q42.0469 30.125 38.0781 34.3906
Q34.125 38.6719 28.125 38.6719
Q22.1719 38.6719 18.0156 34.3906
Q13.875 30.125 13.875 23.1875" id="ArialMT-36"/>
      </defs>
      <g transform="translate(332.0240625 401.389375)scale(0.12 -0.12)">
       <use xlink:href="#ArialMT-30"/>
       <use x="55.615234375" xlink:href="#ArialMT-2e"/>
       <use x="83.3984375" xlink:href="#ArialMT-36"/>
      </g>
     </g>
    </g>
    <g id="xtick_5">
     <g id="line2d_49">
      <path clip-path="url(#p7ff5b81e1d)" d="
M429.12 388.8
L429.12 43.2" style="fill:none;stroke:#000000;stroke-dasharray:1.000000,3.000000;stroke-dashoffset:0.0;stroke-width:0.5;"/>
     </g>
     <g id="line2d_50">
      <g>
       <use style="stroke:#000000;stroke-width:0.5;" x="429.12" xlink:href="#m93b0483c22" y="388.8"/>
      </g>
     </g>
     <g id="line2d_51">
      <g>
       <use style="stroke:#000000;stroke-width:0.5;" x="429.12" xlink:href="#m741efc42ff" y="43.2"/>
      </g>
     </g>
     <g id="text_5">
      <!-- 0.8 -->
      <defs>
       <path d="
M17.6719 38.8125
Q12.2031 40.8281 9.5625 44.5312
Q6.9375 48.25 6.9375 53.4219
Q6.9375 61.2344 12.5469 66.5469
Q18.1719 71.875 27.4844 71.875
Q36.8594 71.875 42.5781 66.4219
Q48.2969 60.9844 48.2969 53.1719
Q48.2969 48.1875 45.6719 44.5
Q43.0625 40.8281 37.75 38.8125
Q44.3438 36.6719 47.7812 31.875
Q51.2188 27.0938 51.2188 20.4531
Q51.2188 11.2812 44.7188 5.03125
Q38.2344 -1.21875 27.6406 -1.21875
Q17.0469 -1.21875 10.5469 5.04688
Q4.04688 11.3281 4.04688 20.7031
Q4.04688 27.6875 7.59375 32.3906
Q11.1406 37.1094 17.6719 38.8125
M15.9219 53.7188
Q15.9219 48.6406 19.1875 45.4062
Q22.4688 42.1875 27.6875 42.1875
Q32.7656 42.1875 36.0156 45.375
Q39.2656 48.5781 39.2656 53.2188
Q39.2656 58.0625 35.9062 61.3594
Q32.5625 64.6562 27.5938 64.6562
Q22.5625 64.6562 19.2344 61.4219
Q15.9219 58.2031 15.9219 53.7188
M13.0938 20.6562
Q13.0938 16.8906 14.875 13.375
Q16.6562 9.85938 20.1719 7.92188
Q23.6875 6 27.7344 6
Q34.0312 6 38.125 10.0469
Q42.2344 14.1094 42.2344 20.3594
Q42.2344 26.7031 38.0156 30.8594
Q33.7969 35.0156 27.4375 35.0156
Q21.2344 35.0156 17.1562 30.9062
Q13.0938 26.8125 13.0938 20.6562" id="ArialMT-38"/>
      </defs>
      <g transform="translate(421.2928125 401.389375)scale(0.12 -0.12)">
       <use xlink:href="#ArialMT-30"/>
       <use x="55.615234375" xlink:href="#ArialMT-2e"/>
       <use x="83.3984375" xlink:href="#ArialMT-38"/>
      </g>
     </g>
    </g>
    <g id="xtick_6">
     <g id="line2d_52">
      <path clip-path="url(#p7ff5b81e1d)" d="
M518.4 388.8
L518.4 43.2" style="fill:none;stroke:#000000;stroke-dasharray:1.000000,3.000000;stroke-dashoffset:0.0;stroke-width:0.5;"/>
     </g>
     <g id="line2d_53">
      <g>
       <use style="stroke:#000000;stroke-width:0.5;" x="518.4" xlink:href="#m93b0483c22" y="388.8"/>
      </g>
     </g>
     <g id="line2d_54">
      <g>
       <use style="stroke:#000000;stroke-width:0.5;" x="518.4" xlink:href="#m741efc42ff" y="43.2"/>
      </g>
     </g>
     <g id="text_6">
      <!-- 1.0 -->
      <defs>
       <path d="
M37.25 0
L28.4688 0
L28.4688 56
Q25.2969 52.9844 20.1406 49.9531
Q14.9844 46.9219 10.8906 45.4062
L10.8906 53.9062
Q18.2656 57.375 23.7812 62.2969
Q29.2969 67.2344 31.5938 71.875
L37.25 71.875
z
" id="ArialMT-31"/>
      </defs>
      <g transform="translate(511.0003125 401.389375)scale(0.12 -0.12)">
       <use xlink:href="#ArialMT-31"/>
       <use x="55.615234375" xlink:href="#ArialMT-2e"/>
       <use x="83.3984375" xlink:href="#ArialMT-30"/>
      </g>
     </g>
    </g>
    <g id="text_7">
     <!-- t -->
     <defs>
      <path d="
M25.7812 7.85938
L27.0469 0.09375
Q23.3438 -0.6875 20.4062 -0.6875
Q15.625 -0.6875 12.9844 0.828125
Q10.3594 2.34375 9.28125 4.8125
Q8.20312 7.28125 8.20312 15.1875
L8.20312 45.0156
L1.76562 45.0156
L1.76562 51.8594
L8.20312 51.8594
L8.20312 64.7031
L16.9375 69.9688
L16.9375 51.8594
L25.7812 51.8594
L25.7812 45.0156
L16.9375 45.0156
L16.9375 14.7031
Q16.9375 10.9375 17.4062 9.85938
Q17.875 8.79688 18.9219 8.15625
Q19.9688 7.51562 21.9219 7.51562
Q23.3906 7.51562 25.7812 7.85938" id="ArialMT-74"/>
     </defs>
     <g transform="translate(293.683125 417.36375)scale(0.12 -0.12)">
      <use xlink:href="#ArialMT-74"/>
     </g>
    </g>
   </g>
   <g id="matplotlib.axis_2">
    <g id="ytick_1">
     <g id="line2d_55">
      <path clip-path="url(#p7ff5b81e1d)" d="
M72 388.8
L518.4 388.8" style="fill:none;stroke:#000000;stroke-dasharray:1.000000,3.000000;stroke-dashoffset:0.0;stroke-width:0.5;"/>
     </g>
     <g id="line2d_56">
      <defs>
       <path d="
M0 0
L4 0" id="m728421d6d4" style="stroke:#000000;stroke-width:0.5;"/>
      </defs>
      <g>
       <use style="stroke:#000000;stroke-width:0.5;" x="72.0" xlink:href="#m728421d6d4" y="388.8"/>
      </g>
     </g>
     <g id="line2d_57">
      <defs>
       <path d="
M0 0
L-4 0" id="mcb0005524f" style="stroke:#000000;stroke-width:0.5;"/>
      </defs>
      <g>
       <use style="stroke:#000000;stroke-width:0.5;" x="518.4" xlink:href="#mcb0005524f" y="388.8"/>
      </g>
     </g>
     <g id="text_8">
      <!-- 0 -->
      <g transform="translate(62.399375 391.9021875)scale(0.12 -0.12)">
       <use xlink:href="#ArialMT-30"/>
      </g>
     </g>
    </g>
    <g id="ytick_2">
     <g id="line2d_58">
      <path clip-path="url(#p7ff5b81e1d)" d="
M72 338.321
L518.4 338.321" style="fill:none;stroke:#000000;stroke-dasharray:1.000000,3.000000;stroke-dashoffset:0.0;stroke-width:0.5;"/>
     </g>
     <g id="line2d_59">
      <g>
       <use style="stroke:#000000;stroke-width:0.5;" x="72.0" xlink:href="#m728421d6d4" y="338.320919183"/>
      </g>
     </g>
     <g id="line2d_60">
      <g>
       <use style="stroke:#000000;stroke-width:0.5;" x="518.4" xlink:href="#mcb0005524f" y="338.320919183"/>
      </g>
     </g>
     <g id="text_9">
      <!-- 2 -->
      <g transform="translate(62.31125 341.423106683)scale(0.12 -0.12)">
       <use xlink:href="#ArialMT-32"/>
      </g>
     </g>
    </g>
    <g id="ytick_3">
     <g id="line2d_61">
      <path clip-path="url(#p7ff5b81e1d)" d="
M72 287.842
L518.4 287.842" style="fill:none;stroke:#000000;stroke-dasharray:1.000000,3.000000;stroke-dashoffset:0.0;stroke-width:0.5;"/>
     </g>
     <g id="line2d_62">
      <g>
       <use style="stroke:#000000;stroke-width:0.5;" x="72.0" xlink:href="#m728421d6d4" y="287.841838365"/>
      </g>
     </g>
     <g id="line2d_63">
      <g>
       <use style="stroke:#000000;stroke-width:0.5;" x="518.4" xlink:href="#mcb0005524f" y="287.841838365"/>
      </g>
     </g>
     <g id="text_10">
      <!-- 4 -->
      <g transform="translate(62.058125 290.944025865)scale(0.12 -0.12)">
       <use xlink:href="#ArialMT-34"/>
      </g>
     </g>
    </g>
    <g id="ytick_4">
     <g id="line2d_64">
      <path clip-path="url(#p7ff5b81e1d)" d="
M72 237.363
L518.4 237.363" style="fill:none;stroke:#000000;stroke-dasharray:1.000000,3.000000;stroke-dashoffset:0.0;stroke-width:0.5;"/>
     </g>
     <g id="line2d_65">
      <g>
       <use style="stroke:#000000;stroke-width:0.5;" x="72.0" xlink:href="#m728421d6d4" y="237.362757548"/>
      </g>
     </g>
     <g id="line2d_66">
      <g>
       <use style="stroke:#000000;stroke-width:0.5;" x="518.4" xlink:href="#mcb0005524f" y="237.362757548"/>
      </g>
     </g>
     <g id="text_11">
      <!-- 6 -->
      <g transform="translate(62.328125 240.464945048)scale(0.12 -0.12)">
       <use xlink:href="#ArialMT-36"/>
      </g>
     </g>
    </g>
    <g id="ytick_5">
     <g id="line2d_67">
      <path clip-path="url(#p7ff5b81e1d)" d="
M72 186.884
L518.4 186.884" style="fill:none;stroke:#000000;stroke-dasharray:1.000000,3.000000;stroke-dashoffset:0.0;stroke-width:0.5;"/>
     </g>
     <g id="line2d_68">
      <g>
       <use style="stroke:#000000;stroke-width:0.5;" x="72.0" xlink:href="#m728421d6d4" y="186.883676731"/>
      </g>
     </g>
     <g id="line2d_69">
      <g>
       <use style="stroke:#000000;stroke-width:0.5;" x="518.4" xlink:href="#mcb0005524f" y="186.883676731"/>
      </g>
     </g>
     <g id="text_12">
      <!-- 8 -->
      <g transform="translate(62.339375 189.985864231)scale(0.12 -0.12)">
       <use xlink:href="#ArialMT-38"/>
      </g>
     </g>
    </g>
    <g id="ytick_6">
     <g id="line2d_70">
      <path clip-path="url(#p7ff5b81e1d)" d="
M72 136.405
L518.4 136.405" style="fill:none;stroke:#000000;stroke-dasharray:1.000000,3.000000;stroke-dashoffset:0.0;stroke-width:0.5;"/>
     </g>
     <g id="line2d_71">
      <g>
       <use style="stroke:#000000;stroke-width:0.5;" x="72.0" xlink:href="#m728421d6d4" y="136.404595913"/>
      </g>
     </g>
     <g id="line2d_72">
      <g>
       <use style="stroke:#000000;stroke-width:0.5;" x="518.4" xlink:href="#mcb0005524f" y="136.404595913"/>
      </g>
     </g>
     <g id="text_13">
      <!-- 10 -->
      <g transform="translate(56.534375 139.506783413)scale(0.12 -0.12)">
       <use xlink:href="#ArialMT-31"/>
       <use x="55.615234375" xlink:href="#ArialMT-30"/>
      </g>
     </g>
    </g>
    <g id="ytick_7">
     <g id="line2d_73">
      <path clip-path="url(#p7ff5b81e1d)" d="
M72 85.9255
L518.4 85.9255" style="fill:none;stroke:#000000;stroke-dasharray:1.000000,3.000000;stroke-dashoffset:0.0;stroke-width:0.5;"/>
     </g>
     <g id="line2d_74">
      <g>
       <use style="stroke:#000000;stroke-width:0.5;" x="72.0" xlink:href="#m728421d6d4" y="85.9255150958"/>
      </g>
     </g>
     <g id="line2d_75">
      <g>
       <use style="stroke:#000000;stroke-width:0.5;" x="518.4" xlink:href="#mcb0005524f" y="85.9255150958"/>
      </g>
     </g>
     <g id="text_14">
      <!-- 12 -->
      <g transform="translate(56.5925 89.0277025958)scale(0.12 -0.12)">
       <use xlink:href="#ArialMT-31"/>
       <use x="55.615234375" xlink:href="#ArialMT-32"/>
      </g>
     </g>
    </g>
    <g id="text_15">
     <!-- P -->
     <defs>
      <path d="
M7.71875 0
L7.71875 71.5781
L34.7188 71.5781
Q41.8438 71.5781 45.6094 70.9062
Q50.875 70.0156 54.4375 67.5469
Q58.0156 65.0938 60.1875 60.6406
Q62.3594 56.2031 62.3594 50.875
Q62.3594 41.75 56.5469 35.4219
Q50.7344 29.1094 35.5469 29.1094
L17.1875 29.1094
L17.1875 0
z

M17.1875 37.5469
L35.6875 37.5469
Q44.875 37.5469 48.7344 40.9688
Q52.5938 44.3906 52.5938 50.5938
Q52.5938 55.0781 50.3125 58.2656
Q48.0469 61.4688 44.3438 62.5
Q41.9375 63.1406 35.5 63.1406
L17.1875 63.1406
z
" id="ArialMT-50"/>
     </defs>
     <g transform="translate(49.149375 219.2784375)rotate(-90.0)scale(0.12 -0.12)">
      <use xlink:href="#ArialMT-50"/>
     </g>
    </g>
   </g>
   <g id="patch_3">
    <path d="
M72 43.2
L518.4 43.2" style="fill:none;stroke:#000000;"/>
   </g>
   <g id="patch_4">
    <path d="
M518.4 388.8
L518.4 43.2" style="fill:none;stroke:#000000;"/>
   </g>
   <g id="patch_5">
    <path d="
M72 388.8
L518.4 388.8" style="fill:none;stroke:#000000;"/>
   </g>
   <g id="patch_6">
    <path d="
M72 388.8
L72 43.2" style="fill:none;stroke:#000000;"/>
   </g>
   <g id="text_16">
    <!-- Flight PDF queue distribution -->
    <defs>
     <path d="
M14.7031 0
L6.54688 0
L6.54688 71.5781
L15.3281 71.5781
L15.3281 46.0469
Q20.9062 53.0312 29.5469 53.0312
Q34.3281 53.0312 38.5938 51.0938
Q42.875 49.1719 45.625 45.6719
Q48.3906 42.1875 49.9531 37.25
Q51.5156 32.3281 51.5156 26.7031
Q51.5156 13.375 44.9219 6.09375
Q38.3281 -1.17188 29.1094 -1.17188
Q19.9219 -1.17188 14.7031 6.5
z

M14.5938 26.3125
Q14.5938 17 17.1406 12.8438
Q21.2969 6.0625 28.375 6.0625
Q34.125 6.0625 38.3281 11.0625
Q42.5312 16.0625 42.5312 25.9844
Q42.5312 36.1406 38.5 40.9688
Q34.4688 45.7969 28.7656 45.7969
Q23 45.7969 18.7969 40.7969
Q14.5938 35.7969 14.5938 26.3125" id="ArialMT-62"/>
     <path d="
M4.98438 -4.29688
L13.5312 -5.5625
Q14.0625 -9.51562 16.5 -11.3281
Q19.7812 -13.7656 25.4375 -13.7656
Q31.5469 -13.7656 34.8594 -11.3281
Q38.1875 -8.89062 39.3594 -4.5
Q40.0469 -1.8125 39.9844 6.78125
Q34.2344 0 25.6406 0
Q14.9375 0 9.07812 7.71875
Q3.21875 15.4375 3.21875 26.2188
Q3.21875 33.6406 5.90625 39.9062
Q8.59375 46.1875 13.6875 49.6094
Q18.7969 53.0312 25.6875 53.0312
Q34.8594 53.0312 40.8281 45.6094
L40.8281 51.8594
L48.9219 51.8594
L48.9219 7.03125
Q48.9219 -5.07812 46.4531 -10.125
Q44 -15.1875 38.6406 -18.1094
Q33.2969 -21.0469 25.4844 -21.0469
Q16.2188 -21.0469 10.5 -16.875
Q4.78125 -12.7031 4.98438 -4.29688
M12.25 26.8594
Q12.25 16.6562 16.2969 11.9688
Q20.3594 7.28125 26.4688 7.28125
Q32.5156 7.28125 36.6094 11.9375
Q40.7188 16.6094 40.7188 26.5625
Q40.7188 36.0781 36.5 40.9062
Q32.2812 45.75 26.3125 45.75
Q20.4531 45.75 16.3438 40.9844
Q12.25 36.2344 12.25 26.8594" id="ArialMT-67"/>
     <path d="
M42.0938 16.7031
L51.1719 15.5781
Q49.0312 7.625 43.2188 3.21875
Q37.4062 -1.17188 28.375 -1.17188
Q17 -1.17188 10.3281 5.82812
Q3.65625 12.8438 3.65625 25.4844
Q3.65625 38.5781 10.3906 45.7969
Q17.1406 53.0312 27.875 53.0312
Q38.2812 53.0312 44.875 45.9531
Q51.4688 38.875 51.4688 26.0312
Q51.4688 25.25 51.4219 23.6875
L12.75 23.6875
Q13.2344 15.1406 17.5781 10.5938
Q21.9219 6.0625 28.4219 6.0625
Q33.25 6.0625 36.6719 8.59375
Q40.0938 11.1406 42.0938 16.7031
M13.2344 30.9062
L42.1875 30.9062
Q41.6094 37.4531 38.875 40.7188
Q34.6719 45.7969 27.9844 45.7969
Q21.9219 45.7969 17.7969 41.75
Q13.6719 37.7031 13.2344 30.9062" id="ArialMT-65"/>
     <path d="
M40.2344 0
L40.2344 6.54688
Q35.2969 -1.17188 25.7344 -1.17188
Q19.5312 -1.17188 14.3281 2.25
Q9.125 5.67188 6.26562 11.7969
Q3.42188 17.9219 3.42188 25.875
Q3.42188 33.6406 6 39.9688
Q8.59375 46.2969 13.7656 49.6562
Q18.9531 53.0312 25.3438 53.0312
Q30.0312 53.0312 33.6875 51.0469
Q37.3594 49.0781 39.6562 45.9062
L39.6562 71.5781
L48.3906 71.5781
L48.3906 0
z

M12.4531 25.875
Q12.4531 15.9219 16.6406 10.9844
Q20.8438 6.0625 26.5625 6.0625
Q32.3281 6.0625 36.3438 10.7656
Q40.375 15.4844 40.375 25.1406
Q40.375 35.7969 36.2656 40.7656
Q32.1719 45.75 26.1719 45.75
Q20.3125 45.75 16.375 40.9688
Q12.4531 36.1875 12.4531 25.875" id="ArialMT-64"/>
     <path d="
M40.5781 0
L40.5781 7.625
Q34.5156 -1.17188 24.125 -1.17188
Q19.5312 -1.17188 15.5469 0.578125
Q11.5781 2.34375 9.64062 5
Q7.71875 7.67188 6.9375 11.5312
Q6.39062 14.1094 6.39062 19.7344
L6.39062 51.8594
L15.1875 51.8594
L15.1875 23.0938
Q15.1875 16.2188 15.7188 13.8125
Q16.5469 10.3594 19.2344 8.375
Q21.9219 6.39062 25.875 6.39062
Q29.8281 6.39062 33.2969 8.42188
Q36.7656 10.4531 38.2031 13.9375
Q39.6562 17.4375 39.6562 24.0781
L39.6562 51.8594
L48.4375 51.8594
L48.4375 0
z
" id="ArialMT-75"/>
     <path d="
M6.64062 61.4688
L6.64062 71.5781
L15.4375 71.5781
L15.4375 61.4688
z

M6.64062 0
L6.64062 51.8594
L15.4375 51.8594
L15.4375 0
z
" id="ArialMT-69"/>
     <path d="
M6.59375 0
L6.59375 71.5781
L15.375 71.5781
L15.375 45.9062
Q21.5312 53.0312 30.9062 53.0312
Q36.6719 53.0312 40.9219 50.75
Q45.1719 48.4844 47 44.4844
Q48.8281 40.4844 48.8281 32.8594
L48.8281 0
L40.0469 0
L40.0469 32.8594
Q40.0469 39.4531 37.1875 42.4531
Q34.3281 45.4531 29.1094 45.4531
Q25.2031 45.4531 21.75 43.4219
Q18.3125 41.4062 16.8438 37.9375
Q15.375 34.4688 15.375 28.375
L15.375 0
z
" id="ArialMT-68"/>
     <path d="
M7.71875 0
L7.71875 71.5781
L32.375 71.5781
Q40.7188 71.5781 45.125 70.5625
Q51.2656 69.1406 55.6094 65.4375
Q61.2812 60.6406 64.0781 53.1875
Q66.8906 45.75 66.8906 36.1875
Q66.8906 28.0312 64.9844 21.7344
Q63.0938 15.4375 60.1094 11.2969
Q57.125 7.17188 53.5781 4.79688
Q50.0469 2.4375 45.0469 1.21875
Q40.0469 0 33.5469 0
z

M17.1875 8.45312
L32.4688 8.45312
Q39.5469 8.45312 43.5781 9.76562
Q47.6094 11.0781 50 13.4844
Q53.375 16.8438 55.25 22.5312
Q57.125 28.2188 57.125 36.3281
Q57.125 47.5625 53.4375 53.5938
Q49.75 59.625 44.4844 61.6719
Q40.6719 63.1406 32.2344 63.1406
L17.1875 63.1406
z
" id="ArialMT-44"/>
     <path d="
M6.5 0
L6.5 51.8594
L14.4062 51.8594
L14.4062 44
Q17.4375 49.5156 20 51.2656
Q22.5625 53.0312 25.6406 53.0312
Q30.0781 53.0312 34.6719 50.2031
L31.6406 42.0469
Q28.4219 43.9531 25.2031 43.9531
Q22.3125 43.9531 20.0156 42.2188
Q17.7188 40.4844 16.75 37.4062
Q15.2812 32.7188 15.2812 27.1562
L15.2812 0
z
" id="ArialMT-72"/>
     <path d="
M8.20312 0
L8.20312 71.5781
L56.5 71.5781
L56.5 63.1406
L17.6719 63.1406
L17.6719 40.9688
L51.2656 40.9688
L51.2656 32.5156
L17.6719 32.5156
L17.6719 0
z
" id="ArialMT-46"/>
     <path d="
M6.39062 0
L6.39062 71.5781
L15.1875 71.5781
L15.1875 0
z
" id="ArialMT-6c"/>
     <path d="
M3.32812 25.9219
Q3.32812 40.3281 11.3281 47.2656
Q18.0156 53.0312 27.6406 53.0312
Q38.3281 53.0312 45.1094 46.0156
Q51.9062 39.0156 51.9062 26.6562
Q51.9062 16.6562 48.9062 10.9062
Q45.9062 5.17188 40.1562 2
Q34.4219 -1.17188 27.6406 -1.17188
Q16.75 -1.17188 10.0312 5.8125
Q3.32812 12.7969 3.32812 25.9219
M12.3594 25.9219
Q12.3594 15.9688 16.7031 11.0156
Q21.0469 6.0625 27.6406 6.0625
Q34.1875 6.0625 38.5312 11.0312
Q42.875 16.0156 42.875 26.2188
Q42.875 35.8438 38.5 40.7969
Q34.125 45.75 27.6406 45.75
Q21.0469 45.75 16.7031 40.8125
Q12.3594 35.8906 12.3594 25.9219" id="ArialMT-6f"/>
     <path d="
M6.59375 0
L6.59375 51.8594
L14.5 51.8594
L14.5 44.4844
Q20.2188 53.0312 31 53.0312
Q35.6875 53.0312 39.625 51.3438
Q43.5625 49.6562 45.5156 46.9219
Q47.4688 44.1875 48.25 40.4375
Q48.7344 37.9844 48.7344 31.8906
L48.7344 0
L39.9375 0
L39.9375 31.5469
Q39.9375 36.9219 38.9062 39.5781
Q37.8906 42.2344 35.2812 43.8125
Q32.6719 45.4062 29.1562 45.4062
Q23.5312 45.4062 19.4531 41.8438
Q15.375 38.2812 15.375 28.3281
L15.375 0
z
" id="ArialMT-6e"/>
     <path d="
M39.6562 -19.875
L39.6562 5.51562
Q37.5938 2.64062 33.9062 0.734375
Q30.2188 -1.17188 26.0781 -1.17188
Q16.8438 -1.17188 10.1719 6.20312
Q3.51562 13.5781 3.51562 26.4219
Q3.51562 34.2344 6.21875 40.4219
Q8.9375 46.625 14.0781 49.8281
Q19.2344 53.0312 25.3906 53.0312
Q35.0156 53.0312 40.5312 44.9219
L40.5312 51.8594
L48.4375 51.8594
L48.4375 -19.875
z

M12.5469 26.0781
Q12.5469 16.0625 16.75 11.0625
Q20.9531 6.0625 26.8125 6.0625
Q32.4219 6.0625 36.4688 10.8125
Q40.5312 15.5781 40.5312 25.2969
Q40.5312 35.6406 36.25 40.8594
Q31.9844 46.0938 26.2188 46.0938
Q20.5156 46.0938 16.5312 41.2344
Q12.5469 36.375 12.5469 26.0781" id="ArialMT-71"/>
     <path d="
M3.07812 15.4844
L11.7656 16.8438
Q12.5 11.625 15.8438 8.84375
Q19.1875 6.0625 25.2031 6.0625
Q31.25 6.0625 34.1719 8.51562
Q37.1094 10.9844 37.1094 14.3125
Q37.1094 17.2812 34.5156 19
Q32.7188 20.1719 25.5312 21.9688
Q15.875 24.4219 12.1406 26.2031
Q8.40625 27.9844 6.46875 31.125
Q4.54688 34.2812 4.54688 38.0938
Q4.54688 41.5469 6.125 44.5
Q7.71875 47.4688 10.4531 49.4219
Q12.5 50.9219 16.0312 51.9688
Q19.5781 53.0312 23.6406 53.0312
Q29.7344 53.0312 34.3438 51.2656
Q38.9688 49.5156 41.1562 46.5
Q43.3594 43.5 44.1875 38.4844
L35.5938 37.3125
Q35.0156 41.3125 32.2031 43.5469
Q29.3906 45.7969 24.2656 45.7969
Q18.2188 45.7969 15.625 43.7969
Q13.0312 41.7969 13.0312 39.1094
Q13.0312 37.4062 14.1094 36.0312
Q15.1875 34.625 17.4844 33.6875
Q18.7969 33.2031 25.25 31.4531
Q34.5781 28.9531 38.25 27.3594
Q41.9375 25.7812 44.0312 22.75
Q46.1406 19.7344 46.1406 15.2344
Q46.1406 10.8438 43.5781 6.95312
Q41.0156 3.07812 36.1719 0.953125
Q31.3438 -1.17188 25.25 -1.17188
Q15.1406 -1.17188 9.84375 3.03125
Q4.54688 7.23438 3.07812 15.4844" id="ArialMT-73"/>
     <path id="ArialMT-20"/>
    </defs>
    <g transform="translate(202.85325 38.2)scale(0.144 -0.144)">
     <use xlink:href="#ArialMT-46"/>
     <use x="61.083984375" xlink:href="#ArialMT-6c"/>
     <use x="83.30078125" xlink:href="#ArialMT-69"/>
     <use x="105.517578125" xlink:href="#ArialMT-67"/>
     <use x="161.1328125" xlink:href="#ArialMT-68"/>
     <use x="216.748046875" xlink:href="#ArialMT-74"/>
     <use x="244.53125" xlink:href="#ArialMT-20"/>
     <use x="272.314453125" xlink:href="#ArialMT-50"/>
     <use x="339.013671875" xlink:href="#ArialMT-44"/>
     <use x="411.23046875" xlink:href="#ArialMT-46"/>
     <use x="472.314453125" xlink:href="#ArialMT-20"/>
     <use x="500.09765625" xlink:href="#ArialMT-71"/>
     <use x="555.712890625" xlink:href="#ArialMT-75"/>
     <use x="611.328125" xlink:href="#ArialMT-65"/>
     <use x="666.943359375" xlink:href="#ArialMT-75"/>
     <use x="722.55859375" xlink:href="#ArialMT-65"/>
     <use x="778.173828125" xlink:href="#ArialMT-20"/>
     <use x="805.95703125" xlink:href="#ArialMT-64"/>
     <use x="861.572265625" xlink:href="#ArialMT-69"/>
     <use x="883.7890625" xlink:href="#ArialMT-73"/>
     <use x="933.7890625" xlink:href="#ArialMT-74"/>
     <use x="961.572265625" xlink:href="#ArialMT-72"/>
     <use x="994.873046875" xlink:href="#ArialMT-69"/>
     <use x="1017.08984375" xlink:href="#ArialMT-62"/>
     <use x="1072.70507812" xlink:href="#ArialMT-75"/>
     <use x="1128.3203125" xlink:href="#ArialMT-74"/>
     <use x="1156.10351562" xlink:href="#ArialMT-69"/>
     <use x="1178.3203125" xlink:href="#ArialMT-6f"/>
     <use x="1233.93554688" xlink:href="#ArialMT-6e"/>
    </g>
   </g>
  </g>
 </g>
 <defs>
  <clipPath id="p7ff5b81e1d">
   <rect height="345.6" width="446.4" x="72.0" y="43.2"/>
  </clipPath>
 </defs>
</svg>
