<?xml version="1.0" encoding="utf-8" standalone="no"?>
<!DOCTYPE svg PUBLIC "-//W3C//DTD SVG 1.1//EN"
  "http://www.w3.org/Graphics/SVG/1.1/DTD/svg11.dtd">
<!-- Created with matplotlib (http://matplotlib.org/) -->
<svg height="432pt" version="1.1" viewBox="0 0 576 432" width="576pt" xmlns="http://www.w3.org/2000/svg" xmlns:xlink="http://www.w3.org/1999/xlink">
 <defs>
  <style type="text/css">
*{stroke-linecap:butt;stroke-linejoin:round;}
  </style>
 </defs>
 <g id="figure_1">
  <g id="patch_1">
   <path d="
M0 432
L576 432
L576 0
L0 0
z
" style="fill:#ffffff;"/>
  </g>
  <g id="axes_1">
   <g id="patch_2">
    <path d="
M72 388.8
L518.4 388.8
L518.4 43.2
L72 43.2
z
" style="fill:#ffffff;"/>
   </g>
   <g id="line2d_1">
    <path clip-path="url(#p7ff5b81e1d)" d="
M72 133.399
L75.1264 182.799
L78.6993 238.596
L80.9325 270.109
L82.719 292.538
L84.5055 312.177
L86.0686 327.002
L87.6318 339.667
L88.9717 348.894
L90.3116 356.728
L91.6514 363.294
L92.9913 368.729
L94.3312 373.171
L95.671 376.757
L97.0109 379.618
L98.3508 381.872
L99.6906 383.628
L101.031 384.979
L102.37 386.007
L103.71 386.78
L105.273 387.434
L107.06 387.942
L109.293 388.332
L112.196 388.597
L116.662 388.749
L126.711 388.798
L331.488 388.8
L518.4 388.8
L518.4 388.8" style="fill:none;stroke:#8000ff;stroke-linecap:square;"/>
   </g>
   <g id="line2d_2">
    <path clip-path="url(#p7ff5b81e1d)" d="
M101.009 388.8
L101.009 133.399" style="fill:none;stroke:#8000ff;stroke-linecap:square;"/>
   </g>
   <g id="line2d_3">
    <path clip-path="url(#p7ff5b81e1d)" d="
M72 330.507
L73.5632 316.253
L75.1264 299.799
L76.9129 278.334
L78.9227 251.057
L81.3791 214.126
L88.5251 103.77
L90.0882 83.9668
L91.4281 69.5651
L92.5447 59.7043
L93.4379 53.3684
L94.3312 48.5075
L95.0011 45.871
L95.671 44.123
L96.1177 43.4584
L96.5643 43.1973
L97.0109 43.3406
L97.4575 43.8879
L97.9042 44.8371
L98.5741 47.007
L99.244 50.0565
L100.137 55.4488
L101.031 62.2876
L102.147 72.7271
L103.487 87.7364
L105.05 108.111
L107.06 137.642
L110.633 194.398
L113.759 242.693
L115.992 273.766
L117.779 295.774
L119.565 314.968
L121.129 329.404
L122.692 341.697
L124.032 350.626
L125.371 358.187
L126.711 364.508
L128.051 369.725
L129.391 373.979
L130.731 377.405
L132.071 380.131
L133.411 382.274
L134.751 383.938
L136.09 385.216
L137.43 386.186
L138.993 387.015
L140.557 387.598
L142.566 388.093
L145.023 388.442
L148.373 388.666
L153.955 388.778
L172.267 388.8
L518.4 388.8
L518.4 388.8" style="fill:none;stroke:#5641fd;stroke-linecap:square;"/>
   </g>
   <g id="line2d_4">
    <path clip-path="url(#p7ff5b81e1d)" d="
M135.792 388.8
L135.792 43.1973" style="fill:none;stroke:#5641fd;stroke-linecap:square;"/>
   </g>
   <g id="line2d_5">
    <path clip-path="url(#p7ff5b81e1d)" d="
M72 388.789
L80.0392 388.65
L83.6122 388.376
L86.0686 387.971
L88.0784 387.401
L89.6416 386.733
L90.9815 385.945
L92.3214 384.897
L93.6612 383.52
L94.7778 382.063
L95.8943 380.267
L97.0109 378.07
L98.1275 375.407
L99.244 372.204
L100.361 368.384
L101.477 363.869
L102.817 357.419
L104.157 349.714
L105.497 340.628
L106.837 330.051
L108.4 315.721
L109.963 299.191
L111.749 277.642
L113.759 250.282
L116.216 213.28
L123.138 106.079
L124.702 85.9663
L126.041 71.2367
L127.158 61.0643
L128.275 53.0315
L129.168 48.2623
L129.838 45.6968
L130.508 44.0212
L130.954 43.4053
L131.401 43.1932
L131.848 43.3854
L132.294 43.9814
L132.741 44.9791
L133.411 47.2207
L134.081 50.3403
L134.974 55.8224
L135.867 62.7459
L136.984 73.2826
L138.324 88.3931
L139.887 108.862
L141.897 138.474
L145.693 198.822
L148.596 243.486
L150.829 274.471
L152.616 296.397
L154.402 315.504
L155.965 329.864
L157.528 342.086
L158.868 350.957
L160.208 358.465
L161.548 364.738
L162.888 369.914
L164.228 374.132
L165.568 377.527
L166.907 380.228
L168.247 382.349
L169.587 383.997
L170.927 385.261
L172.267 386.22
L173.83 387.039
L175.393 387.615
L177.403 388.103
L179.86 388.447
L183.209 388.668
L188.792 388.778
L207.327 388.8
L518.4 388.8
L518.4 388.8" style="fill:none;stroke:#2c7ef7;stroke-linecap:square;"/>
   </g>
   <g id="line2d_6">
    <path clip-path="url(#p7ff5b81e1d)" d="
M170.574 388.8
L170.574 43.1932" style="fill:none;stroke:#2c7ef7;stroke-linecap:square;"/>
   </g>
   <g id="line2d_7">
    <path clip-path="url(#p7ff5b81e1d)" d="
M72 388.8
L113.759 388.692
L117.779 388.444
L120.459 388.053
L122.468 387.535
L124.032 386.924
L125.595 386.057
L126.935 385.046
L128.275 383.715
L129.391 382.304
L130.508 380.563
L131.624 378.432
L132.741 375.843
L133.857 372.727
L134.974 369.006
L136.09 364.602
L137.43 358.301
L138.77 350.761
L140.11 341.856
L141.45 331.472
L143.013 317.379
L144.576 301.087
L146.363 279.801
L148.373 252.701
L150.606 219.395
L158.422 99.3355
L159.985 80.1636
L161.325 66.4234
L162.441 57.1865
L163.334 51.3887
L164.228 47.0933
L164.898 44.8942
L165.344 43.9252
L165.791 43.3581
L166.238 43.1949
L166.684 43.4361
L167.131 44.0809
L167.577 45.1269
L168.247 47.4401
L168.917 50.6295
L169.811 56.2012
L170.704 63.2092
L171.82 73.8424
L173.16 89.0536
L174.723 109.616
L176.733 139.307
L180.753 203.229
L183.656 247.526
L185.666 275.174
L187.452 297.017
L189.239 316.037
L190.802 330.322
L192.365 342.471
L193.705 351.286
L195.045 358.741
L196.385 364.968
L197.724 370.102
L199.064 374.284
L200.404 377.649
L201.744 380.324
L203.084 382.424
L204.424 384.055
L205.764 385.305
L207.104 386.253
L208.667 387.062
L210.453 387.697
L212.463 388.153
L214.919 388.474
L218.492 388.687
L224.522 388.784
L248.416 388.8
L518.4 388.8
L518.4 388.8" style="fill:none;stroke:#00b5eb;stroke-linecap:square;"/>
   </g>
   <g id="line2d_8">
    <path clip-path="url(#p7ff5b81e1d)" d="
M205.357 388.8
L205.357 43.1949" style="fill:none;stroke:#00b5eb;stroke-linecap:square;"/>
   </g>
   <g id="line2d_9">
    <path clip-path="url(#p7ff5b81e1d)" d="
M72 388.8
L148.596 388.69
L152.616 388.438
L155.072 388.087
L157.082 387.588
L158.645 387.001
L160.208 386.166
L161.548 385.19
L162.888 383.903
L164.004 382.538
L165.121 380.851
L166.238 378.782
L167.354 376.268
L168.471 373.236
L169.587 369.612
L170.704 365.317
L172.044 359.162
L173.383 351.787
L174.723 343.06
L176.063 332.869
L177.626 319.01
L179.19 302.957
L180.976 281.936
L182.763 258.235
L184.996 225.445
L188.569 168.817
L191.695 120.39
L193.482 95.7163
L195.045 77.0988
L196.385 63.9314
L197.501 55.2298
L198.394 49.8909
L199.064 46.883
L199.734 44.7556
L200.181 43.8352
L200.628 43.3169
L201.074 43.2026
L201.521 43.4927
L201.967 44.1862
L202.414 45.2806
L203.084 47.6652
L203.754 50.9244
L204.647 56.5854
L205.54 63.6773
L206.657 74.4066
L207.997 89.7177
L209.56 110.373
L211.57 140.142
L216.036 211.13
L218.716 251.515
L220.726 278.743
L222.512 300.159
L224.075 316.568
L225.638 330.777
L227.202 342.855
L228.541 351.612
L229.881 359.015
L231.221 365.195
L232.561 370.288
L233.901 374.435
L235.241 377.769
L236.581 380.419
L237.921 382.498
L239.26 384.112
L240.6 385.349
L241.94 386.286
L243.503 387.086
L245.29 387.713
L247.3 388.163
L249.756 388.479
L253.329 388.689
L259.582 388.785
L285.486 388.8
L518.4 388.8
L518.4 388.8" style="fill:none;stroke:#2adddd;stroke-linecap:square;"/>
   </g>
   <g id="line2d_10">
    <path clip-path="url(#p7ff5b81e1d)" d="
M240.139 388.8
L240.139 43.2026" style="fill:none;stroke:#2adddd;stroke-linecap:square;"/>
   </g>
   <g id="line2d_11">
    <path clip-path="url(#p7ff5b81e1d)" d="
M72 388.8
L183.209 388.695
L187.229 388.455
L189.909 388.076
L191.918 387.571
L193.482 386.976
L195.045 386.132
L196.385 385.144
L197.724 383.844
L198.841 382.464
L199.958 380.76
L201.074 378.671
L202.191 376.133
L203.307 373.075
L204.424 369.42
L205.54 365.09
L206.88 358.889
L208.22 351.462
L209.56 342.678
L210.9 332.425
L212.463 318.492
L214.026 302.363
L215.813 281.257
L217.599 257.479
L219.832 224.616
L223.405 167.951
L226.532 119.601
L228.318 95.0211
L229.881 76.5144
L231.221 63.4606
L232.338 54.8647
L233.231 49.6161
L233.901 46.6784
L234.571 44.6229
L235.018 43.751
L235.464 43.2815
L235.911 43.2162
L236.357 43.5552
L236.804 44.2974
L237.251 45.4401
L237.921 47.8961
L238.59 51.2247
L239.484 56.9747
L240.377 64.1504
L241.494 74.9752
L242.833 90.3854
L244.397 111.132
L246.406 140.978
L254.669 267.753
L256.679 293.091
L258.465 312.654
L260.028 327.413
L261.592 340.016
L262.931 349.192
L264.271 356.979
L265.611 363.503
L266.951 368.9
L268.291 373.31
L269.631 376.869
L270.971 379.706
L272.311 381.942
L273.65 383.682
L274.99 385.02
L276.33 386.038
L277.893 386.91
L279.457 387.525
L281.243 388.001
L283.476 388.366
L286.603 388.624
L291.292 388.759
L302.904 388.799
L518.4 388.8
L518.4 388.8" style="fill:none;stroke:#54f6cb;stroke-linecap:square;"/>
   </g>
   <g id="line2d_12">
    <path clip-path="url(#p7ff5b81e1d)" d="
M274.922 388.8
L274.922 43.1983" style="fill:none;stroke:#54f6cb;stroke-linecap:square;"/>
   </g>
   <g id="line2d_13">
    <path clip-path="url(#p7ff5b81e1d)" d="
M72 388.8
L218.046 388.694
L222.065 388.45
L224.745 388.065
L226.755 387.554
L228.318 386.952
L229.881 386.097
L231.221 385.098
L232.561 383.784
L233.678 382.39
L234.794 380.668
L235.911 378.559
L237.027 375.998
L238.144 372.912
L239.26 369.227
L240.377 364.862
L241.717 358.614
L243.057 351.134
L244.397 342.294
L245.736 331.98
L247.3 317.971
L248.863 301.766
L250.649 280.575
L252.436 256.722
L254.669 223.786
L258.242 167.086
L261.368 118.814
L263.155 94.3294
L264.718 75.9343
L266.058 62.9947
L267.174 54.5049
L268.068 49.3468
L268.738 46.4796
L269.408 44.4961
L269.854 43.6727
L270.301 43.2521
L270.747 43.2357
L271.194 43.6236
L271.641 44.4144
L272.087 45.6054
L272.757 48.1326
L273.427 51.5306
L274.32 57.3693
L275.214 64.6283
L276.33 75.5482
L277.67 91.0568
L279.233 111.894
L281.243 141.816
L289.282 265.468
L291.292 291.09
L293.079 310.924
L294.642 325.921
L296.205 338.752
L297.545 348.112
L298.885 356.068
L300.225 362.744
L301.564 368.276
L302.904 372.803
L304.244 376.462
L305.584 379.384
L306.924 381.689
L308.264 383.486
L309.604 384.871
L310.943 385.925
L312.283 386.718
L313.847 387.391
L315.633 387.913
L317.866 388.316
L320.769 388.589
L325.012 388.743
L334.391 388.798
L476.864 388.8
L518.4 388.8
L518.4 388.8" style="fill:none;stroke:#80ffb4;stroke-linecap:square;"/>
   </g>
   <g id="line2d_14">
    <path clip-path="url(#p7ff5b81e1d)" d="
M309.705 388.8
L309.705 43.1934" style="fill:none;stroke:#80ffb4;stroke-linecap:square;"/>
   </g>
   <g id="line2d_15">
    <path clip-path="url(#p7ff5b81e1d)" d="
M72 388.8
L252.882 388.692
L256.902 388.445
L259.582 388.055
L261.592 387.537
L263.155 386.927
L264.718 386.062
L266.058 385.052
L267.398 383.723
L268.514 382.314
L269.631 380.576
L270.747 378.446
L271.864 375.861
L272.98 372.748
L274.097 369.032
L275.214 364.632
L276.553 358.337
L277.893 350.805
L279.233 341.907
L280.573 331.531
L282.136 317.448
L283.699 301.166
L285.486 279.891
L287.496 252.802
L289.729 219.505
L297.545 99.4292
L299.108 80.2435
L300.448 66.4888
L301.564 57.2384
L302.458 51.429
L303.351 47.1213
L304.021 44.9128
L304.467 43.9375
L304.914 43.364
L305.361 43.1943
L305.807 43.4291
L306.254 44.0675
L306.701 45.1072
L307.37 47.411
L308.04 50.5912
L308.934 56.1512
L309.827 63.1481
L310.943 73.7686
L312.283 88.9666
L313.847 109.517
L315.856 139.198
L319.876 203.116
L322.779 247.423
L324.789 275.082
L326.575 296.936
L328.362 315.967
L329.925 330.262
L331.488 342.421
L332.828 351.243
L334.168 358.705
L335.508 364.938
L336.848 370.078
L338.187 374.264
L339.527 377.633
L340.867 380.311
L342.207 382.414
L343.547 384.047
L344.887 385.299
L346.227 386.249
L347.79 387.059
L349.576 387.695
L351.586 388.152
L354.043 388.473
L357.616 388.687
L363.645 388.784
L387.539 388.8
L518.4 388.8
L518.4 388.8" style="fill:none;stroke:#abf69b;stroke-linecap:square;"/>
   </g>
   <g id="line2d_16">
    <path clip-path="url(#p7ff5b81e1d)" d="
M344.487 388.8
L344.487 43.1943" style="fill:none;stroke:#abf69b;stroke-linecap:square;"/>
   </g>
   <g id="line2d_17">
    <path clip-path="url(#p7ff5b81e1d)" d="
M72 388.8
L287.719 388.69
L291.739 388.439
L294.195 388.088
L296.205 387.591
L297.768 387.004
L299.331 386.17
L300.671 385.196
L302.011 383.911
L303.128 382.548
L304.244 380.863
L305.361 378.797
L306.477 376.285
L307.594 373.257
L308.71 369.637
L309.827 365.346
L311.167 359.198
L312.507 351.829
L313.847 343.11
L315.186 332.927
L316.75 319.078
L318.313 303.035
L319.876 284.803
L321.662 261.431
L323.896 228.961
L327.022 179.68
L330.818 120.494
L332.605 95.8078
L334.168 77.1758
L335.508 63.9935
L336.624 55.2781
L337.518 49.9274
L338.187 46.9103
L338.857 44.7735
L339.304 43.8467
L339.751 43.322
L340.197 43.2012
L340.644 43.4849
L341.091 44.172
L341.537 45.2601
L342.207 47.6354
L342.877 50.8854
L343.77 56.5346
L344.664 63.6156
L345.78 74.3323
L347.12 89.6303
L348.683 110.273
L350.693 140.032
L354.936 207.503
L357.616 248.205
L359.625 275.783
L361.412 297.554
L363.198 316.498
L364.762 330.717
L366.325 342.805
L367.665 351.569
L369.005 358.979
L370.344 365.165
L371.684 370.264
L373.024 374.415
L374.364 377.754
L375.704 380.406
L377.044 382.489
L378.384 384.104
L379.723 385.343
L381.063 386.281
L382.627 387.083
L384.413 387.711
L386.423 388.162
L388.879 388.478
L392.452 388.689
L398.705 388.785
L424.609 388.8
L518.4 388.8
L518.4 388.8" style="fill:none;stroke:#d4dd80;stroke-linecap:square;"/>
   </g>
   <g id="line2d_18">
    <path clip-path="url(#p7ff5b81e1d)" d="
M379.27 388.8
L379.27 43.2012" style="fill:none;stroke:#d4dd80;stroke-linecap:square;"/>
   </g>
   <g id="line2d_19">
    <path clip-path="url(#p7ff5b81e1d)" d="
M72 388.8
L322.332 388.696
L326.352 388.456
L329.032 388.077
L331.042 387.574
L332.605 386.98
L334.168 386.136
L335.508 385.15
L336.848 383.852
L337.964 382.474
L339.081 380.772
L340.197 378.686
L341.314 376.151
L342.43 373.096
L343.547 369.445
L344.664 365.12
L346.003 358.925
L347.343 351.504
L348.683 342.728
L350.023 332.484
L351.586 318.56
L353.149 302.441
L354.936 281.346
L356.722 257.579
L358.955 224.725
L362.528 168.065
L365.655 119.704
L367.441 95.1122
L369.005 76.5909
L370.344 63.5221
L371.461 54.9123
L372.354 49.6518
L373.024 46.7049
L373.694 44.64
L374.141 43.7617
L374.587 43.2858
L375.034 43.2141
L375.481 43.5467
L375.927 44.2824
L376.374 45.4188
L377.044 47.8654
L377.714 51.185
L378.607 56.9233
L379.5 64.088
L380.617 74.9003
L381.957 90.2976
L383.52 111.032
L385.53 140.868
L393.792 267.657
L395.802 293.007
L397.588 312.582
L399.152 327.351
L400.715 339.963
L402.055 349.147
L403.394 356.941
L404.734 363.472
L406.074 368.874
L407.414 373.289
L408.754 376.852
L410.094 379.693
L411.434 381.931
L412.774 383.674
L414.113 385.014
L415.453 386.034
L417.017 386.907
L418.58 387.523
L420.366 388
L422.599 388.365
L425.726 388.624
L430.415 388.759
L442.027 388.799
L518.4 388.8
L518.4 388.8" style="fill:none;stroke:#ffb360;stroke-linecap:square;"/>
   </g>
   <g id="line2d_20">
    <path clip-path="url(#p7ff5b81e1d)" d="
M414.052 388.8
L414.052 43.1994" style="fill:none;stroke:#ffb360;stroke-linecap:square;"/>
   </g>
   <g id="line2d_21">
    <path clip-path="url(#p7ff5b81e1d)" d="
M72 388.8
L357.169 388.694
L361.189 388.451
L363.868 388.067
L365.878 387.557
L367.441 386.955
L369.005 386.102
L370.344 385.104
L371.684 383.792
L372.801 382.4
L373.917 380.68
L375.034 378.574
L376.15 376.016
L377.267 372.934
L378.384 369.252
L379.5 364.892
L380.84 358.65
L382.18 351.177
L383.52 342.344
L384.86 332.038
L386.423 318.04
L387.986 301.844
L389.772 280.665
L391.559 256.822
L393.792 223.895
L397.365 167.2
L400.491 118.917
L402.278 94.42
L403.841 76.0102
L405.181 63.0556
L406.298 54.5518
L407.191 49.3819
L407.861 46.5054
L408.531 44.5124
L408.977 43.6827
L409.424 43.2556
L409.871 43.2328
L410.317 43.6143
L410.764 44.3987
L411.21 45.5833
L411.88 48.1012
L412.55 51.4902
L413.444 57.3172
L414.337 64.5653
L415.453 75.4727
L416.793 90.9685
L418.356 111.794
L420.366 141.706
L428.405 265.372
L430.415 291.005
L432.202 310.851
L433.765 325.857
L435.328 338.698
L436.668 348.066
L438.008 356.029
L439.348 362.712
L440.688 368.249
L442.027 372.781
L443.367 376.444
L444.707 379.37
L446.047 381.678
L447.387 383.478
L448.727 384.864
L450.067 385.92
L451.407 386.715
L452.97 387.388
L454.756 387.912
L456.989 388.315
L459.892 388.589
L464.135 388.743
L473.291 388.798
L518.4 388.8
L518.4 388.8" style="fill:none;stroke:#ff7e41;stroke-linecap:square;"/>
   </g>
   <g id="line2d_22">
    <path clip-path="url(#p7ff5b81e1d)" d="
M448.835 388.8
L448.835 43.1937" style="fill:none;stroke:#ff7e41;stroke-linecap:square;"/>
   </g>
   <g id="line2d_23">
    <path clip-path="url(#p7ff5b81e1d)" d="
M72 388.8
L392.006 388.692
L396.025 388.445
L398.705 388.056
L400.715 387.539
L402.278 386.93
L403.841 386.067
L405.181 385.058
L406.521 383.731
L407.637 382.324
L408.754 380.588
L409.871 378.461
L410.987 375.879
L412.104 372.77
L413.22 369.057
L414.337 364.662
L415.677 358.374
L417.017 350.848
L418.356 341.958
L419.696 331.59
L421.259 317.516
L422.823 301.245
L424.609 279.981
L426.619 252.903
L428.852 219.615
L436.668 99.523
L438.231 80.3234
L439.571 66.5543
L440.688 57.2903
L441.581 51.4693
L442.474 47.1495
L443.144 44.9315
L443.591 43.9499
L444.037 43.37
L444.484 43.1939
L444.93 43.4222
L445.377 44.0542
L445.824 45.0875
L446.494 47.3819
L447.164 50.553
L448.057 56.1012
L448.95 63.087
L450.067 73.695
L451.407 88.8798
L452.97 109.418
L454.979 139.088
L458.999 203.004
L461.902 247.32
L463.912 274.99
L465.698 296.855
L467.485 315.897
L469.048 330.202
L470.611 342.37
L471.951 351.2
L473.291 358.669
L474.631 364.908
L475.971 370.053
L477.311 374.244
L478.651 377.617
L479.99 380.299
L481.33 382.405
L482.67 384.039
L484.01 385.293
L485.35 386.244
L486.913 387.056
L488.7 387.693
L490.709 388.151
L493.166 388.473
L496.739 388.686
L502.768 388.784
L518.4 388.8
L518.4 388.8" style="fill:none;stroke:#ff4121;stroke-linecap:square;"/>
   </g>
   <g id="line2d_24">
    <path clip-path="url(#p7ff5b81e1d)" d="
M483.617 388.8
L483.617 43.1939" style="fill:none;stroke:#ff4121;stroke-linecap:square;"/>
   </g>
   <g id="line2d_25">
    <path clip-path="url(#p7ff5b81e1d)" d="
M72 388.8
L426.842 388.69
L430.862 388.44
L433.318 388.089
L435.328 387.593
L436.891 387.007
L438.454 386.175
L439.794 385.201
L441.134 383.919
L442.251 382.557
L443.367 380.874
L444.484 378.811
L445.6 376.303
L446.717 373.278
L447.834 369.662
L448.95 365.376
L450.29 359.233
L451.63 351.872
L452.97 343.16
L454.31 332.985
L455.873 319.146
L457.436 303.113
L458.999 284.891
L460.786 261.529
L463.019 229.069
L466.145 179.794
L469.941 120.598
L471.728 95.8994
L473.291 77.253
L474.631 64.0558
L475.747 55.3266
L476.641 49.964
L477.311 46.9376
L477.981 44.7914
L478.427 43.8582
L478.874 43.3271
L479.32 43.2
L479.767 43.4773
L480.214 44.1579
L480.66 45.2397
L481.33 47.6056
L482 50.8464
L482.893 56.484
L483.787 63.5539
L484.903 74.258
L486.243 89.5429
L487.806 110.174
L489.816 139.923
L494.059 207.391
L496.739 248.102
L498.749 275.691
L500.535 297.473
L502.322 316.429
L503.885 330.658
L505.448 342.754
L506.788 351.526
L508.128 358.944
L509.468 365.135
L510.807 370.24
L512.147 374.395
L513.487 377.738
L514.827 380.394
L516.167 382.479
L517.507 384.097
L518.4 384.961
L518.4 384.961" style="fill:none;stroke:#ff0000;stroke-linecap:square;"/>
   </g>
   <g id="line2d_26">
    <path clip-path="url(#p7ff5b81e1d)" d="
M518.4 388.8
L518.4 43.2" style="fill:none;stroke:#ff0000;stroke-linecap:square;"/>
   </g>
   <g id="matplotlib.axis_1">
    <g id="xtick_1">
     <g id="line2d_27">
      <path clip-path="url(#p7ff5b81e1d)" d="
M72 388.8
L72 43.2" style="fill:none;stroke:#000000;stroke-dasharray:1.000000,3.000000;stroke-dashoffset:0.0;stroke-width:0.5;"/>
     </g>
     <g id="line2d_28">
      <defs>
       <path d="
M0 0
L0 -4" id="m93b0483c22" style="stroke:#000000;stroke-width:0.5;"/>
      </defs>
      <g>
       <use style="stroke:#000000;stroke-width:0.5;" x="72.0" xlink:href="#m93b0483c22" y="388.8"/>
      </g>
     </g>
     <g id="line2d_29">
      <defs>
       <path d="
M0 0
L0 4" id="m741efc42ff" style="stroke:#000000;stroke-width:0.5;"/>
      </defs>
      <g>
       <use style="stroke:#000000;stroke-width:0.5;" x="72.0" xlink:href="#m741efc42ff" y="43.2"/>
      </g>
     </g>
     <g id="text_1">
      <!-- 0.0 -->
      <defs>
       <path d="
M4.15625 35.2969
Q4.15625 48 6.76562 55.7344
Q9.375 63.4844 14.5156 67.6719
Q19.6719 71.875 27.4844 71.875
Q33.25 71.875 37.5938 69.5469
Q41.9375 67.2344 44.7656 62.8594
Q47.6094 58.5 49.2188 52.2188
Q50.8281 45.9531 50.8281 35.2969
Q50.8281 22.7031 48.2344 14.9688
Q45.6562 7.23438 40.5 3
Q35.3594 -1.21875 27.4844 -1.21875
Q17.1406 -1.21875 11.2344 6.20312
Q4.15625 15.1406 4.15625 35.2969
M13.1875 35.2969
Q13.1875 17.6719 17.3125 11.8281
Q21.4375 6 27.4844 6
Q33.5469 6 37.6719 11.8594
Q41.7969 17.7188 41.7969 35.2969
Q41.7969 52.9844 37.6719 58.7812
Q33.5469 64.5938 27.3906 64.5938
Q21.3438 64.5938 17.7188 59.4688
Q13.1875 52.9375 13.1875 35.2969" id="ArialMT-30"/>
       <path d="
M9.07812 0
L9.07812 10.0156
L19.0938 10.0156
L19.0938 0
z
" id="ArialMT-2e"/>
      </defs>
      <g transform="translate(64.19625 401.389375)scale(0.12 -0.12)">
       <use xlink:href="#ArialMT-30"/>
       <use x="55.615234375" xlink:href="#ArialMT-2e"/>
       <use x="83.3984375" xlink:href="#ArialMT-30"/>
      </g>
     </g>
    </g>
    <g id="xtick_2">
     <g id="line2d_30">
      <path clip-path="url(#p7ff5b81e1d)" d="
M161.28 388.8
L161.28 43.2" style="fill:none;stroke:#000000;stroke-dasharray:1.000000,3.000000;stroke-dashoffset:0.0;stroke-width:0.5;"/>
     </g>
     <g id="line2d_31">
      <g>
       <use style="stroke:#000000;stroke-width:0.5;" x="161.28" xlink:href="#m93b0483c22" y="388.8"/>
      </g>
     </g>
     <g id="line2d_32">
      <g>
       <use style="stroke:#000000;stroke-width:0.5;" x="161.28" xlink:href="#m741efc42ff" y="43.2"/>
      </g>
     </g>
     <g id="text_2">
      <!-- 0.2 -->
      <defs>
       <path d="
M50.3438 8.45312
L50.3438 0
L3.03125 0
Q2.9375 3.17188 4.04688 6.10938
Q5.85938 10.9375 9.82812 15.625
Q13.8125 20.3125 21.3438 26.4688
Q33.0156 36.0312 37.1094 41.625
Q41.2188 47.2188 41.2188 52.2031
Q41.2188 57.4219 37.4688 61
Q33.7344 64.5938 27.7344 64.5938
Q21.3906 64.5938 17.5781 60.7812
Q13.7656 56.9844 13.7188 50.25
L4.6875 51.1719
Q5.60938 61.2812 11.6562 66.5781
Q17.7188 71.875 27.9375 71.875
Q38.2344 71.875 44.2344 66.1562
Q50.25 60.4531 50.25 52
Q50.25 47.7031 48.4844 43.5469
Q46.7344 39.4062 42.6562 34.8125
Q38.5781 30.2188 29.1094 22.2188
Q21.1875 15.5781 18.9375 13.2031
Q16.7031 10.8438 15.2344 8.45312
z
" id="ArialMT-32"/>
      </defs>
      <g transform="translate(153.5053125 401.389375)scale(0.12 -0.12)">
       <use xlink:href="#ArialMT-30"/>
       <use x="55.615234375" xlink:href="#ArialMT-2e"/>
       <use x="83.3984375" xlink:href="#ArialMT-32"/>
      </g>
     </g>
    </g>
    <g id="xtick_3">
     <g id="line2d_33">
      <path clip-path="url(#p7ff5b81e1d)" d="
M250.56 388.8
L250.56 43.2" style="fill:none;stroke:#000000;stroke-dasharray:1.000000,3.000000;stroke-dashoffset:0.0;stroke-width:0.5;"/>
     </g>
     <g id="line2d_34">
      <g>
       <use style="stroke:#000000;stroke-width:0.5;" x="250.56" xlink:href="#m93b0483c22" y="388.8"/>
      </g>
     </g>
     <g id="line2d_35">
      <g>
       <use style="stroke:#000000;stroke-width:0.5;" x="250.56" xlink:href="#m741efc42ff" y="43.2"/>
      </g>
     </g>
     <g id="text_3">
      <!-- 0.4 -->
      <defs>
       <path d="
M32.3281 0
L32.3281 17.1406
L1.26562 17.1406
L1.26562 25.2031
L33.9375 71.5781
L41.1094 71.5781
L41.1094 25.2031
L50.7812 25.2031
L50.7812 17.1406
L41.1094 17.1406
L41.1094 0
z

M32.3281 25.2031
L32.3281 57.4688
L9.90625 25.2031
z
" id="ArialMT-34"/>
      </defs>
      <g transform="translate(242.7590625 401.389375)scale(0.12 -0.12)">
       <use xlink:href="#ArialMT-30"/>
       <use x="55.615234375" xlink:href="#ArialMT-2e"/>
       <use x="83.3984375" xlink:href="#ArialMT-34"/>
      </g>
     </g>
    </g>
    <g id="xtick_4">
     <g id="line2d_36">
      <path clip-path="url(#p7ff5b81e1d)" d="
M339.84 388.8
L339.84 43.2" style="fill:none;stroke:#000000;stroke-dasharray:1.000000,3.000000;stroke-dashoffset:0.0;stroke-width:0.5;"/>
     </g>
     <g id="line2d_37">
      <g>
       <use style="stroke:#000000;stroke-width:0.5;" x="339.84" xlink:href="#m93b0483c22" y="388.8"/>
      </g>
     </g>
     <g id="line2d_38">
      <g>
       <use style="stroke:#000000;stroke-width:0.5;" x="339.84" xlink:href="#m741efc42ff" y="43.2"/>
      </g>
     </g>
     <g id="text_4">
      <!-- 0.6 -->
      <defs>
       <path d="
M49.75 54.0469
L41.0156 53.375
Q39.8438 58.5469 37.7031 60.8906
Q34.125 64.6562 28.9062 64.6562
Q24.7031 64.6562 21.5312 62.3125
Q17.3906 59.2812 14.9844 53.4688
Q12.5938 47.6562 12.5 36.9219
Q15.6719 41.75 20.2656 44.0938
Q24.8594 46.4375 29.8906 46.4375
Q38.6719 46.4375 44.8438 39.9688
Q51.0312 33.5 51.0312 23.25
Q51.0312 16.5 48.125 10.7188
Q45.2188 4.9375 40.1406 1.85938
Q35.0625 -1.21875 28.6094 -1.21875
Q17.625 -1.21875 10.6875 6.85938
Q3.76562 14.9375 3.76562 33.5
Q3.76562 54.25 11.4219 63.6719
Q18.1094 71.875 29.4375 71.875
Q37.8906 71.875 43.2812 67.1406
Q48.6875 62.4062 49.75 54.0469
M13.875 23.1875
Q13.875 18.6562 15.7969 14.5
Q17.7188 10.3594 21.1875 8.17188
Q24.6562 6 28.4688 6
Q34.0312 6 38.0312 10.4844
Q42.0469 14.9844 42.0469 22.7031
Q42.0469 30.125 38.0781 34.3906
Q34.125 38.6719 28.125 38.6719
Q22.1719 38.6719 18.0156 34.3906
Q13.875 30.125 13.875 23.1875" id="ArialMT-36"/>
      </defs>
      <g transform="translate(332.0240625 401.389375)scale(0.12 -0.12)">
       <use xlink:href="#ArialMT-30"/>
       <use x="55.615234375" xlink:href="#ArialMT-2e"/>
       <use x="83.3984375" xlink:href="#ArialMT-36"/>
      </g>
     </g>
    </g>
    <g id="xtick_5">
     <g id="line2d_39">
      <path clip-path="url(#p7ff5b81e1d)" d="
M429.12 388.8
L429.12 43.2" style="fill:none;stroke:#000000;stroke-dasharray:1.000000,3.000000;stroke-dashoffset:0.0;stroke-width:0.5;"/>
     </g>
     <g id="line2d_40">
      <g>
       <use style="stroke:#000000;stroke-width:0.5;" x="429.12" xlink:href="#m93b0483c22" y="388.8"/>
      </g>
     </g>
     <g id="line2d_41">
      <g>
       <use style="stroke:#000000;stroke-width:0.5;" x="429.12" xlink:href="#m741efc42ff" y="43.2"/>
      </g>
     </g>
     <g id="text_5">
      <!-- 0.8 -->
      <defs>
       <path d="
M17.6719 38.8125
Q12.2031 40.8281 9.5625 44.5312
Q6.9375 48.25 6.9375 53.4219
Q6.9375 61.2344 12.5469 66.5469
Q18.1719 71.875 27.4844 71.875
Q36.8594 71.875 42.5781 66.4219
Q48.2969 60.9844 48.2969 53.1719
Q48.2969 48.1875 45.6719 44.5
Q43.0625 40.8281 37.75 38.8125
Q44.3438 36.6719 47.7812 31.875
Q51.2188 27.0938 51.2188 20.4531
Q51.2188 11.2812 44.7188 5.03125
Q38.2344 -1.21875 27.6406 -1.21875
Q17.0469 -1.21875 10.5469 5.04688
Q4.04688 11.3281 4.04688 20.7031
Q4.04688 27.6875 7.59375 32.3906
Q11.1406 37.1094 17.6719 38.8125
M15.9219 53.7188
Q15.9219 48.6406 19.1875 45.4062
Q22.4688 42.1875 27.6875 42.1875
Q32.7656 42.1875 36.0156 45.375
Q39.2656 48.5781 39.2656 53.2188
Q39.2656 58.0625 35.9062 61.3594
Q32.5625 64.6562 27.5938 64.6562
Q22.5625 64.6562 19.2344 61.4219
Q15.9219 58.2031 15.9219 53.7188
M13.0938 20.6562
Q13.0938 16.8906 14.875 13.375
Q16.6562 9.85938 20.1719 7.92188
Q23.6875 6 27.7344 6
Q34.0312 6 38.125 10.0469
Q42.2344 14.1094 42.2344 20.3594
Q42.2344 26.7031 38.0156 30.8594
Q33.7969 35.0156 27.4375 35.0156
Q21.2344 35.0156 17.1562 30.9062
Q13.0938 26.8125 13.0938 20.6562" id="ArialMT-38"/>
      </defs>
      <g transform="translate(421.2928125 401.389375)scale(0.12 -0.12)">
       <use xlink:href="#ArialMT-30"/>
       <use x="55.615234375" xlink:href="#ArialMT-2e"/>
       <use x="83.3984375" xlink:href="#ArialMT-38"/>
      </g>
     </g>
    </g>
    <g id="xtick_6">
     <g id="line2d_42">
      <path clip-path="url(#p7ff5b81e1d)" d="
M518.4 388.8
L518.4 43.2" style="fill:none;stroke:#000000;stroke-dasharray:1.000000,3.000000;stroke-dashoffset:0.0;stroke-width:0.5;"/>
     </g>
     <g id="line2d_43">
      <g>
       <use style="stroke:#000000;stroke-width:0.5;" x="518.4" xlink:href="#m93b0483c22" y="388.8"/>
      </g>
     </g>
     <g id="line2d_44">
      <g>
       <use style="stroke:#000000;stroke-width:0.5;" x="518.4" xlink:href="#m741efc42ff" y="43.2"/>
      </g>
     </g>
     <g id="text_6">
      <!-- 1.0 -->
      <defs>
       <path d="
M37.25 0
L28.4688 0
L28.4688 56
Q25.2969 52.9844 20.1406 49.9531
Q14.9844 46.9219 10.8906 45.4062
L10.8906 53.9062
Q18.2656 57.375 23.7812 62.2969
Q29.2969 67.2344 31.5938 71.875
L37.25 71.875
z
" id="ArialMT-31"/>
      </defs>
      <g transform="translate(511.0003125 401.389375)scale(0.12 -0.12)">
       <use xlink:href="#ArialMT-31"/>
       <use x="55.615234375" xlink:href="#ArialMT-2e"/>
       <use x="83.3984375" xlink:href="#ArialMT-30"/>
      </g>
     </g>
    </g>
    <g id="text_7">
     <!-- t -->
     <defs>
      <path d="
M25.7812 7.85938
L27.0469 0.09375
Q23.3438 -0.6875 20.4062 -0.6875
Q15.625 -0.6875 12.9844 0.828125
Q10.3594 2.34375 9.28125 4.8125
Q8.20312 7.28125 8.20312 15.1875
L8.20312 45.0156
L1.76562 45.0156
L1.76562 51.8594
L8.20312 51.8594
L8.20312 64.7031
L16.9375 69.9688
L16.9375 51.8594
L25.7812 51.8594
L25.7812 45.0156
L16.9375 45.0156
L16.9375 14.7031
Q16.9375 10.9375 17.4062 9.85938
Q17.875 8.79688 18.9219 8.15625
Q19.9688 7.51562 21.9219 7.51562
Q23.3906 7.51562 25.7812 7.85938" id="ArialMT-74"/>
     </defs>
     <g transform="translate(293.683125 417.36375)scale(0.12 -0.12)">
      <use xlink:href="#ArialMT-74"/>
     </g>
    </g>
   </g>
   <g id="matplotlib.axis_2">
    <g id="ytick_1">
     <g id="line2d_45">
      <path clip-path="url(#p7ff5b81e1d)" d="
M72 388.8
L518.4 388.8" style="fill:none;stroke:#000000;stroke-dasharray:1.000000,3.000000;stroke-dashoffset:0.0;stroke-width:0.5;"/>
     </g>
     <g id="line2d_46">
      <defs>
       <path d="
M0 0
L4 0" id="m728421d6d4" style="stroke:#000000;stroke-width:0.5;"/>
      </defs>
      <g>
       <use style="stroke:#000000;stroke-width:0.5;" x="72.0" xlink:href="#m728421d6d4" y="388.8"/>
      </g>
     </g>
     <g id="line2d_47">
      <defs>
       <path d="
M0 0
L-4 0" id="mcb0005524f" style="stroke:#000000;stroke-width:0.5;"/>
      </defs>
      <g>
       <use style="stroke:#000000;stroke-width:0.5;" x="518.4" xlink:href="#mcb0005524f" y="388.8"/>
      </g>
     </g>
     <g id="text_8">
      <!-- 0 -->
      <g transform="translate(62.399375 391.9021875)scale(0.12 -0.12)">
       <use xlink:href="#ArialMT-30"/>
      </g>
     </g>
    </g>
    <g id="ytick_2">
     <g id="line2d_48">
      <path clip-path="url(#p7ff5b81e1d)" d="
M72 338.133
L518.4 338.133" style="fill:none;stroke:#000000;stroke-dasharray:1.000000,3.000000;stroke-dashoffset:0.0;stroke-width:0.5;"/>
     </g>
     <g id="line2d_49">
      <g>
       <use style="stroke:#000000;stroke-width:0.5;" x="72.0" xlink:href="#m728421d6d4" y="338.132804718"/>
      </g>
     </g>
     <g id="line2d_50">
      <g>
       <use style="stroke:#000000;stroke-width:0.5;" x="518.4" xlink:href="#mcb0005524f" y="338.132804718"/>
      </g>
     </g>
     <g id="text_9">
      <!-- 2 -->
      <g transform="translate(62.31125 341.234992218)scale(0.12 -0.12)">
       <use xlink:href="#ArialMT-32"/>
      </g>
     </g>
    </g>
    <g id="ytick_3">
     <g id="line2d_51">
      <path clip-path="url(#p7ff5b81e1d)" d="
M72 287.466
L518.4 287.466" style="fill:none;stroke:#000000;stroke-dasharray:1.000000,3.000000;stroke-dashoffset:0.0;stroke-width:0.5;"/>
     </g>
     <g id="line2d_52">
      <g>
       <use style="stroke:#000000;stroke-width:0.5;" x="72.0" xlink:href="#m728421d6d4" y="287.465609435"/>
      </g>
     </g>
     <g id="line2d_53">
      <g>
       <use style="stroke:#000000;stroke-width:0.5;" x="518.4" xlink:href="#mcb0005524f" y="287.465609435"/>
      </g>
     </g>
     <g id="text_10">
      <!-- 4 -->
      <g transform="translate(62.058125 290.567796935)scale(0.12 -0.12)">
       <use xlink:href="#ArialMT-34"/>
      </g>
     </g>
    </g>
    <g id="ytick_4">
     <g id="line2d_54">
      <path clip-path="url(#p7ff5b81e1d)" d="
M72 236.798
L518.4 236.798" style="fill:none;stroke:#000000;stroke-dasharray:1.000000,3.000000;stroke-dashoffset:0.0;stroke-width:0.5;"/>
     </g>
     <g id="line2d_55">
      <g>
       <use style="stroke:#000000;stroke-width:0.5;" x="72.0" xlink:href="#m728421d6d4" y="236.798414153"/>
      </g>
     </g>
     <g id="line2d_56">
      <g>
       <use style="stroke:#000000;stroke-width:0.5;" x="518.4" xlink:href="#mcb0005524f" y="236.798414153"/>
      </g>
     </g>
     <g id="text_11">
      <!-- 6 -->
      <g transform="translate(62.328125 239.900601653)scale(0.12 -0.12)">
       <use xlink:href="#ArialMT-36"/>
      </g>
     </g>
    </g>
    <g id="ytick_5">
     <g id="line2d_57">
      <path clip-path="url(#p7ff5b81e1d)" d="
M72 186.131
L518.4 186.131" style="fill:none;stroke:#000000;stroke-dasharray:1.000000,3.000000;stroke-dashoffset:0.0;stroke-width:0.5;"/>
     </g>
     <g id="line2d_58">
      <g>
       <use style="stroke:#000000;stroke-width:0.5;" x="72.0" xlink:href="#m728421d6d4" y="186.13121887"/>
      </g>
     </g>
     <g id="line2d_59">
      <g>
       <use style="stroke:#000000;stroke-width:0.5;" x="518.4" xlink:href="#mcb0005524f" y="186.13121887"/>
      </g>
     </g>
     <g id="text_12">
      <!-- 8 -->
      <g transform="translate(62.339375 189.23340637)scale(0.12 -0.12)">
       <use xlink:href="#ArialMT-38"/>
      </g>
     </g>
    </g>
    <g id="ytick_6">
     <g id="line2d_60">
      <path clip-path="url(#p7ff5b81e1d)" d="
M72 135.464
L518.4 135.464" style="fill:none;stroke:#000000;stroke-dasharray:1.000000,3.000000;stroke-dashoffset:0.0;stroke-width:0.5;"/>
     </g>
     <g id="line2d_61">
      <g>
       <use style="stroke:#000000;stroke-width:0.5;" x="72.0" xlink:href="#m728421d6d4" y="135.464023588"/>
      </g>
     </g>
     <g id="line2d_62">
      <g>
       <use style="stroke:#000000;stroke-width:0.5;" x="518.4" xlink:href="#mcb0005524f" y="135.464023588"/>
      </g>
     </g>
     <g id="text_13">
      <!-- 10 -->
      <g transform="translate(56.534375 138.566211088)scale(0.12 -0.12)">
       <use xlink:href="#ArialMT-31"/>
       <use x="55.615234375" xlink:href="#ArialMT-30"/>
      </g>
     </g>
    </g>
    <g id="ytick_7">
     <g id="line2d_63">
      <path clip-path="url(#p7ff5b81e1d)" d="
M72 84.7968
L518.4 84.7968" style="fill:none;stroke:#000000;stroke-dasharray:1.000000,3.000000;stroke-dashoffset:0.0;stroke-width:0.5;"/>
     </g>
     <g id="line2d_64">
      <g>
       <use style="stroke:#000000;stroke-width:0.5;" x="72.0" xlink:href="#m728421d6d4" y="84.7968283056"/>
      </g>
     </g>
     <g id="line2d_65">
      <g>
       <use style="stroke:#000000;stroke-width:0.5;" x="518.4" xlink:href="#mcb0005524f" y="84.7968283056"/>
      </g>
     </g>
     <g id="text_14">
      <!-- 12 -->
      <g transform="translate(56.5925 87.8990158056)scale(0.12 -0.12)">
       <use xlink:href="#ArialMT-31"/>
       <use x="55.615234375" xlink:href="#ArialMT-32"/>
      </g>
     </g>
    </g>
    <g id="text_15">
     <!-- P -->
     <defs>
      <path d="
M7.71875 0
L7.71875 71.5781
L34.7188 71.5781
Q41.8438 71.5781 45.6094 70.9062
Q50.875 70.0156 54.4375 67.5469
Q58.0156 65.0938 60.1875 60.6406
Q62.3594 56.2031 62.3594 50.875
Q62.3594 41.75 56.5469 35.4219
Q50.7344 29.1094 35.5469 29.1094
L17.1875 29.1094
L17.1875 0
z

M17.1875 37.5469
L35.6875 37.5469
Q44.875 37.5469 48.7344 40.9688
Q52.5938 44.3906 52.5938 50.5938
Q52.5938 55.0781 50.3125 58.2656
Q48.0469 61.4688 44.3438 62.5
Q41.9375 63.1406 35.5 63.1406
L17.1875 63.1406
z
" id="ArialMT-50"/>
     </defs>
     <g transform="translate(49.149375 219.2784375)rotate(-90.0)scale(0.12 -0.12)">
      <use xlink:href="#ArialMT-50"/>
     </g>
    </g>
   </g>
   <g id="patch_3">
    <path d="
M72 43.2
L518.4 43.2" style="fill:none;stroke:#000000;"/>
   </g>
   <g id="patch_4">
    <path d="
M518.4 388.8
L518.4 43.2" style="fill:none;stroke:#000000;"/>
   </g>
   <g id="patch_5">
    <path d="
M72 388.8
L518.4 388.8" style="fill:none;stroke:#000000;"/>
   </g>
   <g id="patch_6">
    <path d="
M72 388.8
L72 43.2" style="fill:none;stroke:#000000;"/>
   </g>
   <g id="text_16">
    <!-- Flight PDF queue distribution -->
    <defs>
     <path d="
M14.7031 0
L6.54688 0
L6.54688 71.5781
L15.3281 71.5781
L15.3281 46.0469
Q20.9062 53.0312 29.5469 53.0312
Q34.3281 53.0312 38.5938 51.0938
Q42.875 49.1719 45.625 45.6719
Q48.3906 42.1875 49.9531 37.25
Q51.5156 32.3281 51.5156 26.7031
Q51.5156 13.375 44.9219 6.09375
Q38.3281 -1.17188 29.1094 -1.17188
Q19.9219 -1.17188 14.7031 6.5
z

M14.5938 26.3125
Q14.5938 17 17.1406 12.8438
Q21.2969 6.0625 28.375 6.0625
Q34.125 6.0625 38.3281 11.0625
Q42.5312 16.0625 42.5312 25.9844
Q42.5312 36.1406 38.5 40.9688
Q34.4688 45.7969 28.7656 45.7969
Q23 45.7969 18.7969 40.7969
Q14.5938 35.7969 14.5938 26.3125" id="ArialMT-62"/>
     <path d="
M4.98438 -4.29688
L13.5312 -5.5625
Q14.0625 -9.51562 16.5 -11.3281
Q19.7812 -13.7656 25.4375 -13.7656
Q31.5469 -13.7656 34.8594 -11.3281
Q38.1875 -8.89062 39.3594 -4.5
Q40.0469 -1.8125 39.9844 6.78125
Q34.2344 0 25.6406 0
Q14.9375 0 9.07812 7.71875
Q3.21875 15.4375 3.21875 26.2188
Q3.21875 33.6406 5.90625 39.9062
Q8.59375 46.1875 13.6875 49.6094
Q18.7969 53.0312 25.6875 53.0312
Q34.8594 53.0312 40.8281 45.6094
L40.8281 51.8594
L48.9219 51.8594
L48.9219 7.03125
Q48.9219 -5.07812 46.4531 -10.125
Q44 -15.1875 38.6406 -18.1094
Q33.2969 -21.0469 25.4844 -21.0469
Q16.2188 -21.0469 10.5 -16.875
Q4.78125 -12.7031 4.98438 -4.29688
M12.25 26.8594
Q12.25 16.6562 16.2969 11.9688
Q20.3594 7.28125 26.4688 7.28125
Q32.5156 7.28125 36.6094 11.9375
Q40.7188 16.6094 40.7188 26.5625
Q40.7188 36.0781 36.5 40.9062
Q32.2812 45.75 26.3125 45.75
Q20.4531 45.75 16.3438 40.9844
Q12.25 36.2344 12.25 26.8594" id="ArialMT-67"/>
     <path d="
M42.0938 16.7031
L51.1719 15.5781
Q49.0312 7.625 43.2188 3.21875
Q37.4062 -1.17188 28.375 -1.17188
Q17 -1.17188 10.3281 5.82812
Q3.65625 12.8438 3.65625 25.4844
Q3.65625 38.5781 10.3906 45.7969
Q17.1406 53.0312 27.875 53.0312
Q38.2812 53.0312 44.875 45.9531
Q51.4688 38.875 51.4688 26.0312
Q51.4688 25.25 51.4219 23.6875
L12.75 23.6875
Q13.2344 15.1406 17.5781 10.5938
Q21.9219 6.0625 28.4219 6.0625
Q33.25 6.0625 36.6719 8.59375
Q40.0938 11.1406 42.0938 16.7031
M13.2344 30.9062
L42.1875 30.9062
Q41.6094 37.4531 38.875 40.7188
Q34.6719 45.7969 27.9844 45.7969
Q21.9219 45.7969 17.7969 41.75
Q13.6719 37.7031 13.2344 30.9062" id="ArialMT-65"/>
     <path d="
M40.2344 0
L40.2344 6.54688
Q35.2969 -1.17188 25.7344 -1.17188
Q19.5312 -1.17188 14.3281 2.25
Q9.125 5.67188 6.26562 11.7969
Q3.42188 17.9219 3.42188 25.875
Q3.42188 33.6406 6 39.9688
Q8.59375 46.2969 13.7656 49.6562
Q18.9531 53.0312 25.3438 53.0312
Q30.0312 53.0312 33.6875 51.0469
Q37.3594 49.0781 39.6562 45.9062
L39.6562 71.5781
L48.3906 71.5781
L48.3906 0
z

M12.4531 25.875
Q12.4531 15.9219 16.6406 10.9844
Q20.8438 6.0625 26.5625 6.0625
Q32.3281 6.0625 36.3438 10.7656
Q40.375 15.4844 40.375 25.1406
Q40.375 35.7969 36.2656 40.7656
Q32.1719 45.75 26.1719 45.75
Q20.3125 45.75 16.375 40.9688
Q12.4531 36.1875 12.4531 25.875" id="ArialMT-64"/>
     <path d="
M40.5781 0
L40.5781 7.625
Q34.5156 -1.17188 24.125 -1.17188
Q19.5312 -1.17188 15.5469 0.578125
Q11.5781 2.34375 9.64062 5
Q7.71875 7.67188 6.9375 11.5312
Q6.39062 14.1094 6.39062 19.7344
L6.39062 51.8594
L15.1875 51.8594
L15.1875 23.0938
Q15.1875 16.2188 15.7188 13.8125
Q16.5469 10.3594 19.2344 8.375
Q21.9219 6.39062 25.875 6.39062
Q29.8281 6.39062 33.2969 8.42188
Q36.7656 10.4531 38.2031 13.9375
Q39.6562 17.4375 39.6562 24.0781
L39.6562 51.8594
L48.4375 51.8594
L48.4375 0
z
" id="ArialMT-75"/>
     <path d="
M6.64062 61.4688
L6.64062 71.5781
L15.4375 71.5781
L15.4375 61.4688
z

M6.64062 0
L6.64062 51.8594
L15.4375 51.8594
L15.4375 0
z
" id="ArialMT-69"/>
     <path d="
M6.59375 0
L6.59375 71.5781
L15.375 71.5781
L15.375 45.9062
Q21.5312 53.0312 30.9062 53.0312
Q36.6719 53.0312 40.9219 50.75
Q45.1719 48.4844 47 44.4844
Q48.8281 40.4844 48.8281 32.8594
L48.8281 0
L40.0469 0
L40.0469 32.8594
Q40.0469 39.4531 37.1875 42.4531
Q34.3281 45.4531 29.1094 45.4531
Q25.2031 45.4531 21.75 43.4219
Q18.3125 41.4062 16.8438 37.9375
Q15.375 34.4688 15.375 28.375
L15.375 0
z
" id="ArialMT-68"/>
     <path d="
M7.71875 0
L7.71875 71.5781
L32.375 71.5781
Q40.7188 71.5781 45.125 70.5625
Q51.2656 69.1406 55.6094 65.4375
Q61.2812 60.6406 64.0781 53.1875
Q66.8906 45.75 66.8906 36.1875
Q66.8906 28.0312 64.9844 21.7344
Q63.0938 15.4375 60.1094 11.2969
Q57.125 7.17188 53.5781 4.79688
Q50.0469 2.4375 45.0469 1.21875
Q40.0469 0 33.5469 0
z

M17.1875 8.45312
L32.4688 8.45312
Q39.5469 8.45312 43.5781 9.76562
Q47.6094 11.0781 50 13.4844
Q53.375 16.8438 55.25 22.5312
Q57.125 28.2188 57.125 36.3281
Q57.125 47.5625 53.4375 53.5938
Q49.75 59.625 44.4844 61.6719
Q40.6719 63.1406 32.2344 63.1406
L17.1875 63.1406
z
" id="ArialMT-44"/>
     <path d="
M6.5 0
L6.5 51.8594
L14.4062 51.8594
L14.4062 44
Q17.4375 49.5156 20 51.2656
Q22.5625 53.0312 25.6406 53.0312
Q30.0781 53.0312 34.6719 50.2031
L31.6406 42.0469
Q28.4219 43.9531 25.2031 43.9531
Q22.3125 43.9531 20.0156 42.2188
Q17.7188 40.4844 16.75 37.4062
Q15.2812 32.7188 15.2812 27.1562
L15.2812 0
z
" id="ArialMT-72"/>
     <path d="
M8.20312 0
L8.20312 71.5781
L56.5 71.5781
L56.5 63.1406
L17.6719 63.1406
L17.6719 40.9688
L51.2656 40.9688
L51.2656 32.5156
L17.6719 32.5156
L17.6719 0
z
" id="ArialMT-46"/>
     <path d="
M6.39062 0
L6.39062 71.5781
L15.1875 71.5781
L15.1875 0
z
" id="ArialMT-6c"/>
     <path d="
M3.32812 25.9219
Q3.32812 40.3281 11.3281 47.2656
Q18.0156 53.0312 27.6406 53.0312
Q38.3281 53.0312 45.1094 46.0156
Q51.9062 39.0156 51.9062 26.6562
Q51.9062 16.6562 48.9062 10.9062
Q45.9062 5.17188 40.1562 2
Q34.4219 -1.17188 27.6406 -1.17188
Q16.75 -1.17188 10.0312 5.8125
Q3.32812 12.7969 3.32812 25.9219
M12.3594 25.9219
Q12.3594 15.9688 16.7031 11.0156
Q21.0469 6.0625 27.6406 6.0625
Q34.1875 6.0625 38.5312 11.0312
Q42.875 16.0156 42.875 26.2188
Q42.875 35.8438 38.5 40.7969
Q34.125 45.75 27.6406 45.75
Q21.0469 45.75 16.7031 40.8125
Q12.3594 35.8906 12.3594 25.9219" id="ArialMT-6f"/>
     <path d="
M6.59375 0
L6.59375 51.8594
L14.5 51.8594
L14.5 44.4844
Q20.2188 53.0312 31 53.0312
Q35.6875 53.0312 39.625 51.3438
Q43.5625 49.6562 45.5156 46.9219
Q47.4688 44.1875 48.25 40.4375
Q48.7344 37.9844 48.7344 31.8906
L48.7344 0
L39.9375 0
L39.9375 31.5469
Q39.9375 36.9219 38.9062 39.5781
Q37.8906 42.2344 35.2812 43.8125
Q32.6719 45.4062 29.1562 45.4062
Q23.5312 45.4062 19.4531 41.8438
Q15.375 38.2812 15.375 28.3281
L15.375 0
z
" id="ArialMT-6e"/>
     <path d="
M39.6562 -19.875
L39.6562 5.51562
Q37.5938 2.64062 33.9062 0.734375
Q30.2188 -1.17188 26.0781 -1.17188
Q16.8438 -1.17188 10.1719 6.20312
Q3.51562 13.5781 3.51562 26.4219
Q3.51562 34.2344 6.21875 40.4219
Q8.9375 46.625 14.0781 49.8281
Q19.2344 53.0312 25.3906 53.0312
Q35.0156 53.0312 40.5312 44.9219
L40.5312 51.8594
L48.4375 51.8594
L48.4375 -19.875
z

M12.5469 26.0781
Q12.5469 16.0625 16.75 11.0625
Q20.9531 6.0625 26.8125 6.0625
Q32.4219 6.0625 36.4688 10.8125
Q40.5312 15.5781 40.5312 25.2969
Q40.5312 35.6406 36.25 40.8594
Q31.9844 46.0938 26.2188 46.0938
Q20.5156 46.0938 16.5312 41.2344
Q12.5469 36.375 12.5469 26.0781" id="ArialMT-71"/>
     <path d="
M3.07812 15.4844
L11.7656 16.8438
Q12.5 11.625 15.8438 8.84375
Q19.1875 6.0625 25.2031 6.0625
Q31.25 6.0625 34.1719 8.51562
Q37.1094 10.9844 37.1094 14.3125
Q37.1094 17.2812 34.5156 19
Q32.7188 20.1719 25.5312 21.9688
Q15.875 24.4219 12.1406 26.2031
Q8.40625 27.9844 6.46875 31.125
Q4.54688 34.2812 4.54688 38.0938
Q4.54688 41.5469 6.125 44.5
Q7.71875 47.4688 10.4531 49.4219
Q12.5 50.9219 16.0312 51.9688
Q19.5781 53.0312 23.6406 53.0312
Q29.7344 53.0312 34.3438 51.2656
Q38.9688 49.5156 41.1562 46.5
Q43.3594 43.5 44.1875 38.4844
L35.5938 37.3125
Q35.0156 41.3125 32.2031 43.5469
Q29.3906 45.7969 24.2656 45.7969
Q18.2188 45.7969 15.625 43.7969
Q13.0312 41.7969 13.0312 39.1094
Q13.0312 37.4062 14.1094 36.0312
Q15.1875 34.625 17.4844 33.6875
Q18.7969 33.2031 25.25 31.4531
Q34.5781 28.9531 38.25 27.3594
Q41.9375 25.7812 44.0312 22.75
Q46.1406 19.7344 46.1406 15.2344
Q46.1406 10.8438 43.5781 6.95312
Q41.0156 3.07812 36.1719 0.953125
Q31.3438 -1.17188 25.25 -1.17188
Q15.1406 -1.17188 9.84375 3.03125
Q4.54688 7.23438 3.07812 15.4844" id="ArialMT-73"/>
     <path id="ArialMT-20"/>
    </defs>
    <g transform="translate(202.85325 38.2)scale(0.144 -0.144)">
     <use xlink:href="#ArialMT-46"/>
     <use x="61.083984375" xlink:href="#ArialMT-6c"/>
     <use x="83.30078125" xlink:href="#ArialMT-69"/>
     <use x="105.517578125" xlink:href="#ArialMT-67"/>
     <use x="161.1328125" xlink:href="#ArialMT-68"/>
     <use x="216.748046875" xlink:href="#ArialMT-74"/>
     <use x="244.53125" xlink:href="#ArialMT-20"/>
     <use x="272.314453125" xlink:href="#ArialMT-50"/>
     <use x="339.013671875" xlink:href="#ArialMT-44"/>
     <use x="411.23046875" xlink:href="#ArialMT-46"/>
     <use x="472.314453125" xlink:href="#ArialMT-20"/>
     <use x="500.09765625" xlink:href="#ArialMT-71"/>
     <use x="555.712890625" xlink:href="#ArialMT-75"/>
     <use x="611.328125" xlink:href="#ArialMT-65"/>
     <use x="666.943359375" xlink:href="#ArialMT-75"/>
     <use x="722.55859375" xlink:href="#ArialMT-65"/>
     <use x="778.173828125" xlink:href="#ArialMT-20"/>
     <use x="805.95703125" xlink:href="#ArialMT-64"/>
     <use x="861.572265625" xlink:href="#ArialMT-69"/>
     <use x="883.7890625" xlink:href="#ArialMT-73"/>
     <use x="933.7890625" xlink:href="#ArialMT-74"/>
     <use x="961.572265625" xlink:href="#ArialMT-72"/>
     <use x="994.873046875" xlink:href="#ArialMT-69"/>
     <use x="1017.08984375" xlink:href="#ArialMT-62"/>
     <use x="1072.70507812" xlink:href="#ArialMT-75"/>
     <use x="1128.3203125" xlink:href="#ArialMT-74"/>
     <use x="1156.10351562" xlink:href="#ArialMT-69"/>
     <use x="1178.3203125" xlink:href="#ArialMT-6f"/>
     <use x="1233.93554688" xlink:href="#ArialMT-6e"/>
    </g>
   </g>
  </g>
 </g>
 <defs>
  <clipPath id="p7ff5b81e1d">
   <rect height="345.6" width="446.4" x="72.0" y="43.2"/>
  </clipPath>
 </defs>
</svg>
